{
	"info": {
		"_postman_id": "14d6570f-6f2e-4d79-adba-f3034e2803c4",
		"name": "ts-sv-api-orchestrator-balance-iso8583",
		"schema": "https://schema.getpostman.com/json/collection/v2.1.0/collection.json"
	},
	"item": [
		{
			"name": "Setup",
			"item": [
				{
					"name": "IsoB1:POST Rules Engine Merchants and Terminals",
					"event": [
						{
							"listen": "test",
							"script": {
								"id": "a1316c93-3ca7-46d7-90f1-0a38e06e7e22",
								"exec": [
									"pm.test(\"Status code 201\", () => {",
									"\tpm.expect(201).to.eql(responseCode.code);",
									"});",
									"var env = pm.environment",
									"var body = JSON.parse(responseBody);",
									"",
									"env.set(\"B-rules-engine-id\", body.id);",
									"",
									"// validate merchant",
									"pm.test(\"Merchant Length is Correct\", () => {",
									"\tpm.expect(1).to.eql(body.merchants.length);",
									"});",
									"var merchant = body.merchants[0]",
									"env.set(\"B-rules-engine-merchant-id\", merchant.id);",
									"",
									"// validate terminal",
									"pm.test(\"Terminal Length is Correct\", () => {",
									"\tpm.expect(2).to.eql(merchant.terminals.length );",
									"});",
									"// save active terminal id",
									"var terminalActive = merchant.terminals.find(term => term.active)",
									"env.set(\"B-rules-engine-terminal-active-id\", terminalActive.id);",
									"// save denied terminal id",
									"var terminalDenied = merchant.terminals.find(term => !term.active)",
									"env.set(\"B-rules-engine-terminal-denied-id\", terminalDenied.id);",
									"",
									"env.set(\"B-rules-engine-tender-rule-id\", body.institutions[0].tenderRules.find(tr => \"FOO TENDER 2\" === tr.name).id);",
									""
								],
								"type": "text/javascript"
							}
						},
						{
							"listen": "prerequest",
							"script": {
								"id": "f055a367-9cb5-4701-bff4-b1be20602ae5",
								"exec": [
									"var uuid = require('uuid'); ",
									"pm.environment.set(\"B-institution-id\", uuid.v4());",
									"pm.environment.set(\"B-account-type-id1\", uuid.v4());",
									"pm.environment.set(\"B-account-type-id2\", uuid.v4());",
									""
								],
								"type": "text/javascript"
							}
						}
					],
					"request": {
						"method": "POST",
						"header": [
							{
								"key": "Content-Type",
								"name": "Content-Type",
								"type": "text",
								"value": "application/json"
							}
						],
						"body": {
							"mode": "raw",
							"raw": "{\n\t\"merchants\": [\n    {\n      \"name\": \"FOO MERCHANT\",\n      \"expireTimeToLive\": 60,\n      \"terminals\": [\n      \t{\n          \"name\": \"FOO TERM 1\",\n          \"active\": true\n        },\n        {\n          \"name\": \"FOO TERM 2\",\n          \"active\": false\n        }\n      ]\n    }\n  ],\n  \"institutions\": [{\n  \t\"id\": \"{{B-institution-id}}\",\n  \t\"name\": \"FOO INSTITUTION\",\n  \t\"tenderRules\": [\n      \t{\n          \"name\": \"FOO TENDER 1\",\n          \"accountsDrainOrder\": [\n      \t{\n          \"accountTypeId\": \"{{B-account-type-id1}}\",\n          \"accountTypeRules\": {\n          \t\"maxAmount\": \"100\"\n          }\n        }\n      ]\n        },\n        {\n          \"name\": \"FOO TENDER 2\",\n          \"accountsDrainOrder\": [\n      \t{\n          \"accountTypeId\": \"{{B-account-type-id2}}\",\n          \"accountTypeRules\": {\n          \t\"maxAmount\": \"100\"\n          }\n        }\n      ]\n        }\n      ]\n  \t\n  }\n  \t]\n}"
						},
						"url": {
							"raw": "{{rules-engine-base-url}}/sv/rulesengine",
							"host": [
								"{{rules-engine-base-url}}"
							],
							"path": [
								"sv",
								"rulesengine"
							]
						}
					},
					"response": []
				},
				{
					"name": "IsoB1:POST Auth Engine new AccountHolder with Account",
					"event": [
						{
							"listen": "test",
							"script": {
								"id": "545c59db-cf9e-41a3-ae3c-d3f58019934c",
								"exec": [
									"pm.test(\"Status code 201\", () => {",
									"\tpm.expect(201).to.eql(responseCode.code);",
									"});",
									"tests[\"Status code 201\"] = responseCode.code === 201;",
									"var env = pm.environment",
									"var body = JSON.parse(responseBody);",
									"",
									"env.set(\"B-accountholder-id\", body.accountHolderId);",
									"env.set(\"B-account-id\", body.accounts.find(a => env.get(\"B-account-type-id2\") === a.accountTypeId).accountId);"
								],
								"type": "text/javascript"
							}
						},
						{
							"listen": "prerequest",
							"script": {
								"id": "beabb61b-468c-4746-9718-694b0f2a5f3b",
								"exec": [
									"var nowPlus1Minute = new Date(new Date().getTime() + 600000);",
									"",
									"pm.environment.set(\"exp-date-time\", nowPlus1Minute.toISOString());"
								],
								"type": "text/javascript"
							}
						}
					],
					"request": {
						"method": "POST",
						"header": [
							{
								"key": "Content-Type",
								"type": "text",
								"value": "application/json"
							},
							{
								"key": "INSTITUTION-ID",
								"type": "text",
								"value": "{{B-institution-id}}"
							}
						],
						"body": {
							"mode": "raw",
							"raw": "{\n    \"docversion\": \"1.0\",\n    \"active\": \"true\",\n    \"institutionId\": \"{{B-institution-id}}\",\n    \"accounts\": [\n        {\n            \"accountTypeId\": \"{{B-account-type-id1}}\",\n            \"active\": \"true\",\n            \"balance\": \"300.00\",\n            \"auths\" : [\n            \t{\n\t            \t\"status\" : \"OPEN\",\n\t            \t\"expiredDateTime\" : \"{{exp-date-time}}\",\n\t            \t\"closedDateTime\": \"{{exp-date-time}}\",\n\t            \t\"amount\" : \"50.00\"\n            \t},\n            \t{\n            \t\t\"status\" : \"VOID\",\n            \t\t\"expiredDateTime\" : \"{{exp-date-time}}\",\n            \t\t\"closedDateTime\": \"{{exp-date-time}}\",\n            \t\t\"amount\" : \"50.00\"\n            \t}\n            ]\n        },\n        {\n            \"accountTypeId\": \"{{B-account-type-id2}}\",\n            \"active\": \"true\",\n            \"balance\": \"50.00\",\n            \"auths\" : []\n        }\n    ]\n}"
						},
						"url": {
							"raw": "{{auth-engine-base-url}}/sv/internal/accountholders",
							"host": [
								"{{auth-engine-base-url}}"
							],
							"path": [
								"sv",
								"internal",
								"accountholders"
							]
						}
					},
					"response": []
				},
				{
					"name": "ISOB1_PC:POST Credential",
					"event": [
						{
							"listen": "test",
							"script": {
								"id": "545c59db-cf9e-41a3-ae3c-d3f58019934c",
								"exec": [
									"pm.test(\"Status code 201\", () => {",
									"\tpm.expect(201).to.eql(responseCode.code);",
									"});",
									"var env = pm.environment",
									"var body = JSON.parse(responseBody);",
									"",
									"env.set(\"B-credential-id\", body.id);"
								],
								"type": "text/javascript"
							}
						},
						{
							"listen": "prerequest",
							"script": {
								"id": "beabb61b-468c-4746-9718-694b0f2a5f3b",
								"exec": [
									"var uuid = require('uuid'); ",
									"var env = pm.environment",
									"//Generate random 16 digit number",
									"var cardNumber = Math.floor(Math.random() * 9000000000000000) + 1000000000000000;",
									"env.set(\"B-credential-value\", cardNumber.toString());",
									"",
									"var nowPlus10Minute = new Date(new Date().getTime() + 600000);",
									"",
									"env.set(\"B-credential-exp-date-time\", nowPlus10Minute.toISOString());",
									"env.set(\"B-credential-type\", \"SAMPLE_MAGSTRIPE\");"
								],
								"type": "text/javascript"
							}
						}
					],
					"request": {
						"method": "POST",
						"header": [
							{
								"key": "Content-Type",
								"type": "text",
								"value": "application/json"
							},
							{
								"key": "INSTITUTION-ID",
								"type": "text",
								"value": "{{BI3-institutionId}}"
							}
						],
						"body": {
							"mode": "raw",
							"raw": "{\n  \"accountHolderId\": \"{{B-accountholder-id}}\",\n  \"accountHolderInstitutionId\": \"{{B-institution-id}}\",\n  \"type\": \"{{B-credential-type}}\",\n  \"value\": \"{{B-credential-value}}\",\n  \"expirationDateTime\": \"{{B-credential-exp-date-time}}\",\n  \"enabled\": true\n}"
						},
						"url": {
							"raw": "{{credential-base-url}}/sv/credentials",
							"host": [
								"{{credential-base-url}}"
							],
							"path": [
								"sv",
								"credentials"
							]
						}
					},
					"response": []
				},
				{
					"name": "isoB1_PNMM:POST New Merchant Resolver Mapping",
					"event": [
						{
							"listen": "test",
							"script": {
								"id": "3cb5171c-ac50-4307-844a-c1699687db90",
								"exec": [
									"pm.test(\"Response status code = \" + pm.response.code, function() {",
									"\tpm.response.to.have.status(201)",
									"});",
									"var env = pm.environment",
									"var jsonData = pm.response.json();",
									"",
									"pm.test(\"merchant id = \" + jsonData.merchantId, function() {",
									"\tpm.expect(jsonData.merchantId).to.eql(pm.environment",
									"\t\t\t.get(\"B-rules-engine-merchant-id\"));",
									"});",
									"",
									"pm.test(\"merchantKey key = \" + jsonData.merchantKey, function() {",
									"\tpm.expect(jsonData.merchantKey).to.eql(pm.environment",
									"\t\t\t.get(\"B-merchant-key\"));",
									"});",
									"",
									"pm.test(\"iso8583merchantNumber = \" + jsonData.iso8583merchantNumber, function() {",
									"\tpm.expect(jsonData.iso8583merchantNumber).to.eql(pm.environment",
									"\t\t\t.get(\"B-iso8583-number\"));",
									"});",
									"",
									"pm.test(\"institution id = \" + jsonData.institutionId, function() {",
									"\tpm.expect(jsonData.institutionId).to.eql(pm.environment",
									"\t\t\t.get(\"B-institution-id\"));",
									"});"
								],
								"type": "text/javascript"
							}
						},
						{
							"listen": "prerequest",
							"script": {
								"id": "6d7aa0a4-9c62-45b0-878f-70f243df95d6",
								"exec": [
									"var uuid = require('uuid'); ",
									"var env = pm.environment",
									"env.set(\"B-merchant-key\", uuid.v4());",
									"env.set(\"B-institution-id\", uuid.v4());",
									"env.set(\"B-iso8583-number\", uuid.v4());",
									""
								],
								"type": "text/javascript"
							}
						}
					],
					"request": {
						"method": "POST",
						"header": [
							{
								"key": "Content-Type",
								"name": "Content-Type",
								"type": "text",
								"value": "application/json"
							}
						],
						"body": {
							"mode": "raw",
							"raw": "{\n    \"merchantId\": \"{{B-rules-engine-merchant-id}}\",\n    \"institutionId\": \"{{B-institution-id}}\",\n    \"merchantKey\": \"{{B-merchant-key}}\",\n    \"iso8583merchantNumber\": \"{{B-iso8583-number}}\"\n}"
						},
						"url": {
							"raw": "{{orchestrator-base-url}}/sv/merchantresolver",
							"host": [
								"{{orchestrator-base-url}}"
							],
							"path": [
								"sv",
								"merchantresolver"
							]
						}
					},
					"response": []
				},
				{
					"name": "isoBI: POST Terminal Key Resolver Mapping",
					"event": [
						{
							"listen": "test",
							"script": {
								"id": "3cb5171c-ac50-4307-844a-c1699687db90",
								"exec": [
									"pm.test(\"Response status code = \" + pm.response.code, function() {",
									"\tpm.response.to.have.status(201)",
									"});"
								],
								"type": "text/javascript"
							}
						},
						{
							"listen": "prerequest",
							"script": {
								"id": "6d7aa0a4-9c62-45b0-878f-70f243df95d6",
								"exec": [
									"var uuid = require('uuid'); ",
									"var env = pm.environment",
									"env.set(\"B-terminal-key\", uuid.v4());",
									"env.set(\"B-terminal-iso8583-number\", uuid.v4());"
								],
								"type": "text/javascript"
							}
						}
					],
					"request": {
						"method": "POST",
						"header": [
							{
								"key": "Content-Type",
								"name": "Content-Type",
								"type": "text",
								"value": "application/json"
							}
						],
						"body": {
							"mode": "raw",
							"raw": "{\n\t\"terminalId\" : \"{{B-rules-engine-terminal-active-id}}\",\n    \"terminalKey\" : \"{{B-terminal-key}}\",\n    \"iso8583terminalNumber\" :  \"{{B-terminal-iso8583-number}}\"\n}"
						},
						"url": {
							"raw": "{{orchestrator-base-url}}/sv/terminalresolver",
							"host": [
								"{{orchestrator-base-url}}"
							],
							"path": [
								"sv",
								"terminalresolver"
							]
						}
					},
					"response": []
				}
			],
			"event": [
				{
					"listen": "prerequest",
					"script": {
						"id": "091d5427-5295-4d95-a2a4-c6ec833db985",
						"type": "text/javascript",
						"exec": [
							""
						]
					}
				},
				{
					"listen": "test",
					"script": {
						"id": "a5924b63-2e13-4e36-82ab-8ebd29c927cc",
						"type": "text/javascript",
						"exec": [
							""
						]
					}
				}
			],
			"protocolProfileBehavior": {}
		},
		{
			"name": "Happy Path Iso8583 Balance",
			"item": [
				{
					"name": "IsoB2:Get Total Account Open To Buy Balances",
					"event": [
						{
							"listen": "test",
							"script": {
								"id": "4873d7b4-62ef-441f-8ad5-71a9935d8a27",
								"exec": [
									"pm.test(\"Status code 200\", () => {",
									"\tpm.expect(200).to.eql(responseCode.code);",
									"});",
									"var body = JSON.parse(responseBody);",
									"var env = pm.environment",
									" ",
									"pm.test(\"Request Result is correct\", () => {",
									"\tpm.expect(\"0110\").to.eql(body[pm.globals.get(\"KEY_MTI\")]);",
									"});",
									"",
									"pm.test(\"Balance is 300.0\", () => {",
									"\tpm.expect(\"300.0\").to.eql(body[pm.globals.get(\"KEY_BAL_INFO\")]);",
									"});",
									"",
									"pm.test(\"Request Result is correct\", () => {",
									"\tpm.expect(\"SUCCESS\").to.eql(body[pm.globals.get(\"KEY_RESPONSE_CODE\")]);",
									"});",
									""
								],
								"type": "text/javascript"
							}
						}
					],
					"request": {
						"method": "POST",
						"header": [
							{
								"key": "Content-Type",
								"name": "Content-Type",
								"type": "text",
								"value": "application/json"
							}
						],
						"body": {
							"mode": "raw",
							"raw": "{\n\t\"{{KEY_MTI}}\":\"{{BALANCE_MTI}}\",\n\t\"{{KEY_PROC_CODE}}\":\"{{OTB_PROC_CODE}}\",\n\t\"{{KEY_CARD_ACCEPTOR_TERM_ID}}\":\"{{B-terminal-iso8583-number}}\",\n\t\"{{KEY_CARD_ACCEPTOR_ID}}\":\"{{B-iso8583-number}}\",\n\t\"{{KEY_CREDENTIAL_ID}}\":\"{{B-credential-value}}\"\n}"
						},
						"url": {
							"raw": "{{ts-sv-api-iso8583-url}}/sv/txn",
							"host": [
								"{{ts-sv-api-iso8583-url}}"
							],
							"path": [
								"sv",
								"txn"
							]
						}
					},
					"response": []
				}
			],
			"event": [
				{
					"listen": "prerequest",
					"script": {
						"id": "199d020e-c6ab-4fe4-9dfb-328ab75b1124",
						"type": "text/javascript",
						"exec": [
							""
						]
					}
				},
				{
					"listen": "test",
					"script": {
						"id": "8e15eb45-d21f-457f-9f01-ec257e6b76bd",
						"type": "text/javascript",
						"exec": [
							""
						]
					}
				}
			],
			"protocolProfileBehavior": {}
		},
		{
			"name": "Clean up",
			"item": [
				{
					"name": "isoB_DMM:DELETE Merchant Key Resolver Mapping",
					"event": [
						{
							"listen": "test",
							"script": {
								"id": "e1dead1a-098d-4188-9b55-69f0e811478f",
								"exec": [
									"pm.test(\"Response status code = \" + pm.response.code, function() {",
									"\tpm.response.to.have.status(200)",
									"});"
								],
								"type": "text/javascript"
							}
						}
					],
					"request": {
						"method": "DELETE",
						"header": [
							{
								"key": "Content-Type",
								"name": "Content-Type",
								"type": "text",
								"value": "application/json"
							}
						],
						"url": {
							"raw": "{{orchestrator-base-url}}/sv/merchantresolver/{{B-merchant-key}}",
							"host": [
								"{{orchestrator-base-url}}"
							],
							"path": [
								"sv",
								"merchantresolver",
								"{{B-merchant-key}}"
							]
						}
					},
					"response": []
				},
				{
					"name": "isoB: DELETE Terminal Key Resolver Mapping",
					"event": [
						{
							"listen": "test",
							"script": {
								"id": "e1dead1a-098d-4188-9b55-69f0e811478f",
								"exec": [
									"pm.test(\"Response status code = \" + pm.response.code, function() {",
									"\tpm.response.to.have.status(200)",
									"});"
								],
								"type": "text/javascript"
							}
						}
					],
					"request": {
						"method": "DELETE",
						"header": [
							{
								"key": "Content-Type",
								"name": "Content-Type",
								"type": "text",
								"value": "application/json"
							}
						],
						"url": {
							"raw": "{{orchestrator-base-url}}/sv/terminalresolver/{{B-terminal-key}}",
							"host": [
								"{{orchestrator-base-url}}"
							],
							"path": [
								"sv",
								"terminalresolver",
								"{{B-terminal-key}}"
							]
						}
					},
					"response": []
				},
				{
					"name": "IsoB END:DELETE Rules Engine Config",
					"event": [
						{
							"listen": "test",
							"script": {
								"id": "83fc3562-58b8-4256-8d31-078e6f3719dc",
								"exec": [
									"tests[\"Status code 200\"] = responseCode.code === 200;"
								],
								"type": "text/javascript"
							}
						}
					],
					"request": {
						"method": "DELETE",
						"header": [],
						"body": {
							"mode": "raw",
							"raw": ""
						},
						"url": {
							"raw": "{{rules-engine-base-url}}/sv/rulesengine/{{B-rules-engine-id}}",
							"host": [
								"{{rules-engine-base-url}}"
							],
							"path": [
								"sv",
								"rulesengine",
								"{{B-rules-engine-id}}"
							]
						}
					},
					"response": []
				},
				{
					"name": "IsoB END:DELETE AccountHolder",
					"event": [
						{
							"listen": "test",
							"script": {
								"id": "c32583ae-a620-4a8c-ae6e-85b617b9ec9b",
								"exec": [
									"tests[\"Status code 200\"] = responseCode.code === 200;"
								],
								"type": "text/javascript"
							}
						}
					],
					"request": {
						"method": "DELETE",
						"header": [
							{
								"key": "INSTITUTION-ID",
								"type": "text",
								"value": "{{institution-id}}"
							}
						],
						"body": {
							"mode": "raw",
							"raw": ""
						},
						"url": {
							"raw": "{{auth-engine-base-url}}/sv/internal/accountholders/{{B-accountholder-id}}",
							"host": [
								"{{auth-engine-base-url}}"
							],
							"path": [
								"sv",
								"internal",
								"accountholders",
								"{{B-accountholder-id}}"
							]
						}
					},
					"response": []
				},
				{
					"name": "ISOB1_DC:Delete Credential",
					"event": [
						{
							"listen": "test",
							"script": {
								"id": "545c59db-cf9e-41a3-ae3c-d3f58019934c",
								"exec": [
									"pm.test(\"Status code 200\", () => {",
									"\tpm.expect(200).to.eql(responseCode.code);",
									"});"
								],
								"type": "text/javascript"
							}
						},
						{
							"listen": "prerequest",
							"script": {
								"id": "beabb61b-468c-4746-9718-694b0f2a5f3b",
								"exec": [
									""
								],
								"type": "text/javascript"
							}
						}
					],
					"request": {
						"method": "DELETE",
						"header": [
							{
								"key": "Content-Type",
								"type": "text",
								"value": "application/json"
							},
							{
								"key": "INSTITUTION-ID",
								"type": "text",
								"value": "{{BI3-institutionId}}"
							}
						],
						"body": {
							"mode": "raw",
							"raw": ""
						},
						"url": {
							"raw": "{{credential-base-url}}/sv/credentials/{{B-credential-id}}",
							"host": [
								"{{credential-base-url}}"
							],
							"path": [
								"sv",
								"credentials",
								"{{B-credential-id}}"
							]
						}
					},
					"response": []
				}
			],
			"event": [
				{
					"listen": "prerequest",
					"script": {
						"id": "0f6ac21a-c50b-4908-af5c-6db685782488",
						"type": "text/javascript",
						"exec": [
							""
						]
					}
				},
				{
					"listen": "test",
					"script": {
						"id": "d6541000-4e7b-47b3-9b9f-834a6c96c48c",
						"type": "text/javascript",
						"exec": [
							""
						]
					}
				}
			],
			"protocolProfileBehavior": {}
		}
	],
	"protocolProfileBehavior": {}
}