{
	"info": {
		"_postman_id": "eaae4e8e-ffc9-441f-8739-c9eca7194486",
		"name": "ts-sv-api-orchestrator-balance",
		"schema": "https://schema.getpostman.com/json/collection/v2.1.0/collection.json"
	},
	"item": [
		{
			"name": "BI Setup",
			"item": [
				{
					"name": "Stages Reusable Utility Methods For Balance Inquiry Tests",
					"event": [
						{
							"listen": "test",
							"script": {
								"id": "7ce73427-1e7c-41e4-8e1e-6e2335351801",
								"exec": [
									"pm.test(\"Response status code = \" + pm.response.code, () => {",
									"\tpm.response.to.have.status(200)",
									"});"
								],
								"type": "text/javascript"
							}
						},
						{
							"listen": "prerequest",
							"script": {
								"id": "92bcd3bc-cdb8-49dd-b8fa-281d63bffb8c",
								"exec": [
									"// validates successsful accountHolder post and sets accountholderid variable",
									"let accountHolderHandlerFunction = (ahIdVar) => {",
									"        var env = pm.environment",
									"        var body = JSON.parse(responseBody);",
									"        ",
									"        pm.test(\"Status code 201\", () => {",
									"        \tpm.response.to.have.status(201);",
									"        });",
									"        ",
									"        env.set(ahIdVar, body.accountHolderId);",
									"    }",
									"pm.globals.set(\"BIaccountHolderHandler\", accountHolderHandlerFunction.toString());",
									"",
									"// pass in account number for unique test name and ",
									"// expected acctTypeId, balance, and OTB and validate values",
									"let accountBalanceValidatorFunction = (body, acctNum, acctTypeId, balance, otb) => {",
									"        var account = body.accountBalances.find(bal => acctTypeId == bal.accountTypeId)",
									"        ",
									"        pm.test(\"Correct Account Balance for Account \" + acctNum, () => {",
									"        \tpm.expect(balance).to.eql(account.balance);",
									"        });",
									"        ",
									"        pm.test(\"Correct Account OTB Balance for Account \" + acctNum, () => {",
									"        \tpm.expect(otb).to.eql(account.openToBuyBalance);",
									"        });",
									"    }",
									"pm.globals.set(\"BIaccountBalanceValidator\", accountBalanceValidatorFunction.toString());",
									"",
									"// generic validation for balance inquiry response success",
									"let balanceInquiryResponseValidatorFunction = (body, ahId, numAccts, terminalKey) => {",
									"        pm.test(\"Status code 201\", () => {",
									"        \tpm.response.to.have.status(201);",
									"        });",
									"        ",
									"        pm.test(\"Inquiry was Successful\", () => {",
									"        \tpm.expect(\"SUCCESS\").to.eql(body.requestResult);",
									"        });",
									"        ",
									"        pm.test(\"Correct AccountHolder\", () => {",
									"        \tpm.expect(ahId).to.eql(body.accountHolderId);",
									"        });",
									"        ",
									"        pm.test(\"Correct Number of Accounts\", () => {",
									"        \tpm.expect(numAccts).to.eql(body.accountBalances.length);",
									"        });",
									"        ",
									"        pm.test(\"Correct Terminal Key\", () => {",
									"            pm.expect(terminalKey).to.eql(body.terminalKey);",
									"        });",
									"    }",
									"pm.globals.set(\"BIresponseValidator\", balanceInquiryResponseValidatorFunction.toString());",
									""
								],
								"type": "text/javascript"
							}
						}
					],
					"request": {
						"method": "GET",
						"header": [],
						"url": {
							"raw": "{{orchestrator-base-url}}/actuator/info",
							"host": [
								"{{orchestrator-base-url}}"
							],
							"path": [
								"actuator",
								"info"
							]
						}
					},
					"response": []
				},
				{
					"name": "BI:POST Rules Engine Merchants and Terminals",
					"event": [
						{
							"listen": "test",
							"script": {
								"id": "73575542-be9b-490d-923d-185cfe849ec9",
								"exec": [
									"pm.test(\"Status code 201\", () => {",
									"\tpm.expect(201).to.eql(responseCode.code);",
									"});",
									"var env = pm.environment",
									"var body = JSON.parse(responseBody);",
									"",
									"env.set(\"BI-rules-engine-id\", body.id);",
									"",
									"// validate merchant",
									"pm.test(\"Merchant Length is Correct\", () => {",
									"\tpm.expect(1).to.eql(body.merchants.length);",
									"});",
									"var merchant = body.merchants[0]",
									"env.set(\"BI-rules-engine-merchant-id\", merchant.id);",
									"",
									"// validate terminal",
									"pm.test(\"Terminal Length is Correct\", () => {",
									"\tpm.expect(2).to.eql(merchant.terminals.length);",
									"});",
									"// save active terminal id",
									"var terminalActive = merchant.terminals.find(term => term.active)",
									"env.set(\"BI-rules-engine-terminal-active-id\", terminalActive.id);",
									"// svae denied terminal id",
									"var terminalDenied = merchant.terminals.find(term => !term.active)",
									"env.set(\"BI-rules-engine-terminal-denied-id\", terminalDenied.id);"
								],
								"type": "text/javascript"
							}
						}
					],
					"request": {
						"method": "POST",
						"header": [
							{
								"key": "Content-Type",
								"name": "Content-Type",
								"type": "text",
								"value": "application/json"
							}
						],
						"body": {
							"mode": "raw",
							"raw": "{\n    \"merchants\": [\n        {\n            \"name\": \"FOO MERCHANT\",\n            \"expireTimeToLive\": 60,\n            \"terminals\": [\n                {\n                    \"name\": \"FOO TERM 1\",\n                    \"active\": true\n                },\n                {\n                    \"name\": \"FOO TERM 2\",\n                    \"active\": false\n                }\n            ]\n        }\n    ]\n}"
						},
						"url": {
							"raw": "{{rules-engine-base-url}}/sv/rulesengine",
							"host": [
								"{{rules-engine-base-url}}"
							],
							"path": [
								"sv",
								"rulesengine"
							]
						}
					},
					"response": []
				},
				{
					"name": "BI: POST Merchant Key Resolver Mapping",
					"event": [
						{
							"listen": "test",
							"script": {
								"id": "256a2667-d8b2-428a-a9b7-79252a30645e",
								"exec": [
									"pm.test(\"Response status code = \" + pm.response.code, function() {",
									"\tpm.response.to.have.status(201)",
									"});"
								],
								"type": "text/javascript"
							}
						},
						{
							"listen": "prerequest",
							"script": {
								"id": "d850870a-e8f4-49f8-8899-725eb7d5cdb9",
								"exec": [
									"var uuid = require('uuid'); ",
									"var env = pm.environment",
									"env.set(\"BI-merchant-key\", uuid.v4());",
									"env.set(\"BI-institution-id\", uuid.v4());",
									"env.set(\"BI-terminal-key\", uuid.v4());"
								],
								"type": "text/javascript"
							}
						}
					],
					"request": {
						"method": "POST",
						"header": [
							{
								"key": "Content-Type",
								"name": "Content-Type",
								"type": "text",
								"value": "application/json"
							}
						],
						"body": {
							"mode": "raw",
							"raw": "{\n    \"merchantId\": \"{{BI-rules-engine-merchant-id}}\",\n    \"institutionId\": \"{{BI-institution-id}}\",\n    \"merchantKey\": \"{{BI-merchant-key}}\",\n    \"defaultTerminalKey\": \"{{BI-terminal-key}}\"\n}"
						},
						"url": {
							"raw": "{{orchestrator-base-url}}/sv/merchantresolver",
							"host": [
								"{{orchestrator-base-url}}"
							],
							"path": [
								"sv",
								"merchantresolver"
							]
						}
					},
					"response": []
				},
				{
					"name": "BI: POST Terminal Key Resolver Mapping",
					"event": [
						{
							"listen": "test",
							"script": {
								"id": "5b426143-bc05-4617-9f79-f68566bad49b",
								"exec": [
									"pm.test(\"Response status code = \" + pm.response.code, function() {",
									"\tpm.response.to.have.status(201)",
									"});"
								],
								"type": "text/javascript"
							}
						},
						{
							"listen": "prerequest",
							"script": {
								"id": "f34b3c03-3ed3-431f-90eb-2ef0119c63d2",
								"exec": [
									""
								],
								"type": "text/javascript"
							}
						}
					],
					"request": {
						"method": "POST",
						"header": [
							{
								"key": "Content-Type",
								"name": "Content-Type",
								"type": "text",
								"value": "application/json"
							}
						],
						"body": {
							"mode": "raw",
							"raw": "{\n\t\"terminalId\" : \"{{BI-rules-engine-terminal-active-id}}\",\n    \"terminalKey\" : \"{{BI-terminal-key}}\"\n}"
						},
						"url": {
							"raw": "{{orchestrator-base-url}}/sv/terminalresolver",
							"host": [
								"{{orchestrator-base-url}}"
							],
							"path": [
								"sv",
								"terminalresolver"
							]
						}
					},
					"response": []
				},
				{
					"name": "BI: POST Terminal Key Resolver Mapping Denied",
					"event": [
						{
							"listen": "test",
							"script": {
								"id": "f911e939-de5b-4995-afa0-38300d4424a0",
								"exec": [
									"pm.test(\"Response status code = \" + pm.response.code, function() {",
									"\tpm.response.to.have.status(201)",
									"});"
								],
								"type": "text/javascript"
							}
						},
						{
							"listen": "prerequest",
							"script": {
								"id": "011ddd2a-8b0a-46ca-b98c-1fd6f8063b09",
								"exec": [
									"var uuid = require('uuid'); ",
									"var env = pm.environment",
									"env.set(\"BI-terminal-key-denied\", uuid.v4());"
								],
								"type": "text/javascript"
							}
						}
					],
					"request": {
						"method": "POST",
						"header": [
							{
								"key": "Content-Type",
								"name": "Content-Type",
								"type": "text",
								"value": "application/json"
							}
						],
						"body": {
							"mode": "raw",
							"raw": "{\n\t\"terminalId\" : \"{{BI-rules-engine-terminal-denied-id}}\",\n    \"terminalKey\" : \"{{BI-terminal-key-denied}}\"\n}"
						},
						"url": {
							"raw": "{{orchestrator-base-url}}/sv/terminalresolver",
							"host": [
								"{{orchestrator-base-url}}"
							],
							"path": [
								"sv",
								"terminalresolver"
							]
						}
					},
					"response": []
				},
				{
					"name": "BI: POST Terminal Key Resolver Mapping Not Found",
					"event": [
						{
							"listen": "test",
							"script": {
								"id": "a41e2845-d43c-41e8-b297-9200c6c84f2a",
								"exec": [
									"pm.test(\"Response status code = \" + pm.response.code, function() {",
									"\tpm.response.to.have.status(201)",
									"});"
								],
								"type": "text/javascript"
							}
						},
						{
							"listen": "prerequest",
							"script": {
								"id": "5e0dbba0-854b-424f-b865-c68d2f9b6b04",
								"exec": [
									"var uuid = require('uuid'); ",
									"var env = pm.environment",
									"env.set(\"BI-terminal-key-missing\", uuid.v4());",
									"env.set(\"BI-rules-engine-terminal-missing-id\", uuid.v4());"
								],
								"type": "text/javascript"
							}
						}
					],
					"request": {
						"method": "POST",
						"header": [
							{
								"key": "Content-Type",
								"name": "Content-Type",
								"type": "text",
								"value": "application/json"
							}
						],
						"body": {
							"mode": "raw",
							"raw": "{\n\t\"terminalId\" : \"{{BI-rules-engine-terminal-missing-id}}\",\n    \"terminalKey\" : \"{{BI-terminal-key-missing}}\"\n}"
						},
						"url": {
							"raw": "{{orchestrator-base-url}}/sv/terminalresolver",
							"host": [
								"{{orchestrator-base-url}}"
							],
							"path": [
								"sv",
								"terminalresolver"
							]
						}
					},
					"response": []
				}
			],
			"protocolProfileBehavior": {}
		},
		{
			"name": "BI3: 1 AccountHolder 5 Accounts Balance Inquiry",
			"item": [
				{
					"name": "BI3_1:POST Auth Engine new AccountHolder with 5 Accounts with Auths",
					"event": [
						{
							"listen": "test",
							"script": {
								"id": "83cf3141-0aac-48e9-96a6-75a88b34ffea",
								"exec": [
									"var env = pm.environment",
									"var body = JSON.parse(responseBody);",
									"env.set(\"BI3-accountholder-id\", body.accountHolderId);",
									"",
									"eval(pm.globals.get(\"BIaccountHolderHandler\"))(env.get(\"BI3-accountholder-id\"));"
								],
								"type": "text/javascript"
							}
						},
						{
							"listen": "prerequest",
							"script": {
								"id": "ef6202c8-e327-4018-9215-7a8b7843dd23",
								"exec": [
									"var uuid = require('uuid'); ",
									"var env = pm.environment",
									"env.set(\"BI3-institution-id\", uuid.v4());",
									"env.set(\"BI3-account-type-id\", uuid.v4());",
									"env.set(\"BI3-account-type-id2\", uuid.v4());",
									"env.set(\"BI3-account-type-id3\", uuid.v4());",
									"env.set(\"BI3-account-type-id4\", uuid.v4());",
									"env.set(\"BI3-account-type-id5\", uuid.v4());",
									"",
									"var nowPlus1Minute = new Date(new Date().getTime() + 60000);",
									"",
									"env.set(\"BI3-exp-date-time\", nowPlus1Minute.toISOString());"
								],
								"type": "text/javascript"
							}
						}
					],
					"request": {
						"method": "POST",
						"header": [
							{
								"key": "Content-Type",
								"value": "application/json",
								"type": "text"
							},
							{
								"key": "INSTITUTION-ID",
								"value": "{{BI3-institutionId}}",
								"type": "text"
							}
						],
						"body": {
							"mode": "raw",
							"raw": "{\n    \"docversion\": \"1.0\",\n    \"active\": \"true\",\n    \"institutionId\": \"{{BI3-institution-id}}\",\n    \"accounts\": [\n        {\n            \"accountTypeId\": \"{{BI3-account-type-id}}\",\n            \"type\":\"IND\",\n            \"active\": \"true\",\n            \"balance\": \"100.00\",\n            \"creditLimit\": \"20.00\",\n            \"auths\": []\n        },\n        {\n            \"accountTypeId\": \"{{BI3-account-type-id2}}\",\n            \"active\": \"true\",\n            \"balance\": \"100.00\",\n            \"creditLimit\": \"20.00\",\n            \"auths\": [\n                {\n                    \"status\": \"CAPTURED\",\n                    \"expiredDateTime\": \"{{BI3-exp-date-time}}\",\n                    \"closedDateTime\": \"{{BI3-exp-date-time}}\",\n                    \"amount\": \"10.00\"\n                },\n                {\n                    \"status\": \"OPEN\",\n                    \"expiredDateTime\": \"{{BI3-exp-date-time}}\",\n                    \"closedDateTime\": \"{{BI3-exp-date-time}}\",\n                    \"amount\": \"10.00\"\n                }\n            ]\n        },\n        {\n            \"accountTypeId\": \"{{BI3-account-type-id3}}\",\n            \"type\":\"IND\",\n            \"active\": \"true\",\n            \"balance\": \"100.00\",\n            \"creditLimit\": \"20.00\",\n            \"auths\": [\n                {\n                    \"status\": \"OPEN\",\n                    \"expiredDateTime\": \"{{BI3-exp-date-time}}\",\n                    \"closedDateTime\": \"{{BI3-exp-date-time}}\",\n                    \"amount\": \"10.00\"\n                },\n                {\n                    \"status\": \"OPEN\",\n                    \"expiredDateTime\": \"{{BI3-exp-date-time}}\",\n                    \"closedDateTime\": \"{{BI3-exp-date-time}}\",\n                    \"amount\": \"20.00\"\n                }\n            ]\n        },\n        {\n            \"accountTypeId\": \"{{BI3-account-type-id4}}\",\n            \"type\":\"IND\",\n            \"active\": \"true\",\n            \"balance\": \"100.00\",\n            \"creditLimit\": \"20.00\",\n            \"auths\": [\n                {\n                    \"status\": \"VOID\",\n                    \"expiredDateTime\": \"{{BI3-exp-date-time}}\",\n                    \"closedDateTime\": \"{{BI3-exp-date-time}}\",\n                    \"amount\": \"70.00\"\n                },\n                {\n                    \"status\": \"EXPIRED\",\n                    \"expiredDateTime\": \"{{BI3-exp-date-time}}\",\n                    \"closedDateTime\": \"{{BI3-exp-date-time}}\",\n                    \"amount\": \"50.00\"\n                }\n            ]\n        },\n        {\n            \"accountTypeId\": \"{{BI3-account-type-id5}}\",\n            \"type\":\"IND\",\n            \"active\": \"true\",\n            \"balance\": \"100.00\",\n            \"creditLimit\": \"20.00\",\n            \"auths\": [\n                {\n                    \"status\": \"OPEN\",\n                    \"expiredDateTime\": \"{{BI3-exp-date-time}}\",\n                    \"closedDateTime\": \"{{BI3-exp-date-time}}\",\n                    \"amount\": \"70.00\"\n                },\n                {\n                    \"status\": \"OPEN\",\n                    \"expiredDateTime\": \"{{BI3-exp-date-time}}\",\n                    \"closedDateTime\": \"{{BI3-exp-date-time}}\",\n                    \"amount\": \"50.00\"\n                }\n            ]\n        }\n    ]\n}"
						},
						"url": {
							"raw": "{{auth-engine-base-url}}/sv/internal/accountholders",
							"host": [
								"{{auth-engine-base-url}}"
							],
							"path": [
								"sv",
								"internal",
								"accountholders"
							]
						}
					},
					"response": []
				},
				{
					"name": "BI3_3:POST Credential",
					"event": [
						{
							"listen": "test",
							"script": {
								"id": "ba2250cb-37e7-4b3e-9113-75f67a838e62",
								"exec": [
									"pm.test(\"Status code 201\", () => {",
									"\tpm.expect(201).to.eql(responseCode.code);",
									"});",
									"var env = pm.environment",
									"var body = JSON.parse(responseBody);",
									"",
									"env.set(\"BI3-credential-id\", body.id);"
								],
								"type": "text/javascript"
							}
						},
						{
							"listen": "prerequest",
							"script": {
								"id": "09b5c068-d6b2-4ec1-a3fb-e562b6b9a131",
								"exec": [
									"var uuid = require('uuid'); ",
									"var env = pm.environment",
									"env.set(\"BI3-credential-value\", uuid.v4());",
									"",
									"var nowPlus10Minute = new Date(new Date().getTime() + 600000);",
									"",
									"env.set(\"BI3-credential-exp-date-time\", nowPlus10Minute.toISOString());",
									"env.set(\"BI3-credential-type\", \"SAMPLE_GUID\");"
								],
								"type": "text/javascript"
							}
						}
					],
					"request": {
						"method": "POST",
						"header": [
							{
								"key": "Content-Type",
								"type": "text",
								"value": "application/json"
							}
						],
						"body": {
							"mode": "raw",
							"raw": "{\n  \"accountHolderId\": \"{{BI3-accountholder-id}}\",\n  \"accountHolderInstitutionId\": \"{{BI3-institution-id}}\",\n  \"type\": \"{{BI3-credential-type}}\",\n  \"value\": \"{{BI3-credential-value}}\",\n  \"expirationDateTime\": \"{{BI3-credential-exp-date-time}}\",\n  \"enabled\": true\n}"
						},
						"url": {
							"raw": "{{credential-base-url}}/sv/credentials",
							"host": [
								"{{credential-base-url}}"
							],
							"path": [
								"sv",
								"credentials"
							]
						}
					},
					"response": []
				},
				{
					"name": "BI3_2:POST Balance Inquiry on AccountHolder using Terminal Key",
					"event": [
						{
							"listen": "test",
							"script": {
								"id": "d789f682-94ad-44d1-a53a-2c73f093b98d",
								"exec": [
									"var env = pm.environment",
									"var body = JSON.parse(responseBody);",
									"",
									"eval(pm.globals.get(\"BIresponseValidator\"))(body, env.get(\"BI3-accountholder-id\"), 5, env.get(\"BI-terminal-key\"))",
									"",
									"let accountBalanceValidator = eval(pm.globals.get(\"BIaccountBalanceValidator\"));",
									"",
									"// account type id 1",
									"accountBalanceValidator(body, 1, env.get(\"BI3-account-type-id\"), \"100.00\", \"120.00\");",
									"",
									"// account type id 2",
									"accountBalanceValidator(body, 2, env.get(\"BI3-account-type-id2\"), \"100.00\", \"110.00\");",
									"",
									"// account type id 3",
									"accountBalanceValidator(body, 3, env.get(\"BI3-account-type-id3\"), \"100.00\", \"90.00\");",
									"",
									"// account type id 4",
									"accountBalanceValidator(body, 4, env.get(\"BI3-account-type-id4\"), \"100.00\", \"120.00\");",
									"",
									"// account type id 5",
									"accountBalanceValidator(body, 5, env.get(\"BI3-account-type-id5\"), \"100.00\", \"0.00\");"
								],
								"type": "text/javascript"
							}
						},
						{
							"listen": "prerequest",
							"script": {
								"id": "deee9613-b35b-4295-8a1d-196b7d82a308",
								"exec": [
									""
								],
								"type": "text/javascript"
							}
						}
					],
					"request": {
						"method": "POST",
						"header": [
							{
								"key": "MERCHANT-KEY",
								"value": "{{BI-merchant-key}}",
								"type": "text"
							},
							{
								"key": "Content-Type",
								"name": "Content-Type",
								"value": "application/json",
								"type": "text"
							}
						],
						"body": {
							"mode": "raw",
							"raw": "{\n    \"terminal\": {\n    \t\"identificationMethod\": \"{{TERMINAL_ID_METHOD_KEY}}\",\n    \t\"terminalKey\": \"{{BI-terminal-key}}\"\n    },\n    \"credential\": {\n    \t\"type\": \"{{BI3-credential-type}}\",\n    \t\"value\": \"{{BI3-credential-value}}\"\n    }\n}"
						},
						"url": {
							"raw": "{{orchestrator-base-url}}/accountholders/storedvalue/balance",
							"host": [
								"{{orchestrator-base-url}}"
							],
							"path": [
								"accountholders",
								"storedvalue",
								"balance"
							]
						}
					},
					"response": []
				},
				{
					"name": "BI3_2:POST Balance Inquiry on AccountHolder using Terminal Default",
					"event": [
						{
							"listen": "test",
							"script": {
								"id": "741a63dc-166d-40c3-8cb7-07871574b536",
								"exec": [
									"var env = pm.environment",
									"var body = JSON.parse(responseBody);",
									"",
									"eval(pm.globals.get(\"BIresponseValidator\"))(body, env.get(\"BI3-accountholder-id\"), 5, env.get(\"BI-terminal-key\"))",
									"",
									"let accountBalanceValidator = eval(pm.globals.get(\"BIaccountBalanceValidator\"));",
									"",
									"// account type id 1",
									"accountBalanceValidator(body, 1, env.get(\"BI3-account-type-id\"), \"100.00\", \"120.00\");",
									"",
									"// account type id 2",
									"accountBalanceValidator(body, 2, env.get(\"BI3-account-type-id2\"), \"100.00\", \"110.00\");",
									"",
									"// account type id 3",
									"accountBalanceValidator(body, 3, env.get(\"BI3-account-type-id3\"), \"100.00\", \"90.00\");",
									"",
									"// account type id 4",
									"accountBalanceValidator(body, 4, env.get(\"BI3-account-type-id4\"), \"100.00\", \"120.00\");",
									"",
									"// account type id 5",
									"accountBalanceValidator(body, 5, env.get(\"BI3-account-type-id5\"), \"100.00\", \"0.00\");"
								],
								"type": "text/javascript"
							}
						},
						{
							"listen": "prerequest",
							"script": {
								"id": "f154522a-d692-49d1-943e-906d5c91f174",
								"exec": [
									""
								],
								"type": "text/javascript"
							}
						}
					],
					"request": {
						"method": "POST",
						"header": [
							{
								"key": "MERCHANT-KEY",
								"value": "{{BI-merchant-key}}",
								"type": "text"
							},
							{
								"key": "Content-Type",
								"name": "Content-Type",
								"value": "application/json",
								"type": "text"
							}
						],
						"body": {
							"mode": "raw",
							"raw": "{\n    \"terminal\": {\n    \t\"identificationMethod\": \"MERCHANT_DEFAULT\"\n    },\n    \"credential\": {\n    \t\"type\": \"{{BI3-credential-type}}\",\n    \t\"value\": \"{{BI3-credential-value}}\"\n    }\n}"
						},
						"url": {
							"raw": "{{orchestrator-base-url}}/accountholders/storedvalue/balance",
							"host": [
								"{{orchestrator-base-url}}"
							],
							"path": [
								"accountholders",
								"storedvalue",
								"balance"
							]
						}
					},
					"response": []
				},
				{
					"name": "BI3_2:POST Balance Inquiry on AccountHolder FAILURE TEST",
					"event": [
						{
							"listen": "test",
							"script": {
								"id": "73f6f3eb-17ba-49f3-bf82-303cf541bcad",
								"exec": [
									"var env = pm.environment",
									"var body = JSON.parse(responseBody);",
									"",
									"eval(pm.globals.get(\"BIresponseValidator\"))(body, env.get(\"BI3-accountholder-id\"), 5, env.get(\"BI-terminal-key\"))",
									"",
									"let accountBalanceValidator = eval(pm.globals.get(\"BIaccountBalanceValidator\"));",
									"",
									"// account type id 1",
									"accountBalanceValidator(body, 1, env.get(\"BI3-account-type-id\"), \"100.00\", \"120.00\");",
									"",
									"// account type id 2",
									"accountBalanceValidator(body, 2, env.get(\"BI3-account-type-id2\"), \"100.00\", \"110.00\");",
									"",
									"// account type id 3",
									"accountBalanceValidator(body, 3, env.get(\"BI3-account-type-id3\"), \"100.00\", \"90.00\");",
									"",
									"// account type id 4",
									"accountBalanceValidator(body, 4, env.get(\"BI3-account-type-id4\"), \"100.00\", \"120.00\");",
									"",
									"// account type id 5",
									"accountBalanceValidator(body, 5, env.get(\"BI3-account-type-id5\"), \"100.00\", \"0.00\");"
								],
								"type": "text/javascript"
							}
						},
						{
							"listen": "prerequest",
							"script": {
								"id": "988b44ba-d55d-4ca0-98c4-0305fca578ee",
								"exec": [
									""
								],
								"type": "text/javascript"
							}
						}
					],
					"request": {
						"method": "POST",
						"header": [
							{
								"key": "MERCHANT-KEY",
								"value": "{{BI-merchant-key}}",
								"type": "text"
							},
							{
								"key": "Content-Type",
								"name": "Content-Type",
								"value": "application/json",
								"type": "text"
							}
						],
						"body": {
							"mode": "raw",
							"raw": "{\n    \"terminal\": {\n    \t\"identificationMethod\": \"MERCHANT_DEFAULT1\"\n    },\n    \"credential\": {\n    \t\"type\": \"{{BI3-credential-type}}\",\n    \t\"value\": \"{{BI3-credential-value}}\"\n    }\n}"
						},
						"url": {
							"raw": "{{orchestrator-base-url}}/accountholders/storedvalue/balance",
							"host": [
								"{{orchestrator-base-url}}"
							],
							"path": [
								"accountholders",
								"storedvalue",
								"balance"
							]
						}
					},
					"response": []
				},
				{
					"name": "BI3_END:Delete Credential",
					"event": [
						{
							"listen": "test",
							"script": {
								"id": "3f5198f4-b5d6-4f73-acc0-3c540016b1ce",
								"exec": [
									"pm.test(\"Status code 200\", () => {",
									"\tpm.expect(200).to.eql(responseCode.code);",
									"});"
								],
								"type": "text/javascript"
							}
						},
						{
							"listen": "prerequest",
							"script": {
								"id": "83d2b942-a89e-4001-8afe-52327c162135",
								"exec": [
									""
								],
								"type": "text/javascript"
							}
						}
					],
					"request": {
						"method": "DELETE",
						"header": [
							{
								"key": "Content-Type",
								"type": "text",
								"value": "application/json"
							}
						],
						"body": {
							"mode": "raw",
							"raw": ""
						},
						"url": {
							"raw": "{{credential-base-url}}/sv/credentials/{{BI3-credential-id}}",
							"host": [
								"{{credential-base-url}}"
							],
							"path": [
								"sv",
								"credentials",
								"{{BI3-credential-id}}"
							]
						}
					},
					"response": []
				},
				{
					"name": "BI3_END:DELETE AccountHolder",
					"event": [
						{
							"listen": "test",
							"script": {
								"id": "a6b32b0a-7e67-4824-8ff0-d3db1d01b75b",
								"exec": [
									"pm.test(\"Status code 200\", () => {",
									"\tpm.expect(200).to.eql(responseCode.code);",
									"});"
								],
								"type": "text/javascript"
							}
						}
					],
					"request": {
						"method": "DELETE",
						"header": [
							{
								"key": "INSTITUTION-ID",
								"type": "text",
								"value": "{{institution-id}}"
							}
						],
						"body": {
							"mode": "raw",
							"raw": ""
						},
						"url": {
							"raw": "{{auth-engine-base-url}}/sv/internal/accountholders/{{BI3-accountholder-id}}",
							"host": [
								"{{auth-engine-base-url}}"
							],
							"path": [
								"sv",
								"internal",
								"accountholders",
								"{{BI3-accountholder-id}}"
							]
						}
					},
					"response": []
				}
			],
			"protocolProfileBehavior": {}
		},
		{
			"name": "BI4: 2 AccountHolders 1 Shared Account Balance Inquiry",
			"item": [
				{
					"name": "BI4_1:POST Auth Engine new AccountHolder 1 with 2 IND Accounts",
					"event": [
						{
							"listen": "test",
							"script": {
								"id": "9cec73da-d0ba-4584-99ca-685764e143b9",
								"exec": [
									"var env = pm.environment",
									"var body = JSON.parse(responseBody);",
									"env.set(\"BI4-accountholder-id\", body.accountHolderId);",
									"",
									"eval(pm.globals.get(\"BIaccountHolderHandler\"))(env.get(\"BI3-accountholder-id\"));"
								],
								"type": "text/javascript"
							}
						},
						{
							"listen": "prerequest",
							"script": {
								"id": "2066132e-6c72-4509-81a8-e3f119353960",
								"exec": [
									"var uuid = require('uuid'); ",
									"var env = pm.environment",
									"env.set(\"BI4-institution-id\", uuid.v4());",
									"env.set(\"BI4-account-type-id\", uuid.v4());",
									"env.set(\"BI4-account-type-id2\", uuid.v4());",
									"",
									"var nowPlus1Minute = new Date(new Date().getTime() + 60000);"
								],
								"type": "text/javascript"
							}
						}
					],
					"request": {
						"method": "POST",
						"header": [
							{
								"key": "Content-Type",
								"value": "application/json",
								"type": "text"
							},
							{
								"key": "INSTITUTION-ID",
								"value": "{{BI4-institutionId}}",
								"type": "text"
							}
						],
						"body": {
							"mode": "raw",
							"raw": "{\n    \"docversion\": \"1.0\",\n    \"active\": \"true\",\n    \"institutionId\": \"{{BI4-institution-id}}\",\n    \"accounts\": [\n        {\n            \"accountTypeId\": \"{{BI4-account-type-id}}\",\n            \"type\":\"IND\",\n            \"active\": \"true\",\n            \"balance\": \"100.00\",\n            \"creditLimit\": \"20.00\",\n            \"auths\": []\n        },\n        {\n            \"accountTypeId\": \"{{BI4-account-type-id2}}\",\n            \"type\":\"IND\",\n            \"active\": \"true\",\n            \"balance\": \"100.00\",\n            \"creditLimit\": \"20.00\",\n            \"auths\": []\n        }\n    ]\n}"
						},
						"url": {
							"raw": "{{auth-engine-base-url}}/sv/internal/accountholders",
							"host": [
								"{{auth-engine-base-url}}"
							],
							"path": [
								"sv",
								"internal",
								"accountholders"
							]
						}
					},
					"response": []
				},
				{
					"name": "BI4_1:POST Auth Engine new AccountHolder 1 with 1 IND Account",
					"event": [
						{
							"listen": "test",
							"script": {
								"id": "9460a037-523e-4d1b-b6b1-5c685beae596",
								"exec": [
									"",
									"eval(pm.globals.get(\"BIaccountHolderHandler\"))(\"BI4-accountholder-id2\");"
								],
								"type": "text/javascript"
							}
						},
						{
							"listen": "prerequest",
							"script": {
								"id": "60c91040-8acf-4e7c-9fa7-c9efb7db1185",
								"exec": [
									""
								],
								"type": "text/javascript"
							}
						}
					],
					"request": {
						"method": "POST",
						"header": [
							{
								"key": "Content-Type",
								"type": "text",
								"value": "application/json"
							},
							{
								"key": "INSTITUTION-ID",
								"type": "text",
								"value": "{{BI4-institutionId}}"
							}
						],
						"body": {
							"mode": "raw",
							"raw": "{\n    \"docversion\": \"1.0\",\n    \"active\": \"true\",\n    \"institutionId\": \"{{BI4-institution-id}}\",\n    \"accounts\": [\n        {\n            \"accountTypeId\": \"{{BI4-account-type-id2}}\",\n            \"type\":\"IND\",\n            \"active\": \"true\",\n            \"balance\": \"100.00\",\n            \"creditLimit\": \"20.00\",\n            \"auths\": []\n        }\n    ]\n}"
						},
						"url": {
							"raw": "{{auth-engine-base-url}}/sv/internal/accountholders",
							"host": [
								"{{auth-engine-base-url}}"
							],
							"path": [
								"sv",
								"internal",
								"accountholders"
							]
						}
					},
					"response": []
				},
				{
					"name": "BI4_3_1:POST Credential 1",
					"event": [
						{
							"listen": "test",
							"script": {
								"id": "24876871-d76f-448b-814d-25cb483683e8",
								"exec": [
									"pm.test(\"Status code 201\", () => {",
									"\tpm.expect(201).to.eql(responseCode.code);",
									"});",
									"var env = pm.environment",
									"var body = JSON.parse(responseBody);",
									"",
									"env.set(\"BI4-credential-id\", body.id);"
								],
								"type": "text/javascript"
							}
						},
						{
							"listen": "prerequest",
							"script": {
								"id": "05921322-2fe5-42eb-b399-51b0f7004a4d",
								"exec": [
									"var uuid = require('uuid'); ",
									"var env = pm.environment",
									"env.set(\"BI4-credential-value\", uuid.v4());",
									"",
									"var nowPlus10Minute = new Date(new Date().getTime() + 600000);",
									"",
									"env.set(\"BI4-credential-exp-date-time\", nowPlus10Minute.toISOString());",
									"env.set(\"BI4-credential-type\", \"SAMPLE_GUID\");"
								],
								"type": "text/javascript"
							}
						}
					],
					"request": {
						"method": "POST",
						"header": [
							{
								"key": "Content-Type",
								"type": "text",
								"value": "application/json"
							}
						],
						"body": {
							"mode": "raw",
							"raw": "{\n  \"accountHolderId\": \"{{BI4-accountholder-id}}\",\n  \"accountHolderInstitutionId\": \"{{BI4-institution-id}}\",\n  \"type\": \"{{BI4-credential-type}}\",\n  \"value\": \"{{BI4-credential-value}}\",\n  \"expirationDateTime\": \"{{BI4-credential-exp-date-time}}\",\n  \"enabled\": true\n}"
						},
						"url": {
							"raw": "{{credential-base-url}}/sv/credentials",
							"host": [
								"{{credential-base-url}}"
							],
							"path": [
								"sv",
								"credentials"
							]
						}
					},
					"response": []
				},
				{
					"name": "BI4_3_2:POST Credential 2",
					"event": [
						{
							"listen": "test",
							"script": {
								"id": "71a3e40c-003c-44ff-a91b-b6b545d827b8",
								"exec": [
									"pm.test(\"Status code 201\", () => {",
									"\tpm.expect(201).to.eql(responseCode.code);",
									"});",
									"var env = pm.environment",
									"var body = JSON.parse(responseBody);",
									"",
									"env.set(\"BI4-credential-id2\", body.id);"
								],
								"type": "text/javascript"
							}
						},
						{
							"listen": "prerequest",
							"script": {
								"id": "68ff398f-eb17-4a1c-9098-87eef3ce9d97",
								"exec": [
									"var uuid = require('uuid'); ",
									"var env = pm.environment",
									"env.set(\"BI4-credential-value2\", uuid.v4());"
								],
								"type": "text/javascript"
							}
						}
					],
					"request": {
						"method": "POST",
						"header": [
							{
								"key": "Content-Type",
								"type": "text",
								"value": "application/json"
							}
						],
						"body": {
							"mode": "raw",
							"raw": "{\n  \"accountHolderId\": \"{{BI4-accountholder-id2}}\",\n  \"accountHolderInstitutionId\": \"{{BI4-institution-id}}\",\n  \"type\": \"{{BI4-credential-type}}\",\n  \"value\": \"{{BI4-credential-value2}}\",\n  \"expirationDateTime\": \"{{BI4-credential-exp-date-time}}\",\n  \"enabled\": true\n}"
						},
						"url": {
							"raw": "{{credential-base-url}}/sv/credentials",
							"host": [
								"{{credential-base-url}}"
							],
							"path": [
								"sv",
								"credentials"
							]
						}
					},
					"response": []
				},
				{
					"name": "BI4_1: POST New Group Account",
					"event": [
						{
							"listen": "test",
							"script": {
								"id": "6f2a84fa-92f9-4d01-89a0-d2e6fbe28686",
								"exec": [
									"pm.test(\"Status code 201\", () => {",
									"\tpm.expect(201).to.eql(responseCode.code);",
									"});",
									"var env = pm.environment",
									"var jsonData = JSON.parse(responseBody);",
									"",
									"env.set(\"BI4-accountmap-id\", jsonData.accountId);",
									"",
									"pm.test(\"Account type is GRP\", () => {",
									"\tpm.expect(\"GRP\").to.eql(jsonData.type);",
									"});"
								],
								"type": "text/javascript"
							}
						},
						{
							"listen": "prerequest",
							"script": {
								"id": "a805ce57-353e-4ebd-b22f-edf40af924ca",
								"exec": [
									"var uuid = require('uuid'); ",
									"pm.environment.set(\"BI4-account-type-id3\", uuid.v4());",
									""
								],
								"type": "text/javascript"
							}
						}
					],
					"request": {
						"method": "POST",
						"header": [
							{
								"key": "Content-Type",
								"type": "text",
								"value": "application/json"
							},
							{
								"key": "INSTITUTION-ID",
								"type": "text",
								"value": "{{BI4-institutionId}}"
							}
						],
						"body": {
							"mode": "raw",
							"raw": "{\n    \"type\": \"GRP\",\n    \"active\": \"true\",\n    \"institutionId\": \"{{BI4-institution-id}}\",\n    \"accountTypeId\": \"{{BI4-account-type-id3}}\",\n    \"balance\": \"50.00\",\n    \"creditLimit\": \"10.00\",\n    \"accountHolderIds\": [\n        \"{{BI4-accountholder-id}}\",\n        \"{{BI4-accountholder-id2}}\"\n    ],\n    \"auths\" : []\n}"
						},
						"url": {
							"raw": "{{auth-engine-base-url}}/sv/internal/accounts",
							"host": [
								"{{auth-engine-base-url}}"
							],
							"path": [
								"sv",
								"internal",
								"accounts"
							]
						}
					},
					"response": []
				},
				{
					"name": "BI4_2:POST Balance Inquiry on AccountHolder 1",
					"event": [
						{
							"listen": "test",
							"script": {
								"id": "fde072a2-3ca5-41f9-88ed-587880ba0523",
								"exec": [
									"var env = pm.environment",
									"var body = JSON.parse(responseBody);",
									"",
									"eval(pm.globals.get(\"BIresponseValidator\"))(body, env.get(\"BI4-accountholder-id\"), 3, env.get(\"BI-terminal-key\"))",
									"",
									"let accountBalanceValidator = eval(pm.globals.get(\"BIaccountBalanceValidator\"));",
									"",
									"// account type id 1",
									"accountBalanceValidator(body, 1, env.get(\"BI4-account-type-id\"), \"100.00\", \"120.00\");",
									"",
									"// account type id 2",
									"accountBalanceValidator(body, 2, env.get(\"BI4-account-type-id2\"), \"100.00\", \"120.00\");",
									"",
									"// account type id 3 (group account)",
									"accountBalanceValidator(body, 3, env.get(\"BI4-account-type-id3\"), \"50.00\", \"60.00\");"
								],
								"type": "text/javascript"
							}
						},
						{
							"listen": "prerequest",
							"script": {
								"id": "7bcc0aba-4546-4dba-a449-c19f6938a81e",
								"exec": [
									""
								],
								"type": "text/javascript"
							}
						}
					],
					"request": {
						"method": "POST",
						"header": [
							{
								"key": "MERCHANT-KEY",
								"value": "{{BI-merchant-key}}",
								"type": "text"
							},
							{
								"key": "Content-Type",
								"name": "Content-Type",
								"value": "application/json",
								"type": "text"
							}
						],
						"body": {
							"mode": "raw",
							"raw": "{\n    \"terminal\": {\n    \t\"identificationMethod\": \"{{TERMINAL_ID_METHOD_KEY}}\",\n    \t\"terminalKey\": \"{{BI-terminal-key}}\"\n    },\n    \"credential\": {\n    \t\"type\": \"{{BI4-credential-type}}\",\n    \t\"value\": \"{{BI4-credential-value}}\"\n    }\n}"
						},
						"url": {
							"raw": "{{orchestrator-base-url}}/accountholders/storedvalue/balance",
							"host": [
								"{{orchestrator-base-url}}"
							],
							"path": [
								"accountholders",
								"storedvalue",
								"balance"
							]
						}
					},
					"response": []
				},
				{
					"name": "BI4_2:POST Balance Inquiry on AccountHolder 2",
					"event": [
						{
							"listen": "test",
							"script": {
								"id": "072dd57b-408b-450b-96fc-a8eaf0a7e514",
								"exec": [
									"var env = pm.environment",
									"var body = JSON.parse(responseBody);",
									"",
									"eval(pm.globals.get(\"BIresponseValidator\"))(body, env.get(\"BI4-accountholder-id2\"), 2, env.get(\"BI-terminal-key\"))",
									"",
									"let accountBalanceValidator = eval(pm.globals.get(\"BIaccountBalanceValidator\"));",
									"",
									"// account type id 2",
									"accountBalanceValidator(body, 2, env.get(\"BI4-account-type-id2\"), \"100.00\", \"120.00\");",
									"",
									"// account type id 3 (group account)",
									"accountBalanceValidator(body, 3, env.get(\"BI4-account-type-id3\"), \"50.00\", \"60.00\");"
								],
								"type": "text/javascript"
							}
						},
						{
							"listen": "prerequest",
							"script": {
								"id": "3a6fd3f9-7ef7-4cf0-b858-d9393e246200",
								"exec": [
									"",
									""
								],
								"type": "text/javascript"
							}
						}
					],
					"request": {
						"method": "POST",
						"header": [
							{
								"key": "MERCHANT-KEY",
								"value": "{{BI-merchant-key}}",
								"type": "text"
							},
							{
								"key": "Content-Type",
								"name": "Content-Type",
								"value": "application/json",
								"type": "text"
							}
						],
						"body": {
							"mode": "raw",
							"raw": "{\n    \"terminal\": {\n    \t\"identificationMethod\": \"{{TERMINAL_ID_METHOD_KEY}}\",\n    \t\"terminalKey\": \"{{BI-terminal-key}}\"\n    },\n    \"credential\": {\n    \t\"type\": \"{{BI4-credential-type}}\",\n    \t\"value\": \"{{BI4-credential-value2}}\"\n    }\n}"
						},
						"url": {
							"raw": "{{orchestrator-base-url}}/accountholders/storedvalue/balance",
							"host": [
								"{{orchestrator-base-url}}"
							],
							"path": [
								"accountholders",
								"storedvalue",
								"balance"
							]
						}
					},
					"response": []
				},
				{
					"name": "BI4_END: Delete accounMap for GRP Account",
					"event": [
						{
							"listen": "test",
							"script": {
								"id": "1697d45d-9238-4ffd-80a1-b003f7822cb8",
								"exec": [
									"pm.test(\"Status code 200\", () => {",
									"\tpm.expect(200).to.eql(responseCode.code);",
									"});"
								],
								"type": "text/javascript"
							}
						}
					],
					"request": {
						"method": "DELETE",
						"header": [
							{
								"key": "INSTITUTION-ID",
								"type": "text",
								"value": "{{BI4-institutionId}}"
							}
						],
						"body": {
							"mode": "raw",
							"raw": ""
						},
						"url": {
							"raw": "{{auth-engine-base-url}}/sv/internal/accounts/{{BI4-accountmap-id}}",
							"host": [
								"{{auth-engine-base-url}}"
							],
							"path": [
								"sv",
								"internal",
								"accounts",
								"{{BI4-accountmap-id}}"
							]
						}
					},
					"response": []
				},
				{
					"name": "BI4_3_END1:Delete Credential 1",
					"event": [
						{
							"listen": "test",
							"script": {
								"id": "f42ded97-713e-4214-9fe0-6398774dd1a7",
								"exec": [
									"pm.test(\"Status code 200\", () => {",
									"\tpm.expect(200).to.eql(responseCode.code);",
									"});"
								],
								"type": "text/javascript"
							}
						},
						{
							"listen": "prerequest",
							"script": {
								"id": "301e90c9-a2ef-4588-9638-3de68c70dc14",
								"exec": [
									""
								],
								"type": "text/javascript"
							}
						}
					],
					"request": {
						"method": "DELETE",
						"header": [
							{
								"key": "Content-Type",
								"type": "text",
								"value": "application/json"
							}
						],
						"body": {
							"mode": "raw",
							"raw": ""
						},
						"url": {
							"raw": "{{credential-base-url}}/sv/credentials/{{BI4-credential-id}}",
							"host": [
								"{{credential-base-url}}"
							],
							"path": [
								"sv",
								"credentials",
								"{{BI4-credential-id}}"
							]
						}
					},
					"response": []
				},
				{
					"name": "BI4_3_END2:Delete Credential 2",
					"event": [
						{
							"listen": "test",
							"script": {
								"id": "1269070a-7727-4387-a90f-6aae5888ea61",
								"exec": [
									"pm.test(\"Status code 200\", () => {",
									"\tpm.expect(200).to.eql(responseCode.code);",
									"});"
								],
								"type": "text/javascript"
							}
						},
						{
							"listen": "prerequest",
							"script": {
								"id": "b905f8bf-019e-4adb-b0c1-609eb6caca35",
								"exec": [
									""
								],
								"type": "text/javascript"
							}
						}
					],
					"request": {
						"method": "DELETE",
						"header": [
							{
								"key": "Content-Type",
								"type": "text",
								"value": "application/json"
							}
						],
						"body": {
							"mode": "raw",
							"raw": ""
						},
						"url": {
							"raw": "{{credential-base-url}}/sv/credentials/{{BI4-credential-id2}}",
							"host": [
								"{{credential-base-url}}"
							],
							"path": [
								"sv",
								"credentials",
								"{{BI4-credential-id2}}"
							]
						}
					},
					"response": []
				},
				{
					"name": "BI4_END:DELETE AccountHolder 1",
					"event": [
						{
							"listen": "test",
							"script": {
								"id": "50869ee5-ef70-4916-9299-38f4c116cc5b",
								"exec": [
									"pm.test(\"Status code 200\", () => {",
									"\tpm.expect(200).to.eql(responseCode.code);",
									"});"
								],
								"type": "text/javascript"
							}
						}
					],
					"request": {
						"method": "DELETE",
						"header": [
							{
								"key": "INSTITUTION-ID",
								"type": "text",
								"value": "{{BI4-institutionId}}"
							}
						],
						"body": {
							"mode": "raw",
							"raw": ""
						},
						"url": {
							"raw": "{{auth-engine-base-url}}/sv/internal/accountholders/{{BI4-accountholder-id}}",
							"host": [
								"{{auth-engine-base-url}}"
							],
							"path": [
								"sv",
								"internal",
								"accountholders",
								"{{BI4-accountholder-id}}"
							]
						}
					},
					"response": []
				},
				{
					"name": "BI4_END:DELETE AccountHolder 2",
					"event": [
						{
							"listen": "test",
							"script": {
								"id": "0a6fccaa-2b07-443b-a49e-d538a80aa73d",
								"exec": [
									"pm.test(\"Status code 200\", () => {",
									"\tpm.expect(200).to.eql(responseCode.code);",
									"});"
								],
								"type": "text/javascript"
							}
						}
					],
					"request": {
						"method": "DELETE",
						"header": [
							{
								"key": "INSTITUTION-ID",
								"type": "text",
								"value": "{{BI4-institutionId}}"
							}
						],
						"body": {
							"mode": "raw",
							"raw": ""
						},
						"url": {
							"raw": "{{auth-engine-base-url}}/sv/internal/accountholders/{{BI4-accountholder-id2}}",
							"host": [
								"{{auth-engine-base-url}}"
							],
							"path": [
								"sv",
								"internal",
								"accountholders",
								"{{BI4-accountholder-id2}}"
							]
						}
					},
					"response": []
				}
			],
			"protocolProfileBehavior": {}
		},
		{
			"name": "BI7: Auth Engine Failures",
			"item": [
				{
					"name": "BI7_3:POST Credential",
					"event": [
						{
							"listen": "test",
							"script": {
								"id": "bd0edd28-928a-4079-900f-68eae51ad91d",
								"exec": [
									"pm.test(\"Status code 201\", () => {",
									"\tpm.expect(201).to.eql(responseCode.code);",
									"});",
									"var env = pm.environment",
									"var body = JSON.parse(responseBody);",
									"",
									"env.set(\"BI7-credential-id\", body.id);"
								],
								"type": "text/javascript"
							}
						},
						{
							"listen": "prerequest",
							"script": {
								"id": "170b801f-f2f9-46bd-a046-991300c319e2",
								"exec": [
									"var uuid = require('uuid'); ",
									"var env = pm.environment",
									"env.set(\"BI7-credential-value\", uuid.v4());",
									"env.set(\"BI7-accountholder-id\", uuid.v4());",
									"env.set(\"BI7-institution-id\", uuid.v4());",
									"",
									"var nowPlus10Minute = new Date(new Date().getTime() + 600000);",
									"",
									"env.set(\"BI7-credential-exp-date-time\", nowPlus10Minute.toISOString());",
									"env.set(\"BI7-credential-type\", \"SAMPLE_GUID\");"
								],
								"type": "text/javascript"
							}
						}
					],
					"request": {
						"method": "POST",
						"header": [
							{
								"key": "Content-Type",
								"type": "text",
								"value": "application/json"
							}
						],
						"body": {
							"mode": "raw",
							"raw": "{\n  \"accountHolderId\": \"{{BI7-accountholder-id}}\",\n  \"accountHolderInstitutionId\": \"{{BI7-institution-id}}\",\n  \"type\": \"{{BI7-credential-type}}\",\n  \"value\": \"{{BI7-credential-value}}\",\n  \"expirationDateTime\": \"{{BI7-credential-exp-date-time}}\",\n  \"enabled\": true\n}"
						},
						"url": {
							"raw": "{{credential-base-url}}/sv/credentials",
							"host": [
								"{{credential-base-url}}"
							],
							"path": [
								"sv",
								"credentials"
							]
						}
					},
					"response": []
				},
				{
					"name": "BI7_2:POST Balance Inquiry on Missing AccountHolder",
					"event": [
						{
							"listen": "test",
							"script": {
								"id": "292050ac-eab5-4dc4-9679-2ca4d9676b9c",
								"exec": [
									"pm.test(\"Status code 404\", () => {",
									"\tpm.expect(404).to.eql(responseCode.code);",
									"});",
									"var env = pm.environment",
									"var body = JSON.parse(responseBody);",
									"",
									"pm.test(\"Inquiry Failed with AH Not Found\", () => {",
									"\tpm.expect(\"The requested resource was not found\").to.eql(body.errors[0].errorMessage);",
									"});",
									"pm.test(\"Inquiry Failed with Expected Result\", () => {",
									"\tpm.expect(\"accountHolderId: \"+env.get(\"BI7-accountholder-id\")).to.eql(body.errors[0].moreInfo);",
									"});"
								],
								"type": "text/javascript"
							}
						},
						{
							"listen": "prerequest",
							"script": {
								"id": "48340019-43ec-4f35-8f35-235af9dc7f7e",
								"exec": [
									"",
									""
								],
								"type": "text/javascript"
							}
						}
					],
					"request": {
						"method": "POST",
						"header": [
							{
								"key": "MERCHANT-KEY",
								"value": "{{BI-merchant-key}}",
								"type": "text"
							},
							{
								"key": "Content-Type",
								"name": "Content-Type",
								"value": "application/json",
								"type": "text"
							}
						],
						"body": {
							"mode": "raw",
							"raw": "{\n    \"terminal\": {\n    \t\"identificationMethod\": \"{{TERMINAL_ID_METHOD_DEFAULT}}\"\n    },\n\t\"credential\": {\n    \t\"type\": \"{{BI7-credential-type}}\",\n    \t\"value\": \"{{BI7-credential-value}}\"\n    }\n}"
						},
						"url": {
							"raw": "{{orchestrator-base-url}}/accountholders/storedvalue/balance",
							"host": [
								"{{orchestrator-base-url}}"
							],
							"path": [
								"accountholders",
								"storedvalue",
								"balance"
							]
						}
					},
					"response": []
				},
				{
					"name": "BI7_3_END:Delete Credential",
					"event": [
						{
							"listen": "test",
							"script": {
								"id": "41a831fb-57db-4d41-911c-fc6d9e51c5ef",
								"exec": [
									"pm.test(\"Status code 200\", () => {",
									"\tpm.expect(200).to.eql(responseCode.code);",
									"});"
								],
								"type": "text/javascript"
							}
						},
						{
							"listen": "prerequest",
							"script": {
								"id": "57a93019-075c-49f7-aeb2-fa96652a2471",
								"exec": [
									""
								],
								"type": "text/javascript"
							}
						}
					],
					"request": {
						"method": "DELETE",
						"header": [
							{
								"key": "Content-Type",
								"type": "text",
								"value": "application/json"
							}
						],
						"body": {
							"mode": "raw",
							"raw": ""
						},
						"url": {
							"raw": "{{credential-base-url}}/sv/credentials/{{BI7-credential-id}}",
							"host": [
								"{{credential-base-url}}"
							],
							"path": [
								"sv",
								"credentials",
								"{{BI7-credential-id}}"
							]
						}
					},
					"response": []
				}
			],
			"protocolProfileBehavior": {}
		},
		{
			"name": "BI8: No Accounts",
			"item": [
				{
					"name": "BI8_1:POST Auth Engine new AccountHolder with No Accounts",
					"event": [
						{
							"listen": "test",
							"script": {
								"id": "47ae9435-2d16-435a-8902-323f1c333ee2",
								"exec": [
									"eval(pm.globals.get(\"BIaccountHolderHandler\"))(\"BI8-accountholder-id\");"
								],
								"type": "text/javascript"
							}
						},
						{
							"listen": "prerequest",
							"script": {
								"id": "1c2f525a-3a83-4d20-921f-aea1b228ee38",
								"exec": [
									"var uuid = require('uuid'); ",
									"pm.environment.set(\"BI8-institution-id\", uuid.v4());"
								],
								"type": "text/javascript"
							}
						}
					],
					"request": {
						"method": "POST",
						"header": [
							{
								"key": "Content-Type",
								"value": "application/json",
								"type": "text"
							},
							{
								"key": "INSTITUTION-ID",
								"value": "{{BI8-institutionId}}",
								"type": "text"
							}
						],
						"body": {
							"mode": "raw",
							"raw": "{\n    \"docversion\": \"1.0\",\n    \"active\": \"true\",\n    \"institutionId\": \"{{BI8-institution-id}}\",\n    \"accounts\": []\n}"
						},
						"url": {
							"raw": "{{auth-engine-base-url}}/sv/internal/accountholders",
							"host": [
								"{{auth-engine-base-url}}"
							],
							"path": [
								"sv",
								"internal",
								"accountholders"
							]
						}
					},
					"response": []
				},
				{
					"name": "BI8_3:POST Credential",
					"event": [
						{
							"listen": "test",
							"script": {
								"id": "cd1126a6-0536-4dc8-ba89-e8ff6ca5166a",
								"exec": [
									"pm.test(\"Status code 201\", () => {",
									"\tpm.expect(201).to.eql(responseCode.code);",
									"});",
									"var env = pm.environment",
									"var body = JSON.parse(responseBody);",
									"",
									"env.set(\"BI8-credential-id\", body.id);"
								],
								"type": "text/javascript"
							}
						},
						{
							"listen": "prerequest",
							"script": {
								"id": "ca5a82b9-a7d6-4600-8026-6873090ad989",
								"exec": [
									"var uuid = require('uuid'); ",
									"var env = pm.environment",
									"env.set(\"BI8-credential-value\", uuid.v4());",
									"",
									"var nowPlus10Minute = new Date(new Date().getTime() + 600000);",
									"",
									"env.set(\"BI8-credential-exp-date-time\", nowPlus10Minute.toISOString());",
									"env.set(\"BI8-credential-type\", \"SAMPLE_GUID\");"
								],
								"type": "text/javascript"
							}
						}
					],
					"request": {
						"method": "POST",
						"header": [
							{
								"key": "Content-Type",
								"type": "text",
								"value": "application/json"
							}
						],
						"body": {
							"mode": "raw",
							"raw": "{\n  \"accountHolderId\": \"{{BI8-accountholder-id}}\",\n  \"accountHolderInstitutionId\": \"{{BI8-institution-id}}\",\n  \"type\": \"{{BI8-credential-type}}\",\n  \"value\": \"{{BI8-credential-value}}\",\n  \"expirationDateTime\": \"{{BI8-credential-exp-date-time}}\",\n  \"enabled\": true\n}"
						},
						"url": {
							"raw": "{{credential-base-url}}/sv/credentials",
							"host": [
								"{{credential-base-url}}"
							],
							"path": [
								"sv",
								"credentials"
							]
						}
					},
					"response": []
				},
				{
					"name": "BI8_2:POST Balance Inquiry on AccountHolder",
					"event": [
						{
							"listen": "test",
							"script": {
								"id": "5541593f-748a-45e1-8f7d-e6dac397a95a",
								"exec": [
									"pm.test(\"Status code 201\", () => {",
									"    pm.response.to.have.status(201);",
									"});",
									"var env = pm.environment",
									"var body = JSON.parse(responseBody);",
									"",
									"pm.test(\"Inquiry was Successful\", () => {",
									"\tpm.expect(\"SUCCESS\").to.eql(body.requestResult);",
									"});",
									"pm.test(\"Correct AccountHolder\", () => {",
									"\tpm.expect(env.get(\"BI8-accountholder-id\")).to.eql(body.accountHolderId);",
									"});",
									"pm.test(\"No Account Balances Returned\", () => {",
									"\tpm.expect(0).to.eql(body.accountBalances.length);",
									"});",
									""
								],
								"type": "text/javascript"
							}
						},
						{
							"listen": "prerequest",
							"script": {
								"id": "bf21db1c-424a-48f7-bc8a-66ee46468cfe",
								"exec": [
									""
								],
								"type": "text/javascript"
							}
						}
					],
					"request": {
						"method": "POST",
						"header": [
							{
								"key": "MERCHANT-KEY",
								"value": "{{BI-merchant-key}}",
								"type": "text"
							},
							{
								"key": "Content-Type",
								"name": "Content-Type",
								"value": "application/json",
								"type": "text"
							}
						],
						"body": {
							"mode": "raw",
							"raw": "{\n    \"terminal\": {\n    \t\"identificationMethod\": \"{{TERMINAL_ID_METHOD_DEFAULT}}\"\n    },\n\t\"credential\": {\n    \t\"type\": \"{{BI8-credential-type}}\",\n    \t\"value\": \"{{BI8-credential-value}}\"\n    }\n}"
						},
						"url": {
							"raw": "{{orchestrator-base-url}}/accountholders/storedvalue/balance",
							"host": [
								"{{orchestrator-base-url}}"
							],
							"path": [
								"accountholders",
								"storedvalue",
								"balance"
							]
						}
					},
					"response": []
				},
				{
					"name": "BI8_3_END:Delete Credential",
					"event": [
						{
							"listen": "test",
							"script": {
								"id": "5746513f-090a-42fd-a629-50b9ec88ac79",
								"exec": [
									"pm.test(\"Status code 200\", () => {",
									"\tpm.expect(200).to.eql(responseCode.code);",
									"});"
								],
								"type": "text/javascript"
							}
						},
						{
							"listen": "prerequest",
							"script": {
								"id": "c5387361-4578-4044-b99c-e3779e69e86f",
								"exec": [
									""
								],
								"type": "text/javascript"
							}
						}
					],
					"request": {
						"method": "DELETE",
						"header": [
							{
								"key": "Content-Type",
								"type": "text",
								"value": "application/json"
							}
						],
						"body": {
							"mode": "raw",
							"raw": ""
						},
						"url": {
							"raw": "{{credential-base-url}}/sv/credentials/{{BI8-credential-id}}",
							"host": [
								"{{credential-base-url}}"
							],
							"path": [
								"sv",
								"credentials",
								"{{BI8-credential-id}}"
							]
						}
					},
					"response": []
				},
				{
					"name": "BI8_END:DELETE AccountHolder",
					"event": [
						{
							"listen": "test",
							"script": {
								"id": "eb653153-8263-4823-a067-23bf1476a021",
								"exec": [
									"pm.test(\"Status code 200\", () => {",
									"\tpm.expect(200).to.eql(responseCode.code);",
									"});"
								],
								"type": "text/javascript"
							}
						}
					],
					"request": {
						"method": "DELETE",
						"header": [
							{
								"key": "INSTITUTION-ID",
								"type": "text",
								"value": "{{BI8-institution-id}}"
							}
						],
						"body": {
							"mode": "raw",
							"raw": ""
						},
						"url": {
							"raw": "{{auth-engine-base-url}}/sv/internal/accountholders/{{BI8-accountholder-id}}",
							"host": [
								"{{auth-engine-base-url}}"
							],
							"path": [
								"sv",
								"internal",
								"accountholders",
								"{{BI8-accountholder-id}}"
							]
						}
					},
					"response": []
				}
			],
			"protocolProfileBehavior": {}
		},
		{
			"name": "BI Cleanup",
			"item": [
				{
					"name": "BI:DELETE Rules Engine Config",
					"event": [
						{
							"listen": "test",
							"script": {
								"id": "96023d7e-06a0-429a-97ad-5ed84a15a568",
								"exec": [
									"pm.test(\"Status code 200\", () => {",
									"\tpm.expect(200).to.eql(responseCode.code);",
									"});"
								],
								"type": "text/javascript"
							}
						}
					],
					"request": {
						"method": "DELETE",
						"header": [],
						"body": {
							"mode": "raw",
							"raw": ""
						},
						"url": {
							"raw": "{{rules-engine-base-url}}/sv/rulesengine/{{BI-rules-engine-id}}",
							"host": [
								"{{rules-engine-base-url}}"
							],
							"path": [
								"sv",
								"rulesengine",
								"{{BI-rules-engine-id}}"
							]
						}
					},
					"response": []
				},
				{
					"name": "BI: DELETE Merchant Key Resolver Mapping",
					"event": [
						{
							"listen": "test",
							"script": {
								"id": "7e93d7ee-76a5-4f39-8293-61fcdc3e8335",
								"exec": [
									"pm.test(\"Response status code = \" + pm.response.code, function() {",
									"\tpm.response.to.have.status(200)",
									"});"
								],
								"type": "text/javascript"
							}
						}
					],
					"request": {
						"method": "DELETE",
						"header": [
							{
								"key": "Content-Type",
								"name": "Content-Type",
								"type": "text",
								"value": "application/json"
							}
						],
						"url": {
							"raw": "{{orchestrator-base-url}}/sv/merchantresolver/{{BI-merchant-key}}",
							"host": [
								"{{orchestrator-base-url}}"
							],
							"path": [
								"sv",
								"merchantresolver",
								"{{BI-merchant-key}}"
							]
						}
					},
					"response": []
				},
				{
					"name": "BI: DELETE Terminal Key Resolver Mapping",
					"event": [
						{
							"listen": "test",
							"script": {
								"id": "5afeba19-f7e2-4714-a6ee-96bf8ac6c41a",
								"exec": [
									"pm.test(\"Response status code = \" + pm.response.code, function() {",
									"\tpm.response.to.have.status(200)",
									"});"
								],
								"type": "text/javascript"
							}
						}
					],
					"request": {
						"method": "DELETE",
						"header": [
							{
								"key": "Content-Type",
								"name": "Content-Type",
								"type": "text",
								"value": "application/json"
							}
						],
						"url": {
							"raw": "{{orchestrator-base-url}}/sv/terminalresolver/{{BI-terminal-key}}",
							"host": [
								"{{orchestrator-base-url}}"
							],
							"path": [
								"sv",
								"terminalresolver",
								"{{BI-terminal-key}}"
							]
						}
					},
					"response": []
				},
				{
					"name": "BI: DELETE Terminal Key Resolver Mapping Denied",
					"event": [
						{
							"listen": "test",
							"script": {
								"id": "75ae2d34-5853-4934-ae2b-818c089d59fe",
								"exec": [
									"pm.test(\"Response status code = \" + pm.response.code, function() {",
									"\tpm.response.to.have.status(200)",
									"});"
								],
								"type": "text/javascript"
							}
						}
					],
					"request": {
						"method": "DELETE",
						"header": [
							{
								"key": "Content-Type",
								"name": "Content-Type",
								"type": "text",
								"value": "application/json"
							}
						],
						"url": {
							"raw": "{{orchestrator-base-url}}/sv/terminalresolver/{{BI-terminal-key-denied}}",
							"host": [
								"{{orchestrator-base-url}}"
							],
							"path": [
								"sv",
								"terminalresolver",
								"{{BI-terminal-key-denied}}"
							]
						}
					},
					"response": []
				},
				{
					"name": "BI: DELETE Terminal Key Resolver Mapping Missing",
					"event": [
						{
							"listen": "test",
							"script": {
								"id": "221ff9e6-fa12-4764-9e86-fa22759ac65f",
								"exec": [
									"pm.test(\"Response status code = \" + pm.response.code, function() {",
									"\tpm.response.to.have.status(200)",
									"});"
								],
								"type": "text/javascript"
							}
						}
					],
					"request": {
						"method": "DELETE",
						"header": [
							{
								"key": "Content-Type",
								"name": "Content-Type",
								"type": "text",
								"value": "application/json"
							}
						],
						"url": {
							"raw": "{{orchestrator-base-url}}/sv/terminalresolver/{{BI-terminal-key-missing}}",
							"host": [
								"{{orchestrator-base-url}}"
							],
							"path": [
								"sv",
								"terminalresolver",
								"{{BI-terminal-key-missing}}"
							]
						}
					},
					"response": []
				}
			],
			"protocolProfileBehavior": {}
		}
	],
	"protocolProfileBehavior": {}
}