{
	"info": {
		"_postman_id": "03d0859d-d86a-4aa1-afb4-298e88401794",
		"name": "ts-sv-api-merchant-eventing",
		"schema": "https://schema.getpostman.com/json/collection/v2.1.0/collection.json"
	},
	"item": [
		{
			"name": "merchant-eventing",
			"item": [
				{
					"name": "ME1_CMM1: Create merchant",
					"event": [
						{
							"listen": "test",
							"script": {
								"id": "a7e8ef72-0aac-4356-b750-4cd963f2b57f",
								"exec": [
									"pm.test(\"Response status code = \" + pm.response.code, function() {",
									"\tpm.response.to.have.status(201)",
									"});",
									"",
									"var jsonData = pm.response.json();",
									"var response_merchant_name = jsonData.name;",
									"var response_expire_ttl = jsonData.expireTimeToLive;",
									"var merchant_key = jsonData.merchantKey;",
									"var institutionId = jsonData.institutionId;",
									"var iso8583merchantNumber = jsonData.iso8583merchantNumber;",
									"",
									"pm.environment.set(\"merchant-id-post1\", jsonData.id);",
									"",
									"pm.test(\"Response merchant name = \" + response_merchant_name, function() {",
									"\tpm.expect(response_merchant_name).to.eql(pm.environment",
									"\t\t\t.get(\"merchant-name\"));",
									"});",
									"pm.test(\"Response expire TTL = \" + response_expire_ttl, function() {",
									"\tpm.expect(response_expire_ttl).to.eql(pm.environment",
									"\t\t\t.get(\"merchant-expire-ttl\"));",
									"});",
									"",
									"pm.test(\"Merchant Key =\" + merchant_key, function() {",
									"\tpm.expect(merchant_key).to.eql(pm.environment",
									"\t\t\t.get(\"merchant-key\"));",
									"});",
									"",
									"pm.test(\"Merchant InstitutionId  =\" + institutionId, function() {",
									"\tpm.expect(institutionId).to.eql(pm.environment",
									"\t\t\t.get(\"merchant-institution\"));",
									"});",
									"",
									"pm.test(\"Iso8583merchantNumber  =\" + iso8583merchantNumber, function() {",
									"\tpm.expect(iso8583merchantNumber).to.eql(pm.environment",
									"\t\t\t.get(\"merchant-iso8583-num\"));",
									"});",
									"",
									"",
									"",
									""
								],
								"type": "text/javascript"
							}
						},
						{
							"listen": "prerequest",
							"script": {
								"id": "e6e4bbeb-5e9d-49de-a2ab-c7e7384d8d92",
								"exec": [
									"var uuid = require('uuid');",
									"pm.environment.set(\"merchant-name\", \"Merchant \" + uuid.v4());",
									"pm.environment.set(\"merchant-expire-ttl\", 30);",
									"pm.environment.set(\"merchant-key\", uuid.v4());",
									"pm.environment.set(\"merchant-institution\", uuid.v4());",
									"pm.environment.set(\"merchant-iso8583-num\", uuid.v4());"
								],
								"type": "text/javascript"
							}
						}
					],
					"request": {
						"method": "POST",
						"header": [
							{
								"key": "Content-Type",
								"name": "Content-Type",
								"value": "application/json",
								"type": "text"
							}
						],
						"body": {
							"mode": "raw",
							"raw": "{\n\t\"name\": \"{{merchant-name}}\",\n\t\"expireTimeToLive\": \"{{merchant-expire-ttl}}\",\n\t\"merchantKey\": \"{{merchant-key}}\",\n\t\"institutionId\": \"{{merchant-institution}}\",\n\t\"iso8583merchantNumber\": \"{{merchant-iso8583-num}}\"\n}",
							"options": {
								"raw": {
									"language": "json"
								}
							}
						},
						"url": {
							"raw": "{{merchant-base-url}}/sv/merchants",
							"host": [
								"{{merchant-base-url}}"
							],
							"path": [
								"sv",
								"merchants"
							]
						}
					},
					"response": []
				},
				{
					"name": "ME1_GMM1: Get Merchant - Merchant Service",
					"event": [
						{
							"listen": "test",
							"script": {
								"id": "dff7954e-97e1-4286-a1e1-d68319f77998",
								"exec": [
									"pm.test(\"Response status code = \" + pm.response.code, function() {",
									"\tpm.response.to.have.status(200)",
									"});",
									"",
									"var jsonData = pm.response.json();",
									"var response_merchant_id = jsonData.id;",
									"var response_merchant_name = jsonData.name;",
									"var response_expire_ttl = jsonData.expireTimeToLive;",
									"var merchant_key = jsonData.merchantKey;",
									"var institutionId = jsonData.institutionId;",
									"var iso8583merchantNumber = jsonData.iso8583merchantNumber;",
									"",
									"pm.test(\"Response merchant Id = \" + response_merchant_id, function() {",
									"\tpm.expect(response_merchant_id).to.eql(pm.environment",
									"\t\t\t.get(\"merchant-id-post1\"));",
									"});",
									"pm.test(\"Response merchant name = \" + response_merchant_name, function() {",
									"\tpm.expect(response_merchant_name).to.eql(pm.environment",
									"\t\t\t.get(\"merchant-name\"));",
									"});",
									"pm.test(\"Response expire TTL = \" + response_expire_ttl, function() {",
									"\tpm.expect(response_expire_ttl).to.eql(pm.environment",
									"\t\t\t.get(\"merchant-expire-ttl\"));",
									"});",
									"pm.test(\"Merchant Key =\" + merchant_key, function() {",
									"\tpm.expect(merchant_key).to.eql(pm.environment",
									"\t\t\t.get(\"merchant-key\"));",
									"});",
									"",
									"pm.test(\"Merchant InstitutionId  =\" + institutionId, function() {",
									"\tpm.expect(institutionId).to.eql(pm.environment",
									"\t\t\t.get(\"merchant-institution\"));",
									"});",
									"",
									"pm.test(\"Iso8583merchantNumber  =\" + iso8583merchantNumber, function() {",
									"\tpm.expect(iso8583merchantNumber).to.eql(pm.environment",
									"\t\t\t.get(\"merchant-iso8583-num\"));",
									"});",
									"",
									""
								],
								"type": "text/javascript"
							}
						}
					],
					"request": {
						"method": "GET",
						"header": [],
						"url": {
							"raw": "{{merchant-base-url}}/sv/merchants/{{merchant-id-post1}}",
							"host": [
								"{{merchant-base-url}}"
							],
							"path": [
								"sv",
								"merchants",
								"{{merchant-id-post1}}"
							]
						}
					},
					"response": []
				},
				{
					"name": "ME1_GMRE1: Get Merchant - Rules engine Service",
					"event": [
						{
							"listen": "test",
							"script": {
								"id": "c672b758-f90b-4fb0-98ad-c5289354e6b3",
								"exec": [
									"var expectedStatus = 200;",
									"// Get global retry function.",
									"const retryUtils = eval(pm.globals.get(\"retryHelper\"));",
									"",
									"if (pm.response.code == expectedStatus) {",
									"\tconsole.log(\"Response status code = \" + pm.response.code);",
									"\tpm.test(\"Response status code = \" + pm.response.code, function() {",
									"\t\tpm.response.to.have.status(200)",
									"\t});",
									"",
									"\tvar jsonData = pm.response.json();",
									"\tvar response_merchant_id = jsonData.id;",
									"\tvar response_merchant_name = jsonData.name;",
									"\tvar response_expire_ttl = jsonData.expireTimeToLive;",
									"",
									"",
									"\tpm.test(\"Response merchant Id = \" + response_merchant_id, function() {",
									"\t\tpm.expect(response_merchant_id).to.eql(pm.environment",
									"\t\t\t\t.get(\"merchant-id-post1\"));",
									"\t});",
									"\tpm.test(\"Response merchant name = \" + response_merchant_name, function() {",
									"\t\tpm.expect(response_merchant_name).to.eql(pm.environment",
									"\t\t\t\t.get(\"merchant-name\"));",
									"\t});",
									"\tpm.test(\"Response expire TTL = \" + response_expire_ttl, function() {",
									"\t\tpm.expect(response_expire_ttl).to.eql(pm.environment",
									"\t\t\t\t.get(\"merchant-expire-ttl\"));",
									"\t});",
									"\t",
									"\t//Test is successful, set retryCount to 1.",
									"\tpm.globals.set(\"retryCount\", 1);",
									"\tconsole.log(\"Test is successful, retryCount is set to 1, retryCount = \" + pm.globals.get(\"retryCount\"));",
									"} else {",
									"\tconsole.log(\"Response status code = \" + pm.response.status);",
									"\t// retry on failure. Calling global function.",
									"\tretryUtils();",
									"}"
								],
								"type": "text/javascript"
							}
						},
						{
							"listen": "prerequest",
							"script": {
								"id": "00fcd2d0-baf1-41a6-8177-10e8d37e5cdf",
								"exec": [
									""
								],
								"type": "text/javascript"
							}
						}
					],
					"request": {
						"method": "GET",
						"header": [],
						"url": {
							"raw": "{{rules-engine-base-url}}/sv/rulesengine/merchants/{{merchant-id-post1}}",
							"host": [
								"{{rules-engine-base-url}}"
							],
							"path": [
								"sv",
								"rulesengine",
								"merchants",
								"{{merchant-id-post1}}"
							]
						}
					},
					"response": []
				},
				{
					"name": "ME1_GMR1: Get Merchant - Resolver Service",
					"event": [
						{
							"listen": "test",
							"script": {
								"id": "c672b758-f90b-4fb0-98ad-c5289354e6b3",
								"exec": [
									"var expectedStatus = 200;",
									"// Get global retry function.",
									"const retryUtils = eval(pm.globals.get(\"retryHelper\"));",
									"",
									"if (pm.response.code == expectedStatus) {",
									"\tconsole.log(\"Response status code = \" + pm.response.code);",
									"\tpm.test(\"Response status code = \" + pm.response.code, function() {",
									"\t\tpm.response.to.have.status(200)",
									"\t});",
									"",
									"\tvar jsonData = pm.response.json();",
									"\tvar response_merchant_id = jsonData.merchantId;",
									"\tvar response_merchant_key = jsonData.merchantKey;",
									"    var response_iso_num = jsonData.iso8583merchantNumber;",
									"",
									"",
									"\tpm.test(\"Response merchant Id = \" + response_merchant_id, function() {",
									"\t\tpm.expect(response_merchant_id).to.eql(pm.environment",
									"\t\t\t\t.get(\"merchant-id-post1\"));",
									"\t});",
									"\tpm.test(\"Response merchant name = \" + response_merchant_key, function() {",
									"\t\tpm.expect(response_merchant_key).to.eql(pm.environment",
									"\t\t\t\t.get(\"merchant-key\"));",
									"\t});",
									"\tpm.test(\"Response iso8583 merchant number = \" + response_iso_num, function() {",
									"\t\tpm.expect(response_iso_num).to.eql(pm.environment",
									"\t\t\t\t.get(\"merchant-iso8583-num\"));",
									"\t});",
									"\tpm.test(\"Response default Terminal Key = null\", function() {",
									"\t\tpm.expect(jsonData.defaultTerminalKey).to.not.exist;",
									"\t});",
									"\t",
									"\t//Test is successful, set retryCount to 1.",
									"\tpm.globals.set(\"retryCount\", 1);",
									"\tconsole.log(\"Test is successful, retryCount is set to 1, retryCount = \" + pm.globals.get(\"retryCount\"));",
									"} else {",
									"\tconsole.log(\"Response status code = \" + pm.response.status);",
									"\t// retry on failure. Calling global function.",
									"\tretryUtils();",
									"}"
								],
								"type": "text/javascript"
							}
						},
						{
							"listen": "prerequest",
							"script": {
								"id": "00fcd2d0-baf1-41a6-8177-10e8d37e5cdf",
								"exec": [
									""
								],
								"type": "text/javascript"
							}
						}
					],
					"request": {
						"method": "GET",
						"header": [],
						"url": {
							"raw": "{{orchestrator-base-url}}/sv/merchantresolver?merchantId={{merchant-id-post1}}",
							"host": [
								"{{orchestrator-base-url}}"
							],
							"path": [
								"sv",
								"merchantresolver"
							],
							"query": [
								{
									"key": "merchantId",
									"value": "{{merchant-id-post1}}"
								}
							]
						}
					},
					"response": []
				},
				{
					"name": "T1_CT1: Create Terminal - Merchant Service",
					"event": [
						{
							"listen": "test",
							"script": {
								"id": "9c85a94f-be31-4c3c-bc74-d436f1bacc28",
								"exec": [
									"pm.test(\"Response status code\", function() {",
									"\tpm.response.to.have.status(201)",
									"});",
									"",
									"var jsonData = pm.response.json();",
									"",
									"pm.environment.set(\"merchant_terminalId\", jsonData.id);",
									"",
									"pm.test(\"Response MerchantId \", function() {",
									"\tpm.expect(pm.environment.get(\"merchant-id-post1\")).to.eql(jsonData.merchantId);",
									"});",
									"pm.test(\"Terminal Name \", function() {",
									"\tpm.expect(pm.environment.get(\"merchant_terminalName\")).to.eql(jsonData.name);",
									"});",
									"pm.test(\"Terminal Key \", function() {",
									"\tpm.expect(pm.environment.get(\"merchant_terminalKey\")).to.eql(jsonData.terminalKey);",
									"});",
									"pm.test(\"Terminal Iso Num \", function() {",
									"\tpm.expect(pm.environment.get(\"merchant_terminalIsoNum\")).to.eql(jsonData.iso8583terminalNumber);",
									"});",
									"pm.test(\"Terminaql Active \", function() {",
									"\tpm.expect(true).to.eql(jsonData.active);",
									"});"
								],
								"type": "text/javascript"
							}
						},
						{
							"listen": "prerequest",
							"script": {
								"id": "cd182a4c-417b-46fb-8f94-c1253fd5b42e",
								"exec": [
									"let  uuid = require('uuid');",
									"",
									"pm.environment.set(\"merchant_terminalName\", \"Terminal Name\");",
									"pm.environment.set(\"merchant_terminalKey\", uuid.v4());",
									"pm.environment.set(\"merchant_terminalIsoNum\", uuid.v4());"
								],
								"type": "text/javascript"
							}
						}
					],
					"request": {
						"method": "POST",
						"header": [
							{
								"key": "Content-Type",
								"name": "Content-Type",
								"type": "text",
								"value": "application/json"
							}
						],
						"body": {
							"mode": "raw",
							"raw": "{\n    \"name\": \"{{merchant_terminalName}}\",\n    \"terminalKey\": \"{{merchant_terminalKey}}\",\n    \"iso8583terminalNumber\": \"{{merchant_terminalIsoNum}}\",\n    \"active\": true\n}",
							"options": {
								"raw": {
									"language": "json"
								}
							}
						},
						"url": {
							"raw": "{{merchant-base-url}}/sv/merchants/{{merchant-id-post1}}/terminals",
							"host": [
								"{{merchant-base-url}}"
							],
							"path": [
								"sv",
								"merchants",
								"{{merchant-id-post1}}",
								"terminals"
							]
						}
					},
					"response": []
				},
				{
					"name": "ME1_UMM1: Update merchant",
					"event": [
						{
							"listen": "test",
							"script": {
								"id": "a7e8ef72-0aac-4356-b750-4cd963f2b57f",
								"exec": [
									"pm.test(\"Response status code = \" + pm.response.code, function() {",
									"\tpm.response.to.have.status(200)",
									"});",
									"",
									"let env = pm.environment",
									"var jsonData = pm.response.json();",
									"var response_merchant_id = jsonData.id;",
									"var response_merchant_name = jsonData.name;",
									"var response_expire_ttl = jsonData.expireTimeToLive;",
									"var merchant_key = jsonData.merchantKey;",
									"var institutionId = jsonData.institutionId;",
									"var iso8583merchantNumber = jsonData.iso8583merchantNumber;",
									"",
									"pm.test(\"Response merchant Id = \" + response_merchant_id, function() {",
									"\tpm.expect(response_merchant_id).to.eql(env.get(\"merchant-id-post1\"));",
									"});",
									"pm.test(\"Response merchant updated name = \" + response_merchant_name, function() {",
									"\tpm.expect(response_merchant_name).to.eql(env.get(\"merchant_updated_name\"));",
									"});",
									"pm.test(\"Response expire TTL = \" + response_expire_ttl, function() {",
									"\tpm.expect(response_expire_ttl).to.eql(env.get(\"merchant-expire-ttl\"));",
									"});",
									"",
									"pm.test(\"Merchant Key =\" + merchant_key, function() {",
									"\tpm.expect(merchant_key).to.eql(env.get(\"merchant-updated-key\"));",
									"});",
									"",
									"pm.test(\"Merchant InstitutionId  =\" + institutionId, function() {",
									"\tpm.expect(institutionId).to.eql(env.get(\"merchant-institution\"));",
									"});",
									"",
									"pm.test(\"Default Terminal Key  =\" + env.get(\"merchant_terminalKey\"), function() {",
									"\tpm.expect(jsonData.defaultTerminalKey).to.eql(env.get(\"merchant_terminalKey\"));",
									"});",
									"",
									"pm.test(\"Iso8583merchantNumber  =\" + iso8583merchantNumber, function() {",
									"\tpm.expect(iso8583merchantNumber).to.eql(env.get(\"merchant-updated-iso8583-num\"));",
									"});",
									""
								],
								"type": "text/javascript"
							}
						},
						{
							"listen": "prerequest",
							"script": {
								"id": "d46e87e6-f930-45c8-9af4-e199b3a395ad",
								"exec": [
									"var uuid = require('uuid');",
									"pm.environment.set(\"merchant_updated_name\", \"merchant \" + uuid.v4());",
									"pm.environment.set(\"merchant-expire-ttl\", 30);",
									"pm.environment.set(\"merchant-updated-key\", uuid.v4());",
									"pm.environment.set(\"merchant-institution\", uuid.v4());",
									"pm.environment.set(\"merchant-updated-iso8583-num\", uuid.v4());"
								],
								"type": "text/javascript"
							}
						}
					],
					"request": {
						"method": "PUT",
						"header": [
							{
								"key": "Content-Type",
								"name": "Content-Type",
								"value": "application/json",
								"type": "text"
							}
						],
						"body": {
							"mode": "raw",
							"raw": "{\n\t\"name\": \"{{merchant_updated_name}}\",\n\t\"expireTimeToLive\": \"{{merchant-expire-ttl}}\",\n\t\"merchantKey\": \"{{merchant-updated-key}}\",\n\t\"institutionId\": \"{{merchant-institution}}\",\n\t\"defaultTerminalKey\": \"{{merchant_terminalKey}}\",\n\t\"iso8583merchantNumber\": \"{{merchant-updated-iso8583-num}}\"\n}",
							"options": {
								"raw": {
									"language": "json"
								}
							}
						},
						"url": {
							"raw": "{{merchant-base-url}}/sv/merchants/{{merchant-id-post1}}",
							"host": [
								"{{merchant-base-url}}"
							],
							"path": [
								"sv",
								"merchants",
								"{{merchant-id-post1}}"
							]
						}
					},
					"response": []
				},
				{
					"name": "ME1_GMM2: Get Merchant - Merchant Service",
					"event": [
						{
							"listen": "test",
							"script": {
								"id": "216e2c01-3725-4d90-a866-762bc83b3cb0",
								"exec": [
									"pm.test(\"Response status code = \" + pm.response.code, function() {",
									"\tpm.response.to.have.status(200)",
									"});",
									"",
									"let env = pm.environment",
									"var jsonData = pm.response.json();",
									"var response_merchant_id = jsonData.id;",
									"var response_merchant_name = jsonData.name;",
									"var response_expire_ttl = jsonData.expireTimeToLive;",
									"",
									"var merchant_key = jsonData.merchantKey;",
									"var institutionId = jsonData.institutionId;",
									"var iso8583merchantNumber = jsonData.iso8583merchantNumber;",
									"",
									"pm.test(\"Response merchant Id = \" + response_merchant_id, function() {",
									"\tpm.expect(response_merchant_id).to.eql(env.get(\"merchant-id-post1\"));",
									"});",
									"pm.test(\"Response merchant name = \" + response_merchant_name, function() {",
									"\tpm.expect(response_merchant_name).to.eql(env.get(\"merchant_updated_name\"));",
									"});",
									"pm.test(\"Response expire TTL = \" + response_expire_ttl, function() {",
									"\tpm.expect(response_expire_ttl).to.eql(env.get(\"merchant-expire-ttl\"));",
									"});",
									"pm.test(\"Merchant Key =\" + merchant_key, function() {",
									"\tpm.expect(merchant_key).to.eql(env.get(\"merchant-updated-key\"));",
									"});",
									"",
									"pm.test(\"Merchant InstitutionId  =\" + institutionId, function() {",
									"\tpm.expect(institutionId).to.eql(env.get(\"merchant-institution\"));",
									"});",
									"",
									"pm.test(\"Iso8583merchantNumber  =\" + iso8583merchantNumber, function() {",
									"\tpm.expect(iso8583merchantNumber).to.eql(env.get(\"merchant-updated-iso8583-num\"));",
									"});",
									"",
									"pm.test(\"Default Terminal Key  =\" + env.get(\"merchant_terminalKey\"), function() {",
									"\tpm.expect(jsonData.defaultTerminalKey).to.eql(env.get(\"merchant_terminalKey\"));",
									"});",
									"",
									""
								],
								"type": "text/javascript"
							}
						}
					],
					"request": {
						"method": "GET",
						"header": [],
						"url": {
							"raw": "{{merchant-base-url}}/sv/merchants/{{merchant-id-post1}}",
							"host": [
								"{{merchant-base-url}}"
							],
							"path": [
								"sv",
								"merchants",
								"{{merchant-id-post1}}"
							]
						}
					},
					"response": []
				},
				{
					"name": "ME1_GMRE2: Get Merchant - Rules engine Service",
					"event": [
						{
							"listen": "test",
							"script": {
								"id": "fed458d6-f2c5-4ded-abae-6735566feae1",
								"exec": [
									"var expectedStatus = 200;",
									"var retryCount = pm.globals.get(\"retryCount\");",
									"var maxRetries = pm.environment.get(\"maxRetries\");",
									"// Get global retry function.",
									"const retryUtils = eval(pm.globals.get(\"retryHelper\"));",
									"",
									"if (pm.response.code == expectedStatus) {",
									"\tconsole.log(\"Response status code = \" + pm.response.code);",
									"\tpm.test(\"Response status code = \" + pm.response.code, function() {",
									"\t\tpm.response.to.have.status(200)",
									"\t});",
									"",
									"\tvar jsonData = pm.response.json();",
									"\tvar response_merchant_id = jsonData.id;",
									"\tvar response_merchant_name = jsonData.name;",
									"\tvar response_expire_ttl = jsonData.expireTimeToLive;",
									"",
									"\tif (response_merchant_name == pm.environment.get(\"merchant_updated_name\")) {",
									"",
									"\t\tpm.test(\"Response merchant Id = \" + response_merchant_id, function() {",
									"\t\t\tpm.expect(response_merchant_id).to.eql(pm.environment",
									"\t\t\t\t\t.get(\"merchant-id-post1\"));",
									"\t\t});",
									"\t\tpm.test(\"Response merchant updated name = \" + response_merchant_name,",
									"\t\t\t\tfunction() {",
									"\t\t\t\t\tpm.expect(response_merchant_name).to.eql(pm.environment",
									"\t\t\t\t\t\t\t.get(\"merchant_updated_name\"));",
									"\t\t\t\t});",
									"\t\tpm.test(\"Response expire TTL = \" + response_expire_ttl, function() {",
									"\t\t\tpm.expect(response_expire_ttl).to.eql(pm.environment",
									"\t\t\t\t\t.get(\"merchant-expire-ttl\"));",
									"\t\t});",
									"",
									"\t\t//Test is successful, set retryCount to 1.",
									"\t    pm.globals.set(\"retryCount\", 1);",
									"\t    console.log(\"Test is successful, retryCount is set to 1, retryCount = \" + pm.globals.get(\"retryCount\"));",
									"\t} else {",
									"\t\tconsole.log(\"Response status code = \" + pm.response.status);",
									"\t\t// Name is not updated, retry on failure. Calling global function.",
									"\t\tretryUtils();",
									"\t}",
									"} else {",
									"\tconsole.log(\"Response status code = \" + pm.response.status);",
									"\t// retry on failure. Calling global function.",
									"\tretryUtils();",
									"}"
								],
								"type": "text/javascript"
							}
						},
						{
							"listen": "prerequest",
							"script": {
								"id": "2dc2d48d-e669-497c-8e0f-50ba4629ba64",
								"exec": [
									""
								],
								"type": "text/javascript"
							}
						}
					],
					"request": {
						"method": "GET",
						"header": [],
						"url": {
							"raw": "{{rules-engine-base-url}}/sv/rulesengine/merchants/{{merchant-id-post1}}",
							"host": [
								"{{rules-engine-base-url}}"
							],
							"path": [
								"sv",
								"rulesengine",
								"merchants",
								"{{merchant-id-post1}}"
							]
						}
					},
					"response": []
				},
				{
					"name": "ME1_GMR2: Get Merchant - Resolver Service",
					"event": [
						{
							"listen": "test",
							"script": {
								"id": "c672b758-f90b-4fb0-98ad-c5289354e6b3",
								"exec": [
									"let expectedStatus = 200;",
									"// Get global retry function.",
									"const retryUtils = eval(pm.globals.get(\"retryHelper\"));",
									"",
									"let jsonData = pm.response.json();",
									"let response_merchant_id = jsonData.merchantId;",
									"let response_merchant_key = jsonData.merchantKey;",
									"let response_iso_num = jsonData.iso8583merchantNumber;",
									"",
									"if (pm.response.code === expectedStatus && jsonData.defaultTerminalKey !== null) {",
									"    let env = pm.environment",
									"\tconsole.log(\"Response status code = \" + pm.response.code);",
									"\tpm.test(\"Response status code = \" + pm.response.code, function() {",
									"\t\tpm.response.to.have.status(200)",
									"\t});",
									"",
									"\tpm.test(\"Response merchant Id = \" + response_merchant_id, function() {",
									"\t\tpm.expect(response_merchant_id).to.eql(env.get(\"merchant-id-post1\"));",
									"\t});",
									"\tpm.test(\"Response merchant key = \" + response_merchant_key, function() {",
									"\t\tpm.expect(response_merchant_key).to.eql(env.get(\"merchant-updated-key\"));",
									"\t});",
									"\tpm.test(\"Response iso8583 merchant number = \" + response_iso_num, function() {",
									"\t\tpm.expect(response_iso_num).to.eql(env.get(\"merchant-updated-iso8583-num\"));",
									"\t});",
									"",
									"    pm.test(\"Default Terminal Key  =\" + env.get(\"merchant_terminalKey\"), function() {",
									"    \tpm.expect(jsonData.defaultTerminalKey).to.eql(env.get(\"merchant_terminalKey\"));",
									"    });",
									"\t",
									"\t//Test is successful, set retryCount to 1.",
									"\tpm.globals.set(\"retryCount\", 1);",
									"\tconsole.log(\"Test is successful, retryCount is set to 1, retryCount = \" + pm.globals.get(\"retryCount\"));",
									"} else {",
									"\tconsole.log(\"Response status code = \" + pm.response.status);",
									"\t// retry on failure. Calling global function.",
									"\tretryUtils();",
									"}"
								],
								"type": "text/javascript"
							}
						},
						{
							"listen": "prerequest",
							"script": {
								"id": "00fcd2d0-baf1-41a6-8177-10e8d37e5cdf",
								"exec": [
									""
								],
								"type": "text/javascript"
							}
						}
					],
					"request": {
						"method": "GET",
						"header": [],
						"url": {
							"raw": "{{orchestrator-base-url}}/sv/merchantresolver?merchantId={{merchant-id-post1}}",
							"host": [
								"{{orchestrator-base-url}}"
							],
							"path": [
								"sv",
								"merchantresolver"
							],
							"query": [
								{
									"key": "merchantId",
									"value": "{{merchant-id-post1}}"
								}
							]
						}
					},
					"response": []
				},
				{
					"name": "ME1_DMM1: Delete merchant",
					"event": [
						{
							"listen": "test",
							"script": {
								"id": "a7e8ef72-0aac-4356-b750-4cd963f2b57f",
								"exec": [
									"pm.test(\"Response status code = \" + pm.response.code , function() {pm.response.to.have.status(200)});"
								],
								"type": "text/javascript"
							}
						},
						{
							"listen": "prerequest",
							"script": {
								"id": "46742895-591d-457f-aedd-827e6a15e89c",
								"exec": [
									"pm.globals.set(\"retryCount\", 1);"
								],
								"type": "text/javascript"
							}
						}
					],
					"request": {
						"method": "DELETE",
						"header": [
							{
								"key": "Content-Type",
								"name": "Content-Type",
								"value": "application/json",
								"type": "text"
							}
						],
						"body": {
							"mode": "raw",
							"raw": "",
							"options": {
								"raw": {
									"language": "json"
								}
							}
						},
						"url": {
							"raw": "{{merchant-base-url}}/sv/merchants/{{merchant-id-post1}}",
							"host": [
								"{{merchant-base-url}}"
							],
							"path": [
								"sv",
								"merchants",
								"{{merchant-id-post1}}"
							]
						}
					},
					"response": []
				},
				{
					"name": "ME1_GMM3: Merchant Not Found - Merchant Service",
					"event": [
						{
							"listen": "test",
							"script": {
								"id": "c88d1ece-4375-417d-92e5-f0ce4329efdb",
								"exec": [
									"pm.test(\"Response status code = \" + pm.response.code, function() {",
									"\tpm.response.to.have.status(404)",
									"});",
									"",
									"var jsonData = pm.response.json();",
									"var response_result = jsonData.result;",
									"var response_errorMessage = jsonData.errors[0].errorMessage;",
									"var response_moreInfo = jsonData.errors[0].moreInfo;",
									"var rnf_expected_error_message = pm.globals.get(\"messages_error_resourcenotfound_merchant\");",
									"var rnf_expected_error_moreinfo = pm.globals.get(\"messages_error_moreinfo_resourcenotfound_merchant\");",
									"var merchant_id = pm.environment.get(\"merchant-id-post1\");",
									"",
									"pm.test(\"Response result = \" + response_result, function() {",
									"\tpm.expect(response_result).to.eql(\"ERROR\");",
									"});",
									"pm.test(\"Response errorMessage = \" + response_errorMessage, function() {",
									"\tpm.expect(response_errorMessage).to.eql(rnf_expected_error_message);",
									"});",
									"pm.test(\"Response moreInfo = \" + response_moreInfo, function() {",
									"\tpm.expect(response_moreInfo).to.eql(rnf_expected_error_moreinfo",
									"\t\t\t+ merchant_id);",
									"});"
								],
								"type": "text/javascript"
							}
						},
						{
							"listen": "prerequest",
							"script": {
								"id": "f597b63d-e450-4f38-a8ce-4f4584749c74",
								"exec": [
									""
								],
								"type": "text/javascript"
							}
						}
					],
					"request": {
						"method": "GET",
						"header": [],
						"url": {
							"raw": "{{merchant-base-url}}/sv/merchants/{{merchant-id-post1}}",
							"host": [
								"{{merchant-base-url}}"
							],
							"path": [
								"sv",
								"merchants",
								"{{merchant-id-post1}}"
							]
						}
					},
					"response": []
				},
				{
					"name": "ME1_GMRE3: Merchant Not Found - Rules engine Service",
					"event": [
						{
							"listen": "test",
							"script": {
								"id": "bcf61fb8-9f4b-4b15-aa88-42f5902bfd06",
								"exec": [
									"var expectedStatus = 404;",
									"// Get global retry function.",
									"const retryUtils = eval(pm.globals.get(\"retryHelper\"));",
									"",
									"if (responseCode.code == expectedStatus) {",
									"\tconsole.log(\"Response status code = \" + pm.response.code);",
									"\tpm.test(\"Response status code = \" + pm.response.code, function() {",
									"\t\tpm.response.to.have.status(404)",
									"\t});",
									"",
									"\tvar jsonData = pm.response.json();",
									"\tvar response_result = jsonData.result;",
									"\tvar response_errorMessage = jsonData.errors[0].errorMessage;",
									"\tvar response_moreInfo = jsonData.errors[0].moreInfo;",
									"\tvar rnf_expected_error_message = pm.globals.get(\"messages_error_resourcenotfound_rulesengine\");",
									"\tvar rnf_expected_error_moreinfo = pm.globals.get(\"messages_error_moreinfo_resourcenotfound_rulesengine\");",
									"\tvar merchant_id = pm.environment.get(\"merchant-id-post1\");",
									"",
									"\tpm.test(\"Response result = \" + response_result, function() {",
									"\t\tpm.expect(response_result).to.eql(\"ERROR\");",
									"\t});",
									"\tpm.test(\"Response errorMessage = \" + response_errorMessage, function() {",
									"\t\tpm.expect(response_errorMessage).to.eql(rnf_expected_error_message);",
									"\t});",
									"\tpm.test(\"Response moreInfo = \" + response_moreInfo, function() {",
									"\t\tpm.expect(response_moreInfo).to.eql(rnf_expected_error_moreinfo",
									"\t\t\t\t+ merchant_id);",
									"\t",
									"\t//Test is successful, set retryCount to 1.",
									"\tpm.globals.set(\"retryCount\", 1);",
									"\tconsole.log(\"Test is successful, retryCount is set to 1, retryCount = \" + pm.globals.get(\"retryCount\"));",
									"\t});",
									"} else {",
									"\tconsole.log(\"Response status code = \" + pm.response.code);",
									"\t// retry on failure. Calling global function.",
									"\tretryUtils();",
									"}"
								],
								"type": "text/javascript"
							}
						}
					],
					"request": {
						"method": "GET",
						"header": [],
						"url": {
							"raw": "{{rules-engine-base-url}}/sv/rulesengine/merchants/{{merchant-id-post1}}",
							"host": [
								"{{rules-engine-base-url}}"
							],
							"path": [
								"sv",
								"rulesengine",
								"merchants",
								"{{merchant-id-post1}}"
							]
						}
					},
					"response": []
				},
				{
					"name": "ME1_GMR3: Merchant Not Found - Resolver Service",
					"event": [
						{
							"listen": "test",
							"script": {
								"id": "bcf61fb8-9f4b-4b15-aa88-42f5902bfd06",
								"exec": [
									"var expectedStatus = 404;",
									"// Get global retry function.",
									"const retryUtils = eval(pm.globals.get(\"retryHelper\"));",
									"",
									"if (responseCode.code == expectedStatus) {",
									"\tconsole.log(\"Response status code = \" + pm.response.code);",
									"\tpm.test(\"Response status code = \" + pm.response.code, function() {",
									"\t\tpm.response.to.have.status(404)",
									"\t});",
									"",
									"\tvar jsonData = pm.response.json();",
									"\tvar response_result = jsonData.result;",
									"\tvar response_errorMessage = jsonData.errors[0].errorMessage;",
									"\tvar response_moreInfo = jsonData.errors[0].moreInfo;",
									"\tvar rnf_expected_error_message = pm.globals.get(\"messages_error_resourcenotfound_resolver\");",
									"\tvar rnf_expected_error_moreinfo = pm.globals.get(\"messages_error_moreinfo_resourcenotfound_merchant_resolver\");",
									"\tvar merchant_id = pm.environment.get(\"merchant-id-post1\");",
									"",
									"\tpm.test(\"Response errorMessage = \" + response_errorMessage, function() {",
									"\t\tpm.expect(response_errorMessage).to.eql(rnf_expected_error_message);",
									"\t});",
									"\tpm.test(\"Response moreInfo = \" + response_moreInfo, function() {",
									"\t\tpm.expect(response_moreInfo).to.eql(rnf_expected_error_moreinfo",
									"\t\t\t\t+ merchant_id);",
									"\t",
									"\t//Test is successful, set retryCount to 1.",
									"\tpm.globals.set(\"retryCount\", 1);",
									"\tconsole.log(\"Test is successful, retryCount is set to 1, retryCount = \" + pm.globals.get(\"retryCount\"));",
									"\t});",
									"} else {",
									"\tconsole.log(\"Response status code = \" + pm.response.code);",
									"\t// retry on failure. Calling global function.",
									"\tretryUtils();",
									"}"
								],
								"type": "text/javascript"
							}
						}
					],
					"request": {
						"method": "GET",
						"header": [],
						"url": {
							"raw": "{{orchestrator-base-url}}/sv/merchantresolver?merchantId={{merchant-id-post1}}",
							"host": [
								"{{orchestrator-base-url}}"
							],
							"path": [
								"sv",
								"merchantresolver"
							],
							"query": [
								{
									"key": "merchantId",
									"value": "{{merchant-id-post1}}"
								}
							]
						}
					},
					"response": []
				}
			],
			"protocolProfileBehavior": {}
		}
	],
	"protocolProfileBehavior": {}
}