{
	"info": {
		"_postman_id": "85d64dec-1401-4d66-b24e-041997116729",
		"name": "ts-sv-api-accounttype",
		"schema": "https://schema.getpostman.com/json/collection/v2.1.0/collection.json"
	},
	"item": [
		{
			"name": "AccountType tests with same acctTypeName for 2 institutions",
			"item": [
				{
					"name": "AT001_CAT1: Create AccountType",
					"event": [
						{
							"listen": "test",
							"script": {
								"id": "938fe757-1e53-4acb-b522-f06600de3eb6",
								"exec": [
									"tests[\"Status code 201\"] = responseCode.code === 201;",
									"var env = pm.environment",
									"var jsonData = JSON.parse(responseBody);",
									"var accountTypeName = jsonData.name;",
									"var institutionId = jsonData.institutionId;",
									"",
									"env.set(\"AT001.accountTypeId1\", jsonData.id);",
									"",
									"tests[\"accountTypeName is \" + accountTypeName] = accountTypeName ===  env.get(\"accountTypeName1\");",
									"tests[\"institutionId is \" + institutionId] = institutionId ===  env.get(\"institution-id\");"
								],
								"type": "text/javascript"
							}
						},
						{
							"listen": "prerequest",
							"script": {
								"id": "d1fdd1eb-8ccf-4bc3-9671-3821de7c7d1c",
								"exec": [
									"var uuid = require('uuid'); ",
									"pm.environment.set(\"institution-id\", uuid.v4());",
									"pm.environment.set(\"accountTypeName1\", uuid.v4());"
								],
								"type": "text/javascript"
							}
						}
					],
					"request": {
						"method": "POST",
						"header": [
							{
								"key": "Content-Type",
								"name": "Content-Type",
								"type": "text",
								"value": "application/json"
							},
							{
								"key": "INSTITUTION-ID",
								"type": "text",
								"value": "{{institution-id}}"
							}
						],
						"body": {
							"mode": "raw",
							"raw": "{\n\"name\" : \"{{accountTypeName1}}\",\n\"currencyCodeNumeric\" : \"{{currencyCodeNumeric}}\"\n}"
						},
						"url": {
							"raw": "{{ts-sv-api-institution-url}}/sv/accounttypes",
							"host": [
								"{{ts-sv-api-institution-url}}"
							],
							"path": [
								"sv",
								"accounttypes"
							]
						}
					},
					"response": []
				},
				{
					"name": "AT001_GAT1: GET AccountType1",
					"event": [
						{
							"listen": "test",
							"script": {
								"id": "ee62755b-9712-4ce7-ba0c-fcbfef5105ed",
								"exec": [
									"tests[\"Status code 200\"] = responseCode.code === 200;",
									"var env = pm.environment",
									"var jsonData = JSON.parse(responseBody);",
									"var accountTypeName = jsonData.name;",
									"var institutionId = jsonData.institutionId;",
									"",
									"tests[\"accountTypeName is \" + accountTypeName] = accountTypeName ===  env.get(\"accountTypeName1\");",
									"tests[\"institutionId is \" + institutionId] = institutionId ===  env.get(\"institution-id\");"
								],
								"type": "text/javascript"
							}
						}
					],
					"request": {
						"method": "GET",
						"header": [
							{
								"key": "INSTITUTION-ID",
								"value": "{{institution-id}}",
								"type": "text"
							}
						],
						"url": {
							"raw": "{{ts-sv-api-institution-url}}/sv/accounttypes/{{AT001.accountTypeId1}}",
							"host": [
								"{{ts-sv-api-institution-url}}"
							],
							"path": [
								"sv",
								"accounttypes",
								"{{AT001.accountTypeId1}}"
							]
						}
					},
					"response": []
				},
				{
					"name": "AT001_CAT2: Create AccountType with same name",
					"event": [
						{
							"listen": "test",
							"script": {
								"id": "938fe757-1e53-4acb-b522-f06600de3eb6",
								"exec": [
									"tests[\"Status code 201\"] = responseCode.code === 201;",
									"var env = pm.environment",
									"var jsonData = JSON.parse(responseBody);",
									"var accountTypeName = jsonData.name;",
									"var institutionId = jsonData.institutionId;",
									"",
									"env.set(\"AT001.accountTypeId2\", jsonData.id);",
									"",
									"tests[\"accountTypeName is \" + accountTypeName] = accountTypeName ===  env.get(\"accountTypeName1\");",
									"tests[\"institutionId is \" + institutionId] = institutionId ===  env.get(\"institution-id2\");"
								],
								"type": "text/javascript"
							}
						},
						{
							"listen": "prerequest",
							"script": {
								"id": "4f6bc0a3-da76-4e1e-a99f-a69df17903b9",
								"exec": [
									"var uuid = require('uuid'); ",
									"pm.environment.set(\"institution-id2\", uuid.v4());",
									"pm.environment.set(\"accountTypeName1\", uuid.v4());"
								],
								"type": "text/javascript"
							}
						}
					],
					"request": {
						"method": "POST",
						"header": [
							{
								"key": "Content-Type",
								"name": "Content-Type",
								"type": "text",
								"value": "application/json"
							},
							{
								"key": "INSTITUTION-ID",
								"type": "text",
								"value": "{{institution-id2}}"
							}
						],
						"body": {
							"mode": "raw",
							"raw": "{\n\"name\" : \"{{accountTypeName1}}\",\n\"currencyCodeNumeric\" : \"{{currencyCodeNumeric}}\"\n}"
						},
						"url": {
							"raw": "{{ts-sv-api-institution-url}}/sv/accounttypes",
							"host": [
								"{{ts-sv-api-institution-url}}"
							],
							"path": [
								"sv",
								"accounttypes"
							]
						}
					},
					"response": []
				},
				{
					"name": "AT001_GAT2:  Get AccountType2",
					"event": [
						{
							"listen": "test",
							"script": {
								"id": "97369892-62b3-44d9-b1d5-46694663fbcc",
								"exec": [
									"tests[\"Status code 200\"] = responseCode.code === 200;",
									"var env = pm.environment",
									"var jsonData = JSON.parse(responseBody);",
									"var accountTypeName = jsonData.name;",
									"var institutionId = jsonData.institutionId;",
									"",
									"tests[\"accountTypeName is \" + accountTypeName] = accountTypeName ===  env.get(\"accountTypeName1\");",
									"tests[\"institutionId is \" + institutionId] = institutionId ===  env.get(\"institution-id2\");"
								],
								"type": "text/javascript"
							}
						}
					],
					"request": {
						"method": "GET",
						"header": [
							{
								"key": "INSTITUTION-ID",
								"value": "{{institution-id2}}",
								"type": "text"
							}
						],
						"url": {
							"raw": "{{ts-sv-api-institution-url}}/sv/accounttypes/{{AT001.accountTypeId2}}",
							"host": [
								"{{ts-sv-api-institution-url}}"
							],
							"path": [
								"sv",
								"accounttypes",
								"{{AT001.accountTypeId2}}"
							]
						}
					},
					"response": []
				},
				{
					"name": "AT001_DAT1: Delete AccountType1",
					"event": [
						{
							"listen": "test",
							"script": {
								"id": "ee62755b-9712-4ce7-ba0c-fcbfef5105ed",
								"exec": [
									"tests[\"Status code 200\"] = responseCode.code === 200;"
								],
								"type": "text/javascript"
							}
						}
					],
					"request": {
						"method": "DELETE",
						"header": [
							{
								"key": "INSTITUTION-ID",
								"value": "{{institution-id}}",
								"type": "text"
							}
						],
						"url": {
							"raw": "{{ts-sv-api-institution-url}}/sv/accounttypes/{{AT001.accountTypeId1}}",
							"host": [
								"{{ts-sv-api-institution-url}}"
							],
							"path": [
								"sv",
								"accounttypes",
								"{{AT001.accountTypeId1}}"
							]
						}
					},
					"response": []
				},
				{
					"name": "AT001_DAT2: Delete AccountType2",
					"event": [
						{
							"listen": "test",
							"script": {
								"id": "97369892-62b3-44d9-b1d5-46694663fbcc",
								"exec": [
									"tests[\"Status code 200\"] = responseCode.code === 200;"
								],
								"type": "text/javascript"
							}
						}
					],
					"request": {
						"method": "DELETE",
						"header": [
							{
								"key": "INSTITUTION-ID",
								"value": "{{institution-id2}}",
								"type": "text"
							}
						],
						"url": {
							"raw": "{{ts-sv-api-institution-url}}/sv/accounttypes/{{AT001.accountTypeId2}}",
							"host": [
								"{{ts-sv-api-institution-url}}"
							],
							"path": [
								"sv",
								"accounttypes",
								"{{AT001.accountTypeId2}}"
							]
						}
					},
					"response": []
				}
			],
			"protocolProfileBehavior": {}
		},
		{
			"name": "AccountType tests with same acctTypeName for 1 institution",
			"item": [
				{
					"name": "AT002_CAT1: Create AccountType",
					"event": [
						{
							"listen": "test",
							"script": {
								"id": "938fe757-1e53-4acb-b522-f06600de3eb6",
								"exec": [
									"tests[\"Status code 201\"] = responseCode.code === 201;",
									"var env = pm.environment",
									"var jsonData = JSON.parse(responseBody);",
									"var accountTypeName = jsonData.name;",
									"var institutionId = jsonData.institutionId;",
									"",
									"env.set(\"AT002.accountTypeId\", jsonData.id);",
									"",
									"tests[\"accountTypeName is \" + accountTypeName] = accountTypeName ===  env.get(\"accountTypeName1\");",
									"tests[\"institutionId is \" + institutionId] = institutionId ===  env.get(\"institution-id\");"
								],
								"type": "text/javascript"
							}
						},
						{
							"listen": "prerequest",
							"script": {
								"id": "413c6b4b-9118-4ca7-956d-74c32e2f26bf",
								"exec": [
									"var uuid = require('uuid'); ",
									"pm.environment.set(\"institution-id\", uuid.v4());",
									"pm.environment.set(\"accountTypeName1\", uuid.v4());"
								],
								"type": "text/javascript"
							}
						}
					],
					"request": {
						"method": "POST",
						"header": [
							{
								"key": "Content-Type",
								"name": "Content-Type",
								"type": "text",
								"value": "application/json"
							},
							{
								"key": "INSTITUTION-ID",
								"type": "text",
								"value": "{{institution-id}}"
							}
						],
						"body": {
							"mode": "raw",
							"raw": "{\n\"name\" : \"{{accountTypeName1}}\",\n\"currencyCodeNumeric\" : \"{{currencyCodeNumeric}}\"\n}"
						},
						"url": {
							"raw": "{{ts-sv-api-institution-url}}/sv/accounttypes",
							"host": [
								"{{ts-sv-api-institution-url}}"
							],
							"path": [
								"sv",
								"accounttypes"
							]
						}
					},
					"response": []
				},
				{
					"name": "AT002_GAT: Get AccountType",
					"event": [
						{
							"listen": "test",
							"script": {
								"id": "144d395c-29f7-4ec9-882d-1c9a741c10b9",
								"exec": [
									"tests[\"Status code 200\"] = responseCode.code === 200;",
									"var env = pm.environment",
									"var jsonData = JSON.parse(responseBody);",
									"var accountTypeName = jsonData.name;",
									"var institutionId = jsonData.institutionId;",
									"",
									"tests[\"accountTypeName is \" + accountTypeName] = accountTypeName ===  env.get(\"accountTypeName1\");",
									"tests[\"institutionId is \" + institutionId] = institutionId ===  env.get(\"institution-id\");"
								],
								"type": "text/javascript"
							}
						}
					],
					"request": {
						"method": "GET",
						"header": [
							{
								"key": "INSTITUTION-ID",
								"type": "text",
								"value": "{{institution-id}}"
							}
						],
						"url": {
							"raw": "{{ts-sv-api-institution-url}}/sv/accounttypes/{{AT002.accountTypeId}}",
							"host": [
								"{{ts-sv-api-institution-url}}"
							],
							"path": [
								"sv",
								"accounttypes",
								"{{AT002.accountTypeId}}"
							]
						}
					},
					"response": []
				},
				{
					"name": "AT002_CAT2_409: Create AccountType with same name",
					"event": [
						{
							"listen": "test",
							"script": {
								"id": "938fe757-1e53-4acb-b522-f06600de3eb6",
								"exec": [
									"tests[\"Status code 409\"] = responseCode.code === 409;",
									"var env = pm.environment",
									"var jsonData = JSON.parse(responseBody);",
									"var errorMessage = jsonData.errors[0].errorMessage;",
									"var moreInfo = jsonData.errors[0].moreInfo;",
									"",
									"tests[\"errorMessage is \" + errorMessage] = errorMessage ===  \"Unique Constraint Violation Occurred\";",
									"tests[\"moreInfo is \" + moreInfo] = moreInfo ===  \"accountType with name \" + env.get(\"accountTypeName1\") + \" already exists for institutionId \" + env.get(\"institution-id\")"
								],
								"type": "text/javascript"
							}
						},
						{
							"listen": "prerequest",
							"script": {
								"id": "448484e7-d71c-481a-b0e3-b1379242f5a1",
								"exec": [
									""
								],
								"type": "text/javascript"
							}
						}
					],
					"request": {
						"method": "POST",
						"header": [
							{
								"key": "Content-Type",
								"name": "Content-Type",
								"type": "text",
								"value": "application/json"
							},
							{
								"key": "INSTITUTION-ID",
								"type": "text",
								"value": "{{institution-id}}"
							}
						],
						"body": {
							"mode": "raw",
							"raw": "{\n\"name\" : \"{{accountTypeName1}}\",\n\"currencyCodeNumeric\" : \"{{currencyCodeNumeric}}\"\n}"
						},
						"url": {
							"raw": "{{ts-sv-api-institution-url}}/sv/accounttypes",
							"host": [
								"{{ts-sv-api-institution-url}}"
							],
							"path": [
								"sv",
								"accounttypes"
							]
						}
					},
					"response": []
				},
				{
					"name": "AT002_DAT: Delete AccountType",
					"event": [
						{
							"listen": "test",
							"script": {
								"id": "144d395c-29f7-4ec9-882d-1c9a741c10b9",
								"exec": [
									"tests[\"Status code 200\"] = responseCode.code === 200;"
								],
								"type": "text/javascript"
							}
						}
					],
					"request": {
						"method": "DELETE",
						"header": [
							{
								"key": "INSTITUTION-ID",
								"value": "{{institution-id}}",
								"type": "text"
							}
						],
						"url": {
							"raw": "{{ts-sv-api-institution-url}}/sv/accounttypes/{{AT002.accountTypeId}}",
							"host": [
								"{{ts-sv-api-institution-url}}"
							],
							"path": [
								"sv",
								"accounttypes",
								"{{AT002.accountTypeId}}"
							]
						}
					},
					"response": []
				}
			],
			"protocolProfileBehavior": {}
		},
		{
			"name": "Cascade Account Type Delete",
			"item": [
				{
					"name": "ATCD1_1:POST Create Account Type 1",
					"event": [
						{
							"listen": "test",
							"script": {
								"id": "938fe757-1e53-4acb-b522-f06600de3eb6",
								"exec": [
									"tests[\"Status code 201\"] = responseCode.code === 201;",
									"",
									"var jsonData = JSON.parse(responseBody);",
									"var accountTypeName = jsonData.name;",
									"var institutionId = jsonData.institutionId;",
									"",
									"pm.environment.set(\"account-type-id\", jsonData.id);"
								],
								"type": "text/javascript"
							}
						},
						{
							"listen": "prerequest",
							"script": {
								"id": "bfadfe35-9709-457f-93c8-f4d8e8d64f51",
								"exec": [
									"var uuid = require('uuid'); ",
									"pm.environment.set(\"institution-id\", uuid.v4());"
								],
								"type": "text/javascript"
							}
						}
					],
					"request": {
						"method": "POST",
						"header": [
							{
								"key": "Content-Type",
								"name": "Content-Type",
								"type": "text",
								"value": "application/json"
							},
							{
								"key": "INSTITUTION-ID",
								"type": "text",
								"value": "{{institution-id}}"
							}
						],
						"body": {
							"mode": "raw",
							"raw": "{\n\"name\" : \"AccountTypeName\",\n\"currencyCodeNumeric\" : \"{{currencyCodeNumeric}}\"\n}"
						},
						"url": {
							"raw": "{{ts-sv-api-institution-url}}/sv/accounttypes",
							"host": [
								"{{ts-sv-api-institution-url}}"
							],
							"path": [
								"sv",
								"accounttypes"
							]
						}
					},
					"response": []
				},
				{
					"name": "ATCD1_1:POST Create AccountHolder 1",
					"event": [
						{
							"listen": "test",
							"script": {
								"id": "fc9a40e1-dc02-4871-981e-fed1c4be22ee",
								"exec": [
									"tests[\"Status code 201\"] = responseCode.code === 201;",
									"var env = pm.environment",
									"var jsonData = JSON.parse(responseBody);",
									"",
									"pm.environment.set(\"accountholder-id\", jsonData.id);"
								],
								"type": "text/javascript"
							}
						},
						{
							"listen": "prerequest",
							"script": {
								"id": "4f695e0d-51cf-4fde-9325-433220bdd5ba",
								"exec": [
									""
								],
								"type": "text/javascript"
							}
						}
					],
					"request": {
						"method": "POST",
						"header": [
							{
								"key": "Content-Type",
								"name": "Content-Type",
								"type": "text",
								"value": "application/json"
							},
							{
								"key": "INSTITUTION-ID",
								"type": "text",
								"value": "{{institution-id}}"
							}
						],
						"body": {
							"mode": "raw",
							"raw": "{\n    \"name\": \"AccountHolder Postman Test Name\",\n    \"active\": true\n}"
						},
						"url": {
							"raw": "{{ts-sv-api-institution-url}}/sv/accountholders",
							"host": [
								"{{ts-sv-api-institution-url}}"
							],
							"path": [
								"sv",
								"accountholders"
							]
						}
					},
					"response": []
				},
				{
					"name": "ATCD1_1:POST Create Account 1",
					"event": [
						{
							"listen": "test",
							"script": {
								"id": "3cb5171c-ac50-4307-844a-c1699687db90",
								"exec": [
									"tests[\"Status code 201\"] = responseCode.code === 201;",
									"var env = pm.environment",
									"var jsonData = JSON.parse(responseBody);",
									"",
									"pm.environment.set(\"account-id\", jsonData.id);"
								],
								"type": "text/javascript"
							}
						},
						{
							"listen": "prerequest",
							"script": {
								"id": "5fb7b423-5379-4357-9441-bbc9da5c71c0",
								"exec": [
									""
								],
								"type": "text/javascript"
							}
						}
					],
					"request": {
						"method": "POST",
						"header": [
							{
								"key": "Content-Type",
								"name": "Content-Type",
								"type": "text",
								"value": "application/json"
							},
							{
								"key": "INSTITUTION-ID",
								"type": "text",
								"value": "{{institution-id}}"
							}
						],
						"body": {
							"mode": "raw",
							"raw": "{\n    \"accountTypeId\": \"{{account-type-id}}\",\n    \"creditLimitAmount\": \"104.25\",\n    \"type\": \"IND\"\n}"
						},
						"url": {
							"raw": "{{ts-sv-api-institution-url}}/sv/accountholders/{{accountholder-id}}/accounts",
							"host": [
								"{{ts-sv-api-institution-url}}"
							],
							"path": [
								"sv",
								"accountholders",
								"{{accountholder-id}}",
								"accounts"
							]
						}
					},
					"response": []
				},
				{
					"name": "ATCD1_2:GET Verify Account with Account Type 1",
					"event": [
						{
							"listen": "test",
							"script": {
								"id": "e1dead1a-098d-4188-9b55-69f0e811478f",
								"exec": [
									"tests[\"Status code 200\"] = responseCode.code === 200;",
									"var env = pm.environment",
									"var jsonData = JSON.parse(responseBody);",
									"",
									"tests[\"Accountholder ID is Generated\"] = jsonData.id != null",
									"tests[\"Accountholder Active is True\"] = jsonData.active === true",
									"tests[\"Accountholder Institution ID is Correct\"] = jsonData.institutionId == env.get(\"institution-id\")",
									"tests[\"Accountholder Accounts are Empty\"] = jsonData.accounts.length == 1",
									"var account1 = jsonData.accounts[0];",
									"tests[\"Account Id is Correct\"] = account1.id == env.get(\"account-id\")",
									"tests[\"Account Type ID is Correct\"] = account1.accountTypeId == env.get(\"account-type-id\")"
								],
								"type": "text/javascript"
							}
						}
					],
					"request": {
						"method": "GET",
						"header": [
							{
								"key": "Content-Type",
								"name": "Content-Type",
								"type": "text",
								"value": "application/json"
							},
							{
								"key": "INSTITUTION-ID",
								"value": "{{institution-id}}",
								"type": "text"
							}
						],
						"url": {
							"raw": "{{ts-sv-api-institution-url}}/sv/accountholders/{{accountholder-id}}",
							"host": [
								"{{ts-sv-api-institution-url}}"
							],
							"path": [
								"sv",
								"accountholders",
								"{{accountholder-id}}"
							]
						}
					},
					"response": []
				},
				{
					"name": "ATCD1_3:DELETE Delete Account Type 1",
					"event": [
						{
							"listen": "test",
							"script": {
								"id": "144d395c-29f7-4ec9-882d-1c9a741c10b9",
								"exec": [
									"tests[\"Status code 200\"] = responseCode.code === 200;"
								],
								"type": "text/javascript"
							}
						}
					],
					"request": {
						"method": "DELETE",
						"header": [
							{
								"key": "INSTITUTION-ID",
								"type": "text",
								"value": "{{institution-id}}"
							}
						],
						"url": {
							"raw": "{{ts-sv-api-institution-url}}/sv/accounttypes/{{account-type-id}}",
							"host": [
								"{{ts-sv-api-institution-url}}"
							],
							"path": [
								"sv",
								"accounttypes",
								"{{account-type-id}}"
							]
						}
					},
					"response": []
				},
				{
					"name": "ATCD1_4:GET Verify Account Type Delete Cascades",
					"event": [
						{
							"listen": "test",
							"script": {
								"id": "e1dead1a-098d-4188-9b55-69f0e811478f",
								"exec": [
									"tests[\"Status code 200\"] = responseCode.code === 200;",
									"var env = pm.environment",
									"var jsonData = JSON.parse(responseBody);",
									"",
									"tests[\"Accountholder ID is Generated\"] = jsonData.id != null",
									"tests[\"Accountholder Active is True\"] = jsonData.active === true",
									"tests[\"Accountholder Institution ID is Correct\"] = jsonData.institutionId == env.get(\"institution-id\")",
									"tests[\"Accountholder Accounts are Empty\"] = jsonData.accounts.length == 0"
								],
								"type": "text/javascript"
							}
						}
					],
					"request": {
						"method": "GET",
						"header": [
							{
								"key": "Content-Type",
								"name": "Content-Type",
								"type": "text",
								"value": "application/json"
							},
							{
								"key": "INSTITUTION-ID",
								"value": "{{institution-id}}",
								"type": "text"
							}
						],
						"url": {
							"raw": "{{ts-sv-api-institution-url}}/sv/accountholders/{{accountholder-id}}",
							"host": [
								"{{ts-sv-api-institution-url}}"
							],
							"path": [
								"sv",
								"accountholders",
								"{{accountholder-id}}"
							]
						}
					},
					"response": []
				},
				{
					"name": "ATCD1_5:DELETE Cleanup AccountHolder 1",
					"event": [
						{
							"listen": "test",
							"script": {
								"id": "e1dead1a-098d-4188-9b55-69f0e811478f",
								"exec": [
									"tests[\"Status code 200\"] = responseCode.code === 200;"
								],
								"type": "text/javascript"
							}
						}
					],
					"request": {
						"method": "DELETE",
						"header": [
							{
								"key": "Content-Type",
								"name": "Content-Type",
								"type": "text",
								"value": "application/json"
							},
							{
								"key": "INSTITUTION-ID",
								"type": "text",
								"value": "{{institution-id}}"
							}
						],
						"url": {
							"raw": "{{ts-sv-api-institution-url}}/sv/accountholders/{{accountholder-id}}",
							"host": [
								"{{ts-sv-api-institution-url}}"
							],
							"path": [
								"sv",
								"accountholders",
								"{{accountholder-id}}"
							]
						}
					},
					"response": []
				}
			],
			"protocolProfileBehavior": {}
		},
		{
			"name": "GetAll Account Types Tests",
			"item": [
				{
					"name": "ATGA1_SETUP: Setup The Environment",
					"event": [
						{
							"listen": "prerequest",
							"script": {
								"id": "76c0680e-80b3-4a96-81d1-e111dfc0e479",
								"exec": [
									"var uuid = require('uuid');",
									"var env = pm.environment;",
									"",
									"env.set(\"ATGA.institutionId\", uuid.v4());",
									"env.set(\"ATGA.currencyCodeNumeric\", 840);",
									"",
									"// validates accountType object.",
									"let accountTypeValidatorFunction = (id, name, institutionId, currencyCode) => {",
									"        let accountTypeObject = body.find(ac => id === ac.id) ",
									"        pm.test(\"Account Type Found for expected value: \" + id, () => {",
									"        \tpm.expect(accountTypeObject).to.exist;",
									"        })",
									"        pm.test(\"Correct Name for expected value: \" + name, () => {",
									"        \tpm.expect(name).to.eql(accountTypeObject.name);",
									"        })",
									"        pm.test(\"Correct Institution Id for expected value: \" + institutionId, () => {",
									"        \tpm.expect(institutionId).to.eql(accountTypeObject.institutionId);",
									"        })",
									"        pm.test(\"Correct Currency Code for expected value: \" + currencyCode, () => {",
									"        \tpm.expect(currencyCode).to.eql(accountTypeObject.currencyCodeNumeric);",
									"        })",
									"    };",
									"pm.globals.set(\"ATGA.AccountTypeValidator\", accountTypeValidatorFunction.toString());"
								],
								"type": "text/javascript"
							}
						},
						{
							"listen": "test",
							"script": {
								"id": "384d7034-a7a4-441b-8dac-616ae2e5ed3f",
								"exec": [
									"pm.test(\"Response status code \" + pm.response.code, function() {",
									"\tpm.response.to.have.status(200)",
									"});"
								],
								"type": "text/javascript"
							}
						}
					],
					"request": {
						"method": "GET",
						"header": [],
						"url": {
							"raw": "{{ts-sv-api-institution-url}}/actuator/info",
							"host": [
								"{{ts-sv-api-institution-url}}"
							],
							"path": [
								"actuator",
								"info"
							]
						}
					},
					"response": []
				},
				{
					"name": "ATGA1_CAT1: Create AccountType 1",
					"event": [
						{
							"listen": "test",
							"script": {
								"id": "938fe757-1e53-4acb-b522-f06600de3eb6",
								"exec": [
									"var env = pm.environment",
									"var jsonData = JSON.parse(responseBody);",
									"var institutionId = jsonData.institutionId;",
									"",
									"env.set(\"ATGA.accountTypeId1\", jsonData.id);",
									"",
									"pm.test(\"Response status code = \" + pm.response.code, function() {",
									"\tpm.response.to.have.status(201)",
									"});",
									"",
									"var expectedAccountTypeName = pm.environment.get(\"ATGA.accountTypeName1\")",
									"var actualAccountTypeName = jsonData.name;",
									"pm.test(\"accountTypeName is \" + expectedAccountTypeName, function() {",
									"\tpm.expect(expectedAccountTypeName).to.eql(actualAccountTypeName);",
									"});",
									"",
									"var expectedInstitutionId = pm.environment.get(\"ATGA.institutionId\")",
									"var actualInstitutionId = jsonData.institutionId;",
									"pm.test(\"institutionId is \" + expectedInstitutionId, function() {",
									"\tpm.expect(expectedInstitutionId).to.eql(actualInstitutionId);",
									"});"
								],
								"type": "text/javascript"
							}
						},
						{
							"listen": "prerequest",
							"script": {
								"id": "d1fdd1eb-8ccf-4bc3-9671-3821de7c7d1c",
								"exec": [
									"var uuid = require('uuid');",
									"var env = pm.environment;",
									"",
									"var partial = uuid.v4();",
									"",
									"env.set(\"ATGA.partialName1\", partial);",
									"env.set(\"ATGA.accountTypeName1\", \"Test Account Type \" + partial);"
								],
								"type": "text/javascript"
							}
						}
					],
					"request": {
						"method": "POST",
						"header": [
							{
								"key": "Content-Type",
								"name": "Content-Type",
								"type": "text",
								"value": "application/json"
							},
							{
								"key": "INSTITUTION-ID",
								"type": "text",
								"value": "{{ATGA.institutionId}}"
							}
						],
						"body": {
							"mode": "raw",
							"raw": "{\n\t\"name\" : \"{{ATGA.accountTypeName1}}\",\n\t\"currencyCodeNumeric\" : \"{{ATGA.currencyCodeNumeric}}\"\n}"
						},
						"url": {
							"raw": "{{ts-sv-api-institution-url}}/sv/accounttypes",
							"host": [
								"{{ts-sv-api-institution-url}}"
							],
							"path": [
								"sv",
								"accounttypes"
							]
						}
					},
					"response": []
				},
				{
					"name": "ATGA1_CAT2: Create AccountType 2",
					"event": [
						{
							"listen": "test",
							"script": {
								"id": "938fe757-1e53-4acb-b522-f06600de3eb6",
								"exec": [
									"var env = pm.environment",
									"var jsonData = JSON.parse(responseBody);",
									"var institutionId = jsonData.institutionId;",
									"",
									"env.set(\"ATGA.accountTypeId2\", jsonData.id);",
									"",
									"pm.test(\"Response status code = \" + pm.response.code, function() {",
									"\tpm.response.to.have.status(201)",
									"});",
									"",
									"var expectedAccountTypeName = pm.environment.get(\"ATGA.accountTypeName2\")",
									"var actualAccountTypeName = jsonData.name;",
									"pm.test(\"accountTypeName is \" + expectedAccountTypeName, function() {",
									"\tpm.expect(expectedAccountTypeName).to.eql(actualAccountTypeName);",
									"});",
									"",
									"var expectedInstitutionId = pm.environment.get(\"ATGA.institutionId\")",
									"var actualInstitutionId = jsonData.institutionId;",
									"pm.test(\"institutionId is \" + expectedInstitutionId, function() {",
									"\tpm.expect(expectedInstitutionId).to.eql(actualInstitutionId);",
									"});"
								],
								"type": "text/javascript"
							}
						},
						{
							"listen": "prerequest",
							"script": {
								"id": "d1fdd1eb-8ccf-4bc3-9671-3821de7c7d1c",
								"exec": [
									"var uuid = require('uuid');",
									"var env = pm.environment;",
									"",
									"var id = uuid.v4();",
									"",
									"env.set(\"ATGA.partialName2\", \"Test Account Type\");",
									"env.set(\"ATGA.accountTypeName2\", \"Test Account Type \" + id);"
								],
								"type": "text/javascript"
							}
						}
					],
					"request": {
						"method": "POST",
						"header": [
							{
								"key": "Content-Type",
								"name": "Content-Type",
								"type": "text",
								"value": "application/json"
							},
							{
								"key": "INSTITUTION-ID",
								"type": "text",
								"value": "{{ATGA.institutionId}}"
							}
						],
						"body": {
							"mode": "raw",
							"raw": "{\n\t\"name\" : \"{{ATGA.accountTypeName2}}\",\n\t\"currencyCodeNumeric\" : \"{{ATGA.currencyCodeNumeric}}\"\n}"
						},
						"url": {
							"raw": "{{ts-sv-api-institution-url}}/sv/accounttypes",
							"host": [
								"{{ts-sv-api-institution-url}}"
							],
							"path": [
								"sv",
								"accounttypes"
							]
						}
					},
					"response": []
				},
				{
					"name": "ATGA1_CAT3: Create AccountType 3",
					"event": [
						{
							"listen": "test",
							"script": {
								"id": "938fe757-1e53-4acb-b522-f06600de3eb6",
								"exec": [
									"var env = pm.environment",
									"var jsonData = JSON.parse(responseBody);",
									"var institutionId = jsonData.institutionId;",
									"",
									"env.set(\"ATGA.accountTypeId3\", jsonData.id);",
									"",
									"pm.test(\"Response status code = \" + pm.response.code, function() {",
									"\tpm.response.to.have.status(201)",
									"});",
									"",
									"var expectedAccountTypeName = pm.environment.get(\"ATGA.accountTypeName3\")",
									"var actualAccountTypeName = jsonData.name;",
									"pm.test(\"accountTypeName is \" + expectedAccountTypeName, function() {",
									"\tpm.expect(expectedAccountTypeName).to.eql(actualAccountTypeName);",
									"});",
									"",
									"var expectedInstitutionId = pm.environment.get(\"ATGA.institutionId\")",
									"var actualInstitutionId = jsonData.institutionId;",
									"pm.test(\"institutionId is \" + expectedInstitutionId, function() {",
									"\tpm.expect(expectedInstitutionId).to.eql(actualInstitutionId);",
									"});"
								],
								"type": "text/javascript"
							}
						},
						{
							"listen": "prerequest",
							"script": {
								"id": "d1fdd1eb-8ccf-4bc3-9671-3821de7c7d1c",
								"exec": [
									"var uuid = require('uuid');",
									"var env = pm.environment;",
									"",
									"var partial = uuid.v4();",
									"",
									"env.set(\"ATGA.accountTypeName3\", \"Third Account Type for Test \" + partial);"
								],
								"type": "text/javascript"
							}
						}
					],
					"request": {
						"method": "POST",
						"header": [
							{
								"key": "Content-Type",
								"name": "Content-Type",
								"type": "text",
								"value": "application/json"
							},
							{
								"key": "INSTITUTION-ID",
								"type": "text",
								"value": "{{ATGA.institutionId}}"
							}
						],
						"body": {
							"mode": "raw",
							"raw": "{\n\t\"name\" : \"{{ATGA.accountTypeName3}}\",\n\t\"currencyCodeNumeric\" : \"{{ATGA.currencyCodeNumeric}}\"\n}"
						},
						"url": {
							"raw": "{{ts-sv-api-institution-url}}/sv/accounttypes",
							"host": [
								"{{ts-sv-api-institution-url}}"
							],
							"path": [
								"sv",
								"accounttypes"
							]
						}
					},
					"response": []
				},
				{
					"name": "ATGA1_GA1: Get All Account Types For The Institution",
					"event": [
						{
							"listen": "test",
							"script": {
								"id": "eeffb149-40e3-4f79-9554-51048ba0a9f5",
								"exec": [
									"var env = pm.environment",
									"var body = JSON.parse(responseBody);",
									"",
									"pm.test(\"Response status code = \" + pm.response.code, function() {",
									"\tpm.response.to.have.status(200)",
									"});",
									"",
									"pm.test(\"Verify that there are 3 account types returned\", function() {",
									"\tpm.expect(3).to.eql(body.length);",
									"});",
									"",
									"eval(pm.globals.get(\"ATGA.AccountTypeValidator\"))(env.get(\"ATGA.accountTypeId1\"), env.get(\"ATGA.accountTypeName1\"), env.get(\"ATGA.institutionId\"), env.get(\"ATGA.currencyCodeNumeric\"));",
									"eval(pm.globals.get(\"ATGA.AccountTypeValidator\"))(env.get(\"ATGA.accountTypeId2\"), env.get(\"ATGA.accountTypeName2\"), env.get(\"ATGA.institutionId\"), env.get(\"ATGA.currencyCodeNumeric\"));",
									"eval(pm.globals.get(\"ATGA.AccountTypeValidator\"))(env.get(\"ATGA.accountTypeId3\"), env.get(\"ATGA.accountTypeName3\"), env.get(\"ATGA.institutionId\"), env.get(\"ATGA.currencyCodeNumeric\"));"
								],
								"type": "text/javascript"
							}
						}
					],
					"request": {
						"method": "GET",
						"header": [
							{
								"key": "INSTITUTION-ID",
								"value": "{{ATGA.institutionId}}",
								"type": "text"
							}
						],
						"url": {
							"raw": "{{ts-sv-api-institution-url}}/sv/accounttypes",
							"host": [
								"{{ts-sv-api-institution-url}}"
							],
							"path": [
								"sv",
								"accounttypes"
							]
						}
					},
					"response": []
				},
				{
					"name": "ATGA1_GA2: GetAll By Partial Name 1",
					"event": [
						{
							"listen": "test",
							"script": {
								"id": "eeffb149-40e3-4f79-9554-51048ba0a9f5",
								"exec": [
									"var env = pm.environment",
									"var body = JSON.parse(responseBody);",
									"",
									"pm.test(\"Response status code = \" + pm.response.code, function() {",
									"\tpm.response.to.have.status(200)",
									"});",
									"",
									"pm.test(\"Verify that there is only 1 account type returned\", function() {",
									"\tpm.expect(1).to.eql(body.length);",
									"});",
									"",
									"eval(pm.globals.get(\"ATGA.AccountTypeValidator\"))(env.get(\"ATGA.accountTypeId1\"), env.get(\"ATGA.accountTypeName1\"), env.get(\"ATGA.institutionId\"), env.get(\"ATGA.currencyCodeNumeric\"));"
								],
								"type": "text/javascript"
							}
						},
						{
							"listen": "prerequest",
							"script": {
								"id": "0e0e3b70-b34c-4502-ac86-db050d3c7cc6",
								"exec": [
									""
								],
								"type": "text/javascript"
							}
						}
					],
					"request": {
						"method": "GET",
						"header": [
							{
								"key": "INSTITUTION-ID",
								"type": "text",
								"value": "{{ATGA.institutionId}}"
							}
						],
						"url": {
							"raw": "{{ts-sv-api-institution-url}}/sv/accounttypes?name={{ATGA.partialName1}}",
							"host": [
								"{{ts-sv-api-institution-url}}"
							],
							"path": [
								"sv",
								"accounttypes"
							],
							"query": [
								{
									"key": "name",
									"value": "{{ATGA.partialName1}}"
								}
							]
						}
					},
					"response": []
				},
				{
					"name": "ATGA1_GA3: GetAll By Partial Name 2",
					"event": [
						{
							"listen": "test",
							"script": {
								"id": "eeffb149-40e3-4f79-9554-51048ba0a9f5",
								"exec": [
									"var env = pm.environment",
									"var body = JSON.parse(responseBody);",
									"",
									"pm.test(\"Response status code = \" + pm.response.code, function() {",
									"\tpm.response.to.have.status(200)",
									"});",
									"",
									"pm.test(\"Verify that there are 2 account types returned\", function() {",
									"\tpm.expect(2).to.eql(body.length);",
									"});",
									"",
									"eval(pm.globals.get(\"ATGA.AccountTypeValidator\"))(env.get(\"ATGA.accountTypeId1\"), env.get(\"ATGA.accountTypeName1\"), env.get(\"ATGA.institutionId\"), env.get(\"ATGA.currencyCodeNumeric\"));",
									"eval(pm.globals.get(\"ATGA.AccountTypeValidator\"))(env.get(\"ATGA.accountTypeId2\"), env.get(\"ATGA.accountTypeName2\"), env.get(\"ATGA.institutionId\"), env.get(\"ATGA.currencyCodeNumeric\"));"
								],
								"type": "text/javascript"
							}
						},
						{
							"listen": "prerequest",
							"script": {
								"id": "0e0e3b70-b34c-4502-ac86-db050d3c7cc6",
								"exec": [
									""
								],
								"type": "text/javascript"
							}
						}
					],
					"request": {
						"method": "GET",
						"header": [
							{
								"key": "INSTITUTION-ID",
								"type": "text",
								"value": "{{ATGA.institutionId}}"
							}
						],
						"url": {
							"raw": "{{ts-sv-api-institution-url}}/sv/accounttypes?name={{ATGA.partialName2}}",
							"host": [
								"{{ts-sv-api-institution-url}}"
							],
							"path": [
								"sv",
								"accounttypes"
							],
							"query": [
								{
									"key": "name",
									"value": "{{ATGA.partialName2}}"
								}
							]
						}
					},
					"response": []
				},
				{
					"name": "ATGA1_GA4: GetAll By Partial Id",
					"event": [
						{
							"listen": "test",
							"script": {
								"id": "eeffb149-40e3-4f79-9554-51048ba0a9f5",
								"exec": [
									"var env = pm.environment",
									"var body = JSON.parse(responseBody);",
									"",
									"pm.test(\"Response status code = \" + pm.response.code, function() {",
									"\tpm.response.to.have.status(200)",
									"});",
									"",
									"pm.test(\"Verify that there is only 1 account type returned\", function() {",
									"\tpm.expect(1).to.eql(body.length);",
									"});",
									"",
									"eval(pm.globals.get(\"ATGA.AccountTypeValidator\"))(env.get(\"ATGA.accountTypeId1\"), env.get(\"ATGA.accountTypeName1\"), env.get(\"ATGA.institutionId\"), env.get(\"ATGA.currencyCodeNumeric\"));"
								],
								"type": "text/javascript"
							}
						},
						{
							"listen": "prerequest",
							"script": {
								"id": "0e0e3b70-b34c-4502-ac86-db050d3c7cc6",
								"exec": [
									"var env = pm.environment;",
									"",
									"var id = env.get(\"ATGA.accountTypeId1\");",
									"var partial = id.substr(0, 6);",
									"",
									"env.set(\"ATGA.partialId1\", partial);"
								],
								"type": "text/javascript"
							}
						}
					],
					"request": {
						"method": "GET",
						"header": [
							{
								"key": "INSTITUTION-ID",
								"type": "text",
								"value": "{{ATGA.institutionId}}"
							}
						],
						"url": {
							"raw": "{{ts-sv-api-institution-url}}/sv/accounttypes?id={{ATGA.partialId1}}",
							"host": [
								"{{ts-sv-api-institution-url}}"
							],
							"path": [
								"sv",
								"accounttypes"
							],
							"query": [
								{
									"key": "id",
									"value": "{{ATGA.partialId1}}"
								}
							]
						}
					},
					"response": []
				},
				{
					"name": "ATGA1_GA5: GetAll By Partial Id And Name",
					"event": [
						{
							"listen": "test",
							"script": {
								"id": "eeffb149-40e3-4f79-9554-51048ba0a9f5",
								"exec": [
									"var env = pm.environment",
									"var body = JSON.parse(responseBody);",
									"",
									"pm.test(\"Response status code = \" + pm.response.code, function() {",
									"\tpm.response.to.have.status(200)",
									"});",
									"",
									"pm.test(\"Verify that there is only 1 account type returned\", function() {",
									"\tpm.expect(1).to.eql(body.length);",
									"});",
									"",
									"eval(pm.globals.get(\"ATGA.AccountTypeValidator\"))(env.get(\"ATGA.accountTypeId2\"), env.get(\"ATGA.accountTypeName2\"), env.get(\"ATGA.institutionId\"), env.get(\"ATGA.currencyCodeNumeric\"));"
								],
								"type": "text/javascript"
							}
						},
						{
							"listen": "prerequest",
							"script": {
								"id": "0e0e3b70-b34c-4502-ac86-db050d3c7cc6",
								"exec": [
									"var env = pm.environment;",
									"",
									"var id = env.get(\"ATGA.accountTypeId2\");",
									"var partial = id.substr(0, 6);",
									"",
									"env.set(\"ATGA.partialId2\", partial);",
									"env.set(\"ATGA.partialName3\", \"Test Account Type\");"
								],
								"type": "text/javascript"
							}
						}
					],
					"request": {
						"method": "GET",
						"header": [
							{
								"key": "INSTITUTION-ID",
								"type": "text",
								"value": "{{ATGA.institutionId}}"
							}
						],
						"url": {
							"raw": "{{ts-sv-api-institution-url}}/sv/accounttypes?id={{ATGA.partialId2}}&name={{ATGA.partialName3}}",
							"host": [
								"{{ts-sv-api-institution-url}}"
							],
							"path": [
								"sv",
								"accounttypes"
							],
							"query": [
								{
									"key": "id",
									"value": "{{ATGA.partialId2}}"
								},
								{
									"key": "name",
									"value": "{{ATGA.partialName3}}"
								}
							]
						}
					},
					"response": []
				},
				{
					"name": "ATGA1_DAT1: Delete AccountType1",
					"event": [
						{
							"listen": "test",
							"script": {
								"id": "ee62755b-9712-4ce7-ba0c-fcbfef5105ed",
								"exec": [
									"tests[\"Status code 200\"] = responseCode.code === 200;"
								],
								"type": "text/javascript"
							}
						}
					],
					"request": {
						"method": "DELETE",
						"header": [
							{
								"key": "INSTITUTION-ID",
								"value": "{{institution-id}}",
								"type": "text"
							}
						],
						"url": {
							"raw": "{{ts-sv-api-institution-url}}/sv/accounttypes/{{ATGA.accountTypeId1}}",
							"host": [
								"{{ts-sv-api-institution-url}}"
							],
							"path": [
								"sv",
								"accounttypes",
								"{{ATGA.accountTypeId1}}"
							]
						}
					},
					"response": []
				},
				{
					"name": "ATGA1_DAT2: Delete AccountType2",
					"event": [
						{
							"listen": "test",
							"script": {
								"id": "ee62755b-9712-4ce7-ba0c-fcbfef5105ed",
								"exec": [
									"tests[\"Status code 200\"] = responseCode.code === 200;"
								],
								"type": "text/javascript"
							}
						}
					],
					"request": {
						"method": "DELETE",
						"header": [
							{
								"key": "INSTITUTION-ID",
								"type": "text",
								"value": "{{institution-id}}"
							}
						],
						"url": {
							"raw": "{{ts-sv-api-institution-url}}/sv/accounttypes/{{ATGA.accountTypeId2}}",
							"host": [
								"{{ts-sv-api-institution-url}}"
							],
							"path": [
								"sv",
								"accounttypes",
								"{{ATGA.accountTypeId2}}"
							]
						}
					},
					"response": []
				},
				{
					"name": "ATGA1_DAT3: Delete AccountType3",
					"event": [
						{
							"listen": "test",
							"script": {
								"id": "ee62755b-9712-4ce7-ba0c-fcbfef5105ed",
								"exec": [
									"tests[\"Status code 200\"] = responseCode.code === 200;"
								],
								"type": "text/javascript"
							}
						}
					],
					"request": {
						"method": "DELETE",
						"header": [
							{
								"key": "INSTITUTION-ID",
								"type": "text",
								"value": "{{institution-id}}"
							}
						],
						"url": {
							"raw": "{{ts-sv-api-institution-url}}/sv/accounttypes/{{ATGA.accountTypeId3}}",
							"host": [
								"{{ts-sv-api-institution-url}}"
							],
							"path": [
								"sv",
								"accounttypes",
								"{{ATGA.accountTypeId3}}"
							]
						}
					},
					"response": []
				},
				{
					"name": "ATGA1_CLEANUP: Clean Up Environment",
					"event": [
						{
							"listen": "test",
							"script": {
								"id": "8f618265-30e0-4ff8-a7dd-a1c96a42570f",
								"exec": [
									"pm.test(\"Response status code \" + pm.response.code, function() {",
									"\tpm.response.to.have.status(200)",
									"});",
									"",
									"pm.environment.unset(\"ATGA.institutionId\");",
									"pm.environment.unset(\"ATGA.accountTypeName1\");",
									"pm.environment.unset(\"ATGA.accountTypeName2\");",
									"pm.environment.unset(\"ATGA.accountTypeName3\");",
									"pm.environment.unset(\"ATGA.currencyCodeNumeric\");",
									"pm.environment.unset(\"ATGA.accountTypeId1\");",
									"pm.environment.unset(\"ATGA.accountTypeId2\");",
									"pm.environment.unset(\"ATGA.accountTypeId3\");",
									"pm.environment.unset(\"ATGA.partialName1\");",
									"pm.environment.unset(\"ATGA.partialName2\");",
									"pm.environment.unset(\"ATGA.partialName3\");",
									"pm.environment.unset(\"ATGA.partialId1\");",
									"pm.environment.unset(\"ATGA.partialId2\");",
									"pm.globals.unset(\"ATGA.AccountTypeValidator\");"
								],
								"type": "text/javascript"
							}
						}
					],
					"request": {
						"method": "GET",
						"header": [],
						"url": {
							"raw": "{{ts-sv-api-institution-url}}/actuator/info",
							"host": [
								"{{ts-sv-api-institution-url}}"
							],
							"path": [
								"actuator",
								"info"
							]
						}
					},
					"response": []
				}
			],
			"protocolProfileBehavior": {}
		}
	],
	"protocolProfileBehavior": {}
}