{
	"info": {
		"_postman_id": "1034cfdc-8d68-43ab-b92a-66ff0c7de56e",
		"name": "ts-sv-api-institution",
		"schema": "https://schema.getpostman.com/json/collection/v2.1.0/collection.json"
	},
	"item": [
		{
			"name": "Institution POST/GET/DELETE",
			"item": [
				{
					"name": "I1_1:POST new Institution",
					"event": [
						{
							"listen": "test",
							"script": {
								"id": "3cb5171c-ac50-4307-844a-c1699687db90",
								"exec": [
									"pm.test(\"Status code 201\", () => {",
									"\tpm.response.to.have.status(201)",
									"});",
									"var env = pm.environment",
									"var jsonData = JSON.parse(responseBody);",
									"",
									"pm.environment.set(\"institution-id\", jsonData.id);",
									"",
									"pm.test(\"Institution ID is Present\", () => {",
									"\tpm.expect(jsonData.id).to.exist;",
									"});",
									"pm.test(\"Institution Name is Correct\", () => {",
									"\tpm.expect(env.get(\"institution-name\")).to.eql(jsonData.name);",
									"});",
									"pm.test(\"Default Tender Rule is Correct\", () => {",
									"\tpm.expect(jsonData.defaultTenderRuleId).to.not.exist;",
									"});",
									"pm.test(\"Iso Fund Account Type is Correct\", () => {",
									"\tpm.expect(jsonData.iso8583FundAccountType).to.not.exist;",
									"});"
								],
								"type": "text/javascript"
							}
						},
						{
							"listen": "prerequest",
							"script": {
								"id": "6d7aa0a4-9c62-45b0-878f-70f243df95d6",
								"exec": [
									"var uuid = require('uuid'); ",
									"pm.environment.set(\"institution-name\", uuid.v4());"
								],
								"type": "text/javascript"
							}
						}
					],
					"request": {
						"method": "POST",
						"header": [
							{
								"key": "Content-Type",
								"name": "Content-Type",
								"value": "application/json",
								"type": "text"
							}
						],
						"body": {
							"mode": "raw",
							"raw": "{\n    \"name\": \"{{institution-name}}\"\n}"
						},
						"url": {
							"raw": "{{ts-sv-api-institution-url}}/sv/institutions",
							"host": [
								"{{ts-sv-api-institution-url}}"
							],
							"path": [
								"sv",
								"institutions"
							]
						}
					},
					"response": []
				},
				{
					"name": "I1_10:GET Institution",
					"event": [
						{
							"listen": "test",
							"script": {
								"id": "e1dead1a-098d-4188-9b55-69f0e811478f",
								"exec": [
									"pm.test(\"Status code 200\", () => {",
									"\tpm.response.to.have.status(200)",
									"});",
									"var env = pm.environment",
									"var jsonData = JSON.parse(responseBody);",
									"",
									"pm.environment.set(\"institution-id\", jsonData.id);",
									"",
									"pm.test(\"Institution ID is Present\", () => {",
									"\tpm.expect(jsonData.id).to.exist;",
									"});",
									"pm.test(\"Institution Name is Correct\", () => {",
									"\tpm.expect(env.get(\"institution-name\")).to.eql(jsonData.name);",
									"});",
									"pm.test(\"Default Tender Rule is Correct\", () => {",
									"\tpm.expect(jsonData.defaultTenderRuleId).to.not.exist;",
									"});",
									"pm.test(\"Iso Fund Account Type is Correct\", () => {",
									"\tpm.expect(jsonData.iso8583FundAccountType).to.not.exist;",
									"});"
								],
								"type": "text/javascript"
							}
						}
					],
					"request": {
						"method": "GET",
						"header": [
							{
								"key": "Content-Type",
								"name": "Content-Type",
								"type": "text",
								"value": "application/json"
							}
						],
						"url": {
							"raw": "{{ts-sv-api-institution-url}}/sv/institutions/{{institution-id}}",
							"host": [
								"{{ts-sv-api-institution-url}}"
							],
							"path": [
								"sv",
								"institutions",
								"{{institution-id}}"
							]
						}
					},
					"response": []
				},
				{
					"name": "I1_20:POST new Account Type 1",
					"event": [
						{
							"listen": "test",
							"script": {
								"id": "938fe757-1e53-4acb-b522-f06600de3eb6",
								"exec": [
									"tests[\"Status code 201\"] = responseCode.code === 201;",
									"var env = pm.environment",
									"var jsonData = JSON.parse(responseBody);",
									"var accountTypeName = jsonData.name;",
									"var institutionId = jsonData.institutionId;",
									"",
									"env.set(\"accountTypeId1\", jsonData.id);"
								],
								"type": "text/javascript"
							}
						}
					],
					"request": {
						"method": "POST",
						"header": [
							{
								"key": "Content-Type",
								"name": "Content-Type",
								"type": "text",
								"value": "application/json"
							},
							{
								"key": "INSTITUTION-ID",
								"type": "text",
								"value": "{{institution-id}}"
							}
						],
						"body": {
							"mode": "raw",
							"raw": "{\n    \"name\": \"{{accountTypeName1}}\",\n    \"currencyCodeNumeric\": \"{{currencyCodeNumeric}}\"\n}"
						},
						"url": {
							"raw": "{{ts-sv-api-institution-url}}/sv/accounttypes",
							"host": [
								"{{ts-sv-api-institution-url}}"
							],
							"path": [
								"sv",
								"accounttypes"
							]
						}
					},
					"response": []
				},
				{
					"name": "I1_20:POST Tender Rule 1",
					"event": [
						{
							"listen": "test",
							"script": {
								"id": "938fe757-1e53-4acb-b522-f06600de3eb6",
								"exec": [
									"tests[\"Status code 201\"] = responseCode.code === 201;",
									"var env = pm.environment",
									"var jsonData = JSON.parse(responseBody);",
									"",
									"pm.environment.set(\"TR001_tenderRuleId\", jsonData.id);"
								],
								"type": "text/javascript"
							}
						},
						{
							"listen": "prerequest",
							"script": {
								"id": "341d42cd-031e-4788-86d5-0b5387169d6c",
								"exec": [
									""
								],
								"type": "text/javascript"
							}
						}
					],
					"request": {
						"method": "POST",
						"header": [
							{
								"key": "Content-Type",
								"name": "Content-Type",
								"type": "text",
								"value": "application/json"
							},
							{
								"key": "INSTITUTION-ID",
								"type": "text",
								"value": "{{institution-id}}"
							}
						],
						"body": {
							"mode": "raw",
							"raw": "{\n\t\"name\" : \"{{tenderRuleName}}\",\n\t\"accountsDrainOrder\" : [\n\t\t{\n\t\t\t\"accountTypeId\": \"{{accountTypeId1}}\",\n\t\t\t\"accountTypeRules\": {\n\t\t\t\t\"maxAmount\": 50\n\t\t\t}\n\t\t}\n\t]\n}\n\t"
						},
						"url": {
							"raw": "{{ts-sv-api-institution-url}}/sv/tenderrules",
							"host": [
								"{{ts-sv-api-institution-url}}"
							],
							"path": [
								"sv",
								"tenderrules"
							]
						}
					},
					"response": []
				},
				{
					"name": "I1_30:PUT Institution with New Fields",
					"event": [
						{
							"listen": "test",
							"script": {
								"id": "e1dead1a-098d-4188-9b55-69f0e811478f",
								"exec": [
									"pm.test(\"Status code 200\", () => {",
									"\tpm.response.to.have.status(200)",
									"});",
									"var env = pm.environment",
									"var jsonData = JSON.parse(responseBody);",
									"",
									"pm.environment.set(\"institution-id\", jsonData.id);",
									"",
									"pm.test(\"Institution ID is Present\", () => {",
									"\tpm.expect(jsonData.id).to.exist;",
									"});",
									"pm.test(\"Institution Name is Correct\", () => {",
									"\tpm.expect(env.get(\"institution-name\")).to.eql(jsonData.name);",
									"});",
									"pm.test(\"Default Tender Rule is Correct\", () => {",
									"\tpm.expect(pm.environment.get(\"TR001_tenderRuleId\")).to.eql(jsonData.defaultTenderRuleId);",
									"});",
									"pm.test(\"Iso Fund Account Type is Correct\", () => {",
									"\tpm.expect(pm.environment.get(\"accountTypeId1\")).to.eql(jsonData.iso8583FundAccountType);",
									"});"
								],
								"type": "text/javascript"
							}
						}
					],
					"request": {
						"method": "PUT",
						"header": [
							{
								"key": "Content-Type",
								"name": "Content-Type",
								"type": "text",
								"value": "application/json"
							}
						],
						"body": {
							"mode": "raw",
							"raw": "{\n    \"defaultTenderRuleId\": \"{{TR001_tenderRuleId}}\",\n    \"iso8583FundAccountType\": \"{{accountTypeId1}}\"\n}"
						},
						"url": {
							"raw": "{{ts-sv-api-institution-url}}/sv/institutions/{{institution-id}}",
							"host": [
								"{{ts-sv-api-institution-url}}"
							],
							"path": [
								"sv",
								"institutions",
								"{{institution-id}}"
							]
						}
					},
					"response": []
				},
				{
					"name": "I1_30:GET Institution After Update",
					"event": [
						{
							"listen": "test",
							"script": {
								"id": "e1dead1a-098d-4188-9b55-69f0e811478f",
								"exec": [
									"pm.test(\"Status code 200\", () => {",
									"\tpm.response.to.have.status(200)",
									"});",
									"var env = pm.environment",
									"var jsonData = JSON.parse(responseBody);",
									"",
									"pm.environment.set(\"institution-id\", jsonData.id);",
									"",
									"pm.test(\"Institution ID is Present\", () => {",
									"\tpm.expect(jsonData.id).to.exist;",
									"});",
									"pm.test(\"Institution Name is Correct\", () => {",
									"\tpm.expect(env.get(\"institution-name\")).to.eql(jsonData.name);",
									"});",
									"pm.test(\"Default Tender Rule is Correct\", () => {",
									"\tpm.expect(pm.environment.get(\"TR001_tenderRuleId\")).to.eql(jsonData.defaultTenderRuleId);",
									"});",
									"pm.test(\"Iso Fund Account Type is Correct\", () => {",
									"\tpm.expect(pm.environment.get(\"accountTypeId1\")).to.eql(jsonData.iso8583FundAccountType);",
									"});"
								],
								"type": "text/javascript"
							}
						}
					],
					"request": {
						"method": "GET",
						"header": [
							{
								"key": "Content-Type",
								"name": "Content-Type",
								"type": "text",
								"value": "application/json"
							}
						],
						"url": {
							"raw": "{{ts-sv-api-institution-url}}/sv/institutions/{{institution-id}}",
							"host": [
								"{{ts-sv-api-institution-url}}"
							],
							"path": [
								"sv",
								"institutions",
								"{{institution-id}}"
							]
						}
					},
					"response": []
				},
				{
					"name": "I1_END:DELETE Institution",
					"event": [
						{
							"listen": "test",
							"script": {
								"id": "e1dead1a-098d-4188-9b55-69f0e811478f",
								"exec": [
									"tests[\"Status code 200\"] = responseCode.code === 200;"
								],
								"type": "text/javascript"
							}
						}
					],
					"request": {
						"method": "DELETE",
						"header": [
							{
								"key": "Content-Type",
								"name": "Content-Type",
								"type": "text",
								"value": "application/json"
							}
						],
						"url": {
							"raw": "{{ts-sv-api-institution-url}}/sv/institutions/{{institution-id}}",
							"host": [
								"{{ts-sv-api-institution-url}}"
							],
							"path": [
								"sv",
								"institutions",
								"{{institution-id}}"
							]
						}
					},
					"response": []
				}
			],
			"protocolProfileBehavior": {}
		},
		{
			"name": "Institution Errors",
			"item": [
				{
					"name": "Unique Institution Name",
					"item": [
						{
							"name": "I2_1:POST new Institution",
							"event": [
								{
									"listen": "prerequest",
									"script": {
										"id": "07abbd13-4c1f-4a14-bc6e-5ddf179582a6",
										"exec": [
											"var uuid = require('uuid'); ",
											"pm.environment.set(\"institution-name\", uuid.v4());"
										],
										"type": "text/javascript"
									}
								},
								{
									"listen": "test",
									"script": {
										"id": "66369ac8-244d-413c-bdec-c855f9d3b274",
										"exec": [
											"tests[\"Status code 201\"] = responseCode.code === 201;",
											"var env = pm.environment",
											"var jsonData = JSON.parse(responseBody);",
											"",
											"pm.environment.set(\"institution-id\", jsonData.id);",
											"",
											"tests[\"Institution ID is Generated\"] = jsonData.id != null",
											"tests[\"Institution Name is Correct\"] = jsonData.name == env.get(\"institution-name\")"
										],
										"type": "text/javascript"
									}
								}
							],
							"request": {
								"method": "POST",
								"header": [
									{
										"key": "Content-Type",
										"name": "Content-Type",
										"value": "application/json",
										"type": "text"
									}
								],
								"body": {
									"mode": "raw",
									"raw": "{\n    \"name\": \"{{institution-name}}\"\n}"
								},
								"url": {
									"raw": "{{ts-sv-api-institution-url}}/sv/institutions",
									"host": [
										"{{ts-sv-api-institution-url}}"
									],
									"path": [
										"sv",
										"institutions"
									]
								}
							},
							"response": []
						},
						{
							"name": "I2_10:POST same Institution Name",
							"event": [
								{
									"listen": "test",
									"script": {
										"id": "3cb5171c-ac50-4307-844a-c1699687db90",
										"exec": [
											"tests[\"Status code 409\"] = responseCode.code === 409;",
											"var env = pm.environment",
											"var jsonData = JSON.parse(responseBody);",
											"",
											"tests[\"Institution Creation Failed\"] = jsonData.result == \"ERROR\"",
											"tests[\"Unique Constraint Message Returned\"] = jsonData.errors[0].errorMessage == \"Unique Constraint Violation Occurred\"",
											"var expected = \"Institution with name \" + env.get(\"institution-name\") + \" already exists\"",
											"tests[\"Existing name returned in message \" + expected] = jsonData.errors[0].moreInfo == expected"
										],
										"type": "text/javascript"
									}
								}
							],
							"request": {
								"method": "POST",
								"header": [
									{
										"key": "Content-Type",
										"name": "Content-Type",
										"type": "text",
										"value": "application/json"
									}
								],
								"body": {
									"mode": "raw",
									"raw": "{\n    \"name\": \"{{institution-name}}\"\n}"
								},
								"url": {
									"raw": "{{ts-sv-api-institution-url}}/sv/institutions",
									"host": [
										"{{ts-sv-api-institution-url}}"
									],
									"path": [
										"sv",
										"institutions"
									]
								}
							},
							"response": []
						},
						{
							"name": "I2_20:DELETE Institution",
							"event": [
								{
									"listen": "test",
									"script": {
										"id": "e1dead1a-098d-4188-9b55-69f0e811478f",
										"exec": [
											"tests[\"Status code 200\"] = responseCode.code === 200;"
										],
										"type": "text/javascript"
									}
								}
							],
							"request": {
								"method": "DELETE",
								"header": [
									{
										"key": "Content-Type",
										"name": "Content-Type",
										"type": "text",
										"value": "application/json"
									}
								],
								"url": {
									"raw": "{{ts-sv-api-institution-url}}/sv/institutions/{{institution-id}}",
									"host": [
										"{{ts-sv-api-institution-url}}"
									],
									"path": [
										"sv",
										"institutions",
										"{{institution-id}}"
									]
								}
							},
							"response": []
						}
					],
					"protocolProfileBehavior": {},
					"_postman_isSubFolder": true
				},
				{
					"name": "Institution Not Found",
					"item": [
						{
							"name": "I3_10:GET Nonexistant Institution",
							"event": [
								{
									"listen": "test",
									"script": {
										"id": "e1dead1a-098d-4188-9b55-69f0e811478f",
										"exec": [
											"tests[\"Status code 404\"] = responseCode.code === 404;",
											"var env = pm.environment",
											"var jsonData = JSON.parse(responseBody);",
											"",
											"tests[\"Institution Retrieval Failed\"] = jsonData.result == \"ERROR\"",
											"tests[\"Not Found Message Returned\"] = jsonData.errors[0].errorMessage == \"Resource Not Found Exception Occurred\"",
											"tests[\"Invalid ID returned in message\"] = jsonData.errors[0].moreInfo == \"Institution not found with ID: \" + env.get(\"institution-id\")"
										],
										"type": "text/javascript"
									}
								}
							],
							"request": {
								"method": "GET",
								"header": [
									{
										"key": "Content-Type",
										"name": "Content-Type",
										"type": "text",
										"value": "application/json"
									}
								],
								"url": {
									"raw": "{{ts-sv-api-institution-url}}/sv/institutions/{{institution-id}}",
									"host": [
										"{{ts-sv-api-institution-url}}"
									],
									"path": [
										"sv",
										"institutions",
										"{{institution-id}}"
									]
								}
							},
							"response": []
						},
						{
							"name": "I3_15:PUT Institution with New Fields",
							"event": [
								{
									"listen": "test",
									"script": {
										"id": "e1dead1a-098d-4188-9b55-69f0e811478f",
										"exec": [
											"pm.test(\"Status code 404\", () => {",
											"\tpm.response.to.have.status(404)",
											"});",
											"var env = pm.environment",
											"var jsonData = JSON.parse(responseBody);",
											"",
											"pm.test(\"Institution Retrieval Failed\", () => {",
											"\tpm.expect(\"ERROR\").to.eql(jsonData.result);",
											"});",
											"pm.test(\"Not Found Message Returned\", () => {",
											"\tpm.expect(\"Resource Not Found Exception Occurred\").to.eql(jsonData.errors[0].errorMessage);",
											"});",
											"pm.test(\"Invalid ID returned in message\", () => {",
											"\tpm.expect(\"Institution not found with ID: \" + env.get(\"institution-id\")).to.eql(jsonData.errors[0].moreInfo);",
											"});"
										],
										"type": "text/javascript"
									}
								}
							],
							"request": {
								"method": "PUT",
								"header": [
									{
										"key": "Content-Type",
										"name": "Content-Type",
										"type": "text",
										"value": "application/json"
									}
								],
								"body": {
									"mode": "raw",
									"raw": "{\n    \"defaultTenderRuleId\": \"{{TR001_tenderRuleId}}\",\n    \"iso8583FundAccountType\": \"{{accountTypeId1}}\"\n}"
								},
								"url": {
									"raw": "{{ts-sv-api-institution-url}}/sv/institutions/{{institution-id}}",
									"host": [
										"{{ts-sv-api-institution-url}}"
									],
									"path": [
										"sv",
										"institutions",
										"{{institution-id}}"
									]
								}
							},
							"response": []
						},
						{
							"name": "I3_20:DELETE Nonexistant Institution",
							"event": [
								{
									"listen": "test",
									"script": {
										"id": "e1dead1a-098d-4188-9b55-69f0e811478f",
										"exec": [
											"tests[\"Status code 404\"] = responseCode.code === 404;",
											"var env = pm.environment",
											"var jsonData = JSON.parse(responseBody);",
											"",
											"tests[\"Institution Retrieval Failed\"] = jsonData.result == \"ERROR\"",
											"tests[\"Not Found Message Returned\"] = jsonData.errors[0].errorMessage == \"Resource Not Found Exception Occurred\"",
											"tests[\"Invalid ID returned in message\"] = jsonData.errors[0].moreInfo == \"Institution not found with ID: \" + env.get(\"institution-id\")"
										],
										"type": "text/javascript"
									}
								}
							],
							"request": {
								"method": "DELETE",
								"header": [
									{
										"key": "Content-Type",
										"name": "Content-Type",
										"type": "text",
										"value": "application/json"
									}
								],
								"url": {
									"raw": "{{ts-sv-api-institution-url}}/sv/institutions/{{institution-id}}",
									"host": [
										"{{ts-sv-api-institution-url}}"
									],
									"path": [
										"sv",
										"institutions",
										"{{institution-id}}"
									]
								}
							},
							"response": []
						}
					],
					"protocolProfileBehavior": {},
					"_postman_isSubFolder": true
				},
				{
					"name": "Put Not Found Tests",
					"item": [
						{
							"name": "I4_1:POST new Institution",
							"event": [
								{
									"listen": "test",
									"script": {
										"id": "3cb5171c-ac50-4307-844a-c1699687db90",
										"exec": [
											"pm.test(\"Status code 201\", () => {",
											"\tpm.response.to.have.status(201)",
											"});",
											"var env = pm.environment",
											"var jsonData = JSON.parse(responseBody);",
											"",
											"pm.environment.set(\"institution-id\", jsonData.id);",
											"",
											"pm.test(\"Institution ID is Present\", () => {",
											"\tpm.expect(jsonData.id).to.exist;",
											"});",
											"pm.test(\"Institution Name is Correct\", () => {",
											"\tpm.expect(env.get(\"institution-name\")).to.eql(jsonData.name);",
											"});",
											"pm.test(\"Default Tender Rule is Correct\", () => {",
											"\tpm.expect(jsonData.defaultTenderRuleId).to.not.exist;",
											"});",
											"pm.test(\"Iso Fund Account Type is Correct\", () => {",
											"\tpm.expect(jsonData.iso8583FundAccountType).to.not.exist;",
											"});"
										],
										"type": "text/javascript"
									}
								},
								{
									"listen": "prerequest",
									"script": {
										"id": "6d7aa0a4-9c62-45b0-878f-70f243df95d6",
										"exec": [
											"var uuid = require('uuid'); ",
											"pm.environment.set(\"institution-name\", uuid.v4());"
										],
										"type": "text/javascript"
									}
								}
							],
							"request": {
								"method": "POST",
								"header": [
									{
										"key": "Content-Type",
										"name": "Content-Type",
										"value": "application/json",
										"type": "text"
									}
								],
								"body": {
									"mode": "raw",
									"raw": "{\n    \"name\": \"{{institution-name}}\"\n}"
								},
								"url": {
									"raw": "{{ts-sv-api-institution-url}}/sv/institutions",
									"host": [
										"{{ts-sv-api-institution-url}}"
									],
									"path": [
										"sv",
										"institutions"
									]
								}
							},
							"response": []
						},
						{
							"name": "I4_2:POST new Account Type 1",
							"event": [
								{
									"listen": "test",
									"script": {
										"id": "938fe757-1e53-4acb-b522-f06600de3eb6",
										"exec": [
											"pm.test(\"Status code 201\", () => {",
											"\tpm.response.to.have.status(201)",
											"});",
											"var jsonData = JSON.parse(responseBody);",
											"",
											"pm.environment.set(\"accountTypeId1\", jsonData.id);"
										],
										"type": "text/javascript"
									}
								}
							],
							"request": {
								"method": "POST",
								"header": [
									{
										"key": "Content-Type",
										"name": "Content-Type",
										"type": "text",
										"value": "application/json"
									},
									{
										"key": "INSTITUTION-ID",
										"type": "text",
										"value": "{{institution-id}}"
									}
								],
								"body": {
									"mode": "raw",
									"raw": "{\n    \"name\": \"{{accountTypeName1}}\",\n    \"currencyCodeNumeric\": \"{{currencyCodeNumeric}}\"\n}"
								},
								"url": {
									"raw": "{{ts-sv-api-institution-url}}/sv/accounttypes",
									"host": [
										"{{ts-sv-api-institution-url}}"
									],
									"path": [
										"sv",
										"accounttypes"
									]
								}
							},
							"response": []
						},
						{
							"name": "I4_3:PUT Institution with No TenderRule",
							"event": [
								{
									"listen": "test",
									"script": {
										"id": "e1dead1a-098d-4188-9b55-69f0e811478f",
										"exec": [
											"pm.test(\"Status code 404\", () => {",
											"\tpm.response.to.have.status(404)",
											"});",
											"var env = pm.environment",
											"var jsonData = JSON.parse(responseBody);",
											"",
											"pm.test(\"Institution Retrieval Failed\", () => {",
											"\tpm.expect(\"ERROR\").to.eql(jsonData.result);",
											"});",
											"pm.test(\"Not Found Message Returned\", () => {",
											"\tpm.expect(\"Resource Not Found Exception Occurred\").to.eql(jsonData.errors[0].errorMessage);",
											"});",
											"pm.test(\"Invalid ID returned in message\", () => {",
											"\tpm.expect(\"TenderRule not found with ID: \" + env.get(\"TR001_tenderRuleId\")).to.eql(jsonData.errors[0].moreInfo);",
											"});"
										],
										"type": "text/javascript"
									}
								}
							],
							"request": {
								"method": "PUT",
								"header": [
									{
										"key": "Content-Type",
										"name": "Content-Type",
										"type": "text",
										"value": "application/json"
									}
								],
								"body": {
									"mode": "raw",
									"raw": "{\n    \"defaultTenderRuleId\": \"{{TR001_tenderRuleId}}\",\n    \"iso8583FundAccountType\": \"{{accountTypeId1}}\"\n}"
								},
								"url": {
									"raw": "{{ts-sv-api-institution-url}}/sv/institutions/{{institution-id}}",
									"host": [
										"{{ts-sv-api-institution-url}}"
									],
									"path": [
										"sv",
										"institutions",
										"{{institution-id}}"
									]
								}
							},
							"response": []
						},
						{
							"name": "I4_4:DELETE new Account Type 1",
							"event": [
								{
									"listen": "test",
									"script": {
										"id": "938fe757-1e53-4acb-b522-f06600de3eb6",
										"exec": [
											"pm.test(\"Status code 200\", () => {",
											"\tpm.response.to.have.status(200)",
											"});"
										],
										"type": "text/javascript"
									}
								}
							],
							"request": {
								"method": "DELETE",
								"header": [
									{
										"key": "Content-Type",
										"name": "Content-Type",
										"type": "text",
										"value": "application/json"
									},
									{
										"key": "INSTITUTION-ID",
										"type": "text",
										"value": "{{institution-id}}"
									}
								],
								"url": {
									"raw": "{{ts-sv-api-institution-url}}/sv/accounttypes/{{accountTypeId1}}",
									"host": [
										"{{ts-sv-api-institution-url}}"
									],
									"path": [
										"sv",
										"accounttypes",
										"{{accountTypeId1}}"
									]
								}
							},
							"response": []
						},
						{
							"name": "I4_4:POST Tender Rule 1",
							"event": [
								{
									"listen": "test",
									"script": {
										"id": "938fe757-1e53-4acb-b522-f06600de3eb6",
										"exec": [
											"pm.test(\"Status code 201\", () => {",
											"\tpm.response.to.have.status(201)",
											"});",
											"var jsonData = JSON.parse(responseBody);",
											"",
											"pm.environment.set(\"TR001_tenderRuleId\", jsonData.id);"
										],
										"type": "text/javascript"
									}
								},
								{
									"listen": "prerequest",
									"script": {
										"id": "341d42cd-031e-4788-86d5-0b5387169d6c",
										"exec": [
											""
										],
										"type": "text/javascript"
									}
								}
							],
							"request": {
								"method": "POST",
								"header": [
									{
										"key": "Content-Type",
										"name": "Content-Type",
										"type": "text",
										"value": "application/json"
									},
									{
										"key": "INSTITUTION-ID",
										"type": "text",
										"value": "{{institution-id}}"
									}
								],
								"body": {
									"mode": "raw",
									"raw": "{\n\t\"name\" : \"{{tenderRuleName}}\",\n\t\"accountsDrainOrder\" : [\n\t\t{\n\t\t\t\"accountTypeId\": \"{{accountTypeId1}}\",\n\t\t\t\"accountTypeRules\": {\n\t\t\t\t\"maxAmount\": 50\n\t\t\t}\n\t\t}\n\t]\n}\n\t"
								},
								"url": {
									"raw": "{{ts-sv-api-institution-url}}/sv/tenderrules",
									"host": [
										"{{ts-sv-api-institution-url}}"
									],
									"path": [
										"sv",
										"tenderrules"
									]
								}
							},
							"response": []
						},
						{
							"name": "I4_5:PUT Institution with No AccountType",
							"event": [
								{
									"listen": "test",
									"script": {
										"id": "e1dead1a-098d-4188-9b55-69f0e811478f",
										"exec": [
											"pm.test(\"Status code 404\", () => {",
											"\tpm.response.to.have.status(404)",
											"});",
											"var env = pm.environment",
											"var jsonData = JSON.parse(responseBody);",
											"",
											"pm.test(\"Institution Retrieval Failed\", () => {",
											"\tpm.expect(\"ERROR\").to.eql(jsonData.result);",
											"});",
											"pm.test(\"Not Found Message Returned\", () => {",
											"\tpm.expect(\"Resource Not Found Exception Occurred\").to.eql(jsonData.errors[0].errorMessage);",
											"});",
											"pm.test(\"Invalid ID returned in message\", () => {",
											"\tpm.expect(\"AccountType not found with ID: \" + env.get(\"accountTypeId1\")).to.eql(jsonData.errors[0].moreInfo);",
											"});"
										],
										"type": "text/javascript"
									}
								}
							],
							"request": {
								"method": "PUT",
								"header": [
									{
										"key": "Content-Type",
										"name": "Content-Type",
										"type": "text",
										"value": "application/json"
									}
								],
								"body": {
									"mode": "raw",
									"raw": "{\n    \"defaultTenderRuleId\": \"{{TR001_tenderRuleId}}\",\n    \"iso8583FundAccountType\": \"{{accountTypeId1}}\"\n}"
								},
								"url": {
									"raw": "{{ts-sv-api-institution-url}}/sv/institutions/{{institution-id}}",
									"host": [
										"{{ts-sv-api-institution-url}}"
									],
									"path": [
										"sv",
										"institutions",
										"{{institution-id}}"
									]
								}
							},
							"response": []
						},
						{
							"name": "I4_END:DELETE Institution",
							"event": [
								{
									"listen": "test",
									"script": {
										"id": "e1dead1a-098d-4188-9b55-69f0e811478f",
										"exec": [
											"tests[\"Status code 200\"] = responseCode.code === 200;"
										],
										"type": "text/javascript"
									}
								}
							],
							"request": {
								"method": "DELETE",
								"header": [
									{
										"key": "Content-Type",
										"name": "Content-Type",
										"type": "text",
										"value": "application/json"
									}
								],
								"url": {
									"raw": "{{ts-sv-api-institution-url}}/sv/institutions/{{institution-id}}",
									"host": [
										"{{ts-sv-api-institution-url}}"
									],
									"path": [
										"sv",
										"institutions",
										"{{institution-id}}"
									]
								}
							},
							"response": []
						}
					],
					"protocolProfileBehavior": {},
					"_postman_isSubFolder": true
				}
			],
			"protocolProfileBehavior": {}
		},
		{
			"name": "Cascade Insitution Delete",
			"item": [
				{
					"name": "I3_1:POST new Institution",
					"event": [
						{
							"listen": "test",
							"script": {
								"id": "3cb5171c-ac50-4307-844a-c1699687db90",
								"exec": [
									"tests[\"Status code 201\"] = responseCode.code === 201;",
									"var env = pm.environment",
									"var jsonData = JSON.parse(responseBody);",
									"",
									"env.set(\"institution-id\", jsonData.id);",
									"",
									"tests[\"Institution ID is Generated\"] = jsonData.id != null",
									"tests[\"Institution Name is Correct\"] = jsonData.name == env.get(\"institution-name\")"
								],
								"type": "text/javascript"
							}
						},
						{
							"listen": "prerequest",
							"script": {
								"id": "6d7aa0a4-9c62-45b0-878f-70f243df95d6",
								"exec": [
									"var uuid = require('uuid'); ",
									"pm.environment.set(\"institution-name\", uuid.v4());"
								],
								"type": "text/javascript"
							}
						}
					],
					"request": {
						"method": "POST",
						"header": [
							{
								"key": "Content-Type",
								"name": "Content-Type",
								"value": "application/json",
								"type": "text"
							}
						],
						"body": {
							"mode": "raw",
							"raw": "{\n    \"name\": \"{{institution-name}}\"\n}"
						},
						"url": {
							"raw": "{{ts-sv-api-institution-url}}/sv/institutions",
							"host": [
								"{{ts-sv-api-institution-url}}"
							],
							"path": [
								"sv",
								"institutions"
							]
						}
					},
					"response": []
				},
				{
					"name": "I3_2:POST new Account Type 1",
					"event": [
						{
							"listen": "test",
							"script": {
								"id": "938fe757-1e53-4acb-b522-f06600de3eb6",
								"exec": [
									"tests[\"Status code 201\"] = responseCode.code === 201;",
									"var env = pm.environment",
									"var jsonData = JSON.parse(responseBody);",
									"var accountTypeName = jsonData.name;",
									"var institutionId = jsonData.institutionId;",
									"",
									"env.set(\"accountTypeId1\", jsonData.id);",
									"",
									"tests[\"accountTypeName is correct\"] = accountTypeName === env.get(\"accountTypeName1\");",
									"tests[\"institutionId is correct\"] = institutionId ===  env.get(\"institution-id\");"
								],
								"type": "text/javascript"
							}
						},
						{
							"listen": "prerequest",
							"script": {
								"id": "607b4d7a-1f4f-4447-9dd4-4aceb67882ea",
								"exec": [
									"var uuid = require('uuid'); ",
									"pm.environment.set(\"accountTypeName1\", uuid.v4());"
								],
								"type": "text/javascript"
							}
						}
					],
					"request": {
						"method": "POST",
						"header": [
							{
								"key": "Content-Type",
								"name": "Content-Type",
								"type": "text",
								"value": "application/json"
							},
							{
								"key": "INSTITUTION-ID",
								"type": "text",
								"value": "{{institution-id}}"
							}
						],
						"body": {
							"mode": "raw",
							"raw": "{\n    \"name\": \"{{accountTypeName1}}\",\n    \"currencyCodeNumeric\": \"{{currencyCodeNumeric}}\"\n}"
						},
						"url": {
							"raw": "{{ts-sv-api-institution-url}}/sv/accounttypes",
							"host": [
								"{{ts-sv-api-institution-url}}"
							],
							"path": [
								"sv",
								"accounttypes"
							]
						}
					},
					"response": []
				},
				{
					"name": "I3_2:POST new Account Type 2",
					"event": [
						{
							"listen": "test",
							"script": {
								"id": "938fe757-1e53-4acb-b522-f06600de3eb6",
								"exec": [
									"tests[\"Status code 201\"] = responseCode.code === 201;",
									"var env = pm.environment",
									"var jsonData = JSON.parse(responseBody);",
									"var accountTypeName = jsonData.name;",
									"var institutionId = jsonData.institutionId;",
									"",
									"env.set(\"accountTypeId2\", jsonData.id);",
									"",
									"tests[\"accountTypeName is correct\"] = accountTypeName ===  env.get(\"accountTypeName2\");",
									"tests[\"institutionId is correct\"] = institutionId ===  env.get(\"institution-id\");;"
								],
								"type": "text/javascript"
							}
						},
						{
							"listen": "prerequest",
							"script": {
								"id": "ec5d9500-a8b5-4c52-87f7-5c14cd71b86d",
								"exec": [
									"var uuid = require('uuid'); ",
									"pm.environment.set(\"accountTypeName2\", uuid.v4());"
								],
								"type": "text/javascript"
							}
						}
					],
					"request": {
						"method": "POST",
						"header": [
							{
								"key": "Content-Type",
								"name": "Content-Type",
								"type": "text",
								"value": "application/json"
							},
							{
								"key": "INSTITUTION-ID",
								"type": "text",
								"value": "{{institution-id}}"
							}
						],
						"body": {
							"mode": "raw",
							"raw": "{\n    \"name\": \"{{accountTypeName2}}\",\n    \"currencyCodeNumeric\": \"{{currencyCodeNumeric}}\"\n}"
						},
						"url": {
							"raw": "{{ts-sv-api-institution-url}}/sv/accounttypes",
							"host": [
								"{{ts-sv-api-institution-url}}"
							],
							"path": [
								"sv",
								"accounttypes"
							]
						}
					},
					"response": []
				},
				{
					"name": "I3_2:POST new Account Type 3",
					"event": [
						{
							"listen": "test",
							"script": {
								"id": "938fe757-1e53-4acb-b522-f06600de3eb6",
								"exec": [
									"tests[\"Status code 201\"] = responseCode.code === 201;",
									"var env = pm.environment",
									"var jsonData = JSON.parse(responseBody);",
									"var accountTypeName = jsonData.name;",
									"var institutionId = jsonData.institutionId;",
									"",
									"env.set(\"accountTypeId3\", jsonData.id);",
									"",
									"tests[\"accountTypeName is correct\"] = accountTypeName ===  env.get(\"accountTypeName3\");",
									"tests[\"institutionId is correct\"] = institutionId ===  env.get(\"institution-id\");;"
								],
								"type": "text/javascript"
							}
						},
						{
							"listen": "prerequest",
							"script": {
								"id": "83689bd5-c357-4f0d-a55e-47a2716b1122",
								"exec": [
									"var uuid = require('uuid'); ",
									"pm.environment.set(\"accountTypeName3\", \"uuid.v4()\");"
								],
								"type": "text/javascript"
							}
						}
					],
					"request": {
						"method": "POST",
						"header": [
							{
								"key": "Content-Type",
								"name": "Content-Type",
								"type": "text",
								"value": "application/json"
							},
							{
								"key": "INSTITUTION-ID",
								"type": "text",
								"value": "{{institution-id}}"
							}
						],
						"body": {
							"mode": "raw",
							"raw": "{\n    \"name\": \"{{accountTypeName3}}\",\n    \"currencyCodeNumeric\": \"{{currencyCodeNumeric}}\"\n}"
						},
						"url": {
							"raw": "{{ts-sv-api-institution-url}}/sv/accounttypes",
							"host": [
								"{{ts-sv-api-institution-url}}"
							],
							"path": [
								"sv",
								"accounttypes"
							]
						}
					},
					"response": []
				},
				{
					"name": "I3_3:POST Tender Rule 1",
					"event": [
						{
							"listen": "test",
							"script": {
								"id": "938fe757-1e53-4acb-b522-f06600de3eb6",
								"exec": [
									"tests[\"Status code 201\"] = responseCode.code === 201;",
									"var env = pm.environment",
									"var jsonData = JSON.parse(responseBody);",
									"",
									"pm.environment.set(\"TR001_tenderRuleId\", jsonData.id);",
									"",
									"tests[\"TenderRule ID is Generated\"] = jsonData.id !== null",
									"tests[\"TenderRule Name is Correct\"] = jsonData.name == env.get(\"tenderRuleName\")",
									"tests[\"TenderRule Institution ID is Correct\"] = jsonData.institutionId == env.get(\"institution-id\")",
									"tests[\"AccountType ID is Correct\"] = jsonData.accountsDrainOrder[0].accountTypeId == env.get(\"accountTypeId1\")",
									"tests[\"AccountTypeRules Max Amount is Correct\"] = jsonData.accountsDrainOrder[0].accountTypeRules.maxAmount = 50"
								],
								"type": "text/javascript"
							}
						},
						{
							"listen": "prerequest",
							"script": {
								"id": "341d42cd-031e-4788-86d5-0b5387169d6c",
								"exec": [
									"var uuid = require('uuid'); ",
									"pm.environment.set(\"tenderRuleName\", uuid.v4());"
								],
								"type": "text/javascript"
							}
						}
					],
					"request": {
						"method": "POST",
						"header": [
							{
								"key": "Content-Type",
								"name": "Content-Type",
								"type": "text",
								"value": "application/json"
							},
							{
								"key": "INSTITUTION-ID",
								"type": "text",
								"value": "{{institution-id}}"
							}
						],
						"body": {
							"mode": "raw",
							"raw": "{\n\t\"name\" : \"{{tenderRuleName}}\",\n\t\"accountsDrainOrder\" : [\n\t\t{\n\t\t\t\"accountTypeId\": \"{{accountTypeId1}}\",\n\t\t\t\"accountTypeRules\": {\n\t\t\t\t\"maxAmount\": 50\n\t\t\t}\n\t\t}\n\t]\n}\n\t"
						},
						"url": {
							"raw": "{{ts-sv-api-institution-url}}/sv/tenderrules",
							"host": [
								"{{ts-sv-api-institution-url}}"
							],
							"path": [
								"sv",
								"tenderrules"
							]
						}
					},
					"response": []
				},
				{
					"name": "I3_3:POST Tender Rule 2",
					"event": [
						{
							"listen": "test",
							"script": {
								"id": "938fe757-1e53-4acb-b522-f06600de3eb6",
								"exec": [
									"tests[\"Status code 201\"] = responseCode.code === 201;",
									"var env = pm.environment",
									"var jsonData = JSON.parse(responseBody);",
									"",
									"pm.environment.set(\"TR001_tenderRuleId2\", jsonData.id);",
									"",
									"tests[\"TenderRule ID is Generated\"] = jsonData.id !== null",
									"tests[\"TenderRule Name is Correct\"] = jsonData.name == env.get(\"tenderRuleName2\")",
									"tests[\"TenderRule Institution ID is Correct\"] = jsonData.institutionId == env.get(\"institution-id\")",
									"tests[\"AccountType ID is Correct\"] = jsonData.accountsDrainOrder[0].accountTypeId == env.get(\"accountTypeId2\")",
									"tests[\"AccountTypeRules Max Amount is Correct\"] = jsonData.accountsDrainOrder[0].accountTypeRules.maxAmount = 25"
								],
								"type": "text/javascript"
							}
						},
						{
							"listen": "prerequest",
							"script": {
								"id": "341d42cd-031e-4788-86d5-0b5387169d6c",
								"exec": [
									"var uuid = require('uuid'); ",
									"pm.environment.set(\"tenderRuleName2\", uuid.v4());"
								],
								"type": "text/javascript"
							}
						}
					],
					"request": {
						"method": "POST",
						"header": [
							{
								"key": "Content-Type",
								"name": "Content-Type",
								"type": "text",
								"value": "application/json"
							},
							{
								"key": "INSTITUTION-ID",
								"type": "text",
								"value": "{{institution-id}}"
							}
						],
						"body": {
							"mode": "raw",
							"raw": "{\n\t\"name\" : \"{{tenderRuleName2}}\",\n\t\"accountsDrainOrder\" : [\n\t\t{\n\t\t\t\"accountTypeId\": \"{{accountTypeId2}}\",\n\t\t\t\"accountTypeRules\": {\n\t\t\t\t\"maxAmount\": 25\n\t\t\t}\n\t\t}\n\t]\n}\n\t\n\t"
						},
						"url": {
							"raw": "{{ts-sv-api-institution-url}}/sv/tenderrules",
							"host": [
								"{{ts-sv-api-institution-url}}"
							],
							"path": [
								"sv",
								"tenderrules"
							]
						}
					},
					"response": []
				},
				{
					"name": "I3_3:POST new AccountHolder 1",
					"event": [
						{
							"listen": "test",
							"script": {
								"id": "fc9a40e1-dc02-4871-981e-fed1c4be22ee",
								"exec": [
									"tests[\"Status code 201\"] = responseCode.code === 201;",
									"var env = pm.environment",
									"var jsonData = JSON.parse(responseBody);",
									"",
									"env.set(\"accountholder-id\", jsonData.id);",
									"",
									"tests[\"Accountholder ID is Generated\"] = jsonData.id !== null",
									"tests[\"Accountholder Name is Correct\"] = jsonData.name == env.get(\"accountholder-name\")",
									"tests[\"Accountholder Active is True\"] = jsonData.active === true",
									"tests[\"Accountholder Institution ID is Correct\"] = jsonData.institutionId == env.get(\"institution-id\")"
								],
								"type": "text/javascript"
							}
						},
						{
							"listen": "prerequest",
							"script": {
								"id": "4f695e0d-51cf-4fde-9325-433220bdd5ba",
								"exec": [
									"var uuid = require('uuid'); ",
									"pm.environment.set(\"accountholder-name\", uuid.v4());"
								],
								"type": "text/javascript"
							}
						}
					],
					"request": {
						"method": "POST",
						"header": [
							{
								"key": "Content-Type",
								"name": "Content-Type",
								"type": "text",
								"value": "application/json"
							},
							{
								"key": "INSTITUTION-ID",
								"type": "text",
								"value": "{{institution-id}}"
							}
						],
						"body": {
							"mode": "raw",
							"raw": "{\n    \"name\": \"{{accountholder-name}}\",\n    \"active\": true\n}"
						},
						"url": {
							"raw": "{{ts-sv-api-institution-url}}/sv/accountholders",
							"host": [
								"{{ts-sv-api-institution-url}}"
							],
							"path": [
								"sv",
								"accountholders"
							]
						}
					},
					"response": []
				},
				{
					"name": "I3_3:POST new AccountHolder 2",
					"event": [
						{
							"listen": "test",
							"script": {
								"id": "fc9a40e1-dc02-4871-981e-fed1c4be22ee",
								"exec": [
									"tests[\"Status code 201\"] = responseCode.code === 201;",
									"var env = pm.environment",
									"var jsonData = JSON.parse(responseBody);",
									"",
									"env.set(\"accountholder-id2\", jsonData.id);",
									"",
									"tests[\"Accountholder ID is Generated\"] = jsonData.id !== null",
									"tests[\"Accountholder Name is Correct\"] = jsonData.name == env.get(\"accountholder-name2\")",
									"tests[\"Accountholder Active is True\"] = jsonData.active === true",
									"tests[\"Accountholder Institution ID is Correct\"] = jsonData.institutionId == env.get(\"institution-id\")"
								],
								"type": "text/javascript"
							}
						},
						{
							"listen": "prerequest",
							"script": {
								"id": "4f695e0d-51cf-4fde-9325-433220bdd5ba",
								"exec": [
									"var uuid = require('uuid'); ",
									"pm.environment.set(\"accountholder-name2\", uuid.v4());"
								],
								"type": "text/javascript"
							}
						}
					],
					"request": {
						"method": "POST",
						"header": [
							{
								"key": "Content-Type",
								"name": "Content-Type",
								"type": "text",
								"value": "application/json"
							},
							{
								"key": "INSTITUTION-ID",
								"type": "text",
								"value": "{{institution-id}}"
							}
						],
						"body": {
							"mode": "raw",
							"raw": "{\n    \"name\": \"{{accountholder-name2}}\",\n    \"active\": true\n}"
						},
						"url": {
							"raw": "{{ts-sv-api-institution-url}}/sv/accountholders",
							"host": [
								"{{ts-sv-api-institution-url}}"
							],
							"path": [
								"sv",
								"accountholders"
							]
						}
					},
					"response": []
				},
				{
					"name": "I3_3:POST new Individual Account 1",
					"event": [
						{
							"listen": "test",
							"script": {
								"id": "3cb5171c-ac50-4307-844a-c1699687db90",
								"exec": [
									"tests[\"Status code 201\"] = responseCode.code === 201;",
									"var env = pm.environment",
									"var jsonData = JSON.parse(responseBody);",
									"",
									"env.set(\"account-id-1\", jsonData.id);",
									"",
									"tests[\"Account ID is Generated\"] = jsonData.id !== null",
									"tests[\"Account Type ID is Correct\"] = jsonData.accountTypeId == env.get(\"accountTypeId1\")",
									"tests[\"Account Credit Limit is Correct\"] = jsonData.creditLimitAmount == env.get(\"account-creditLimit1\")",
									"tests[\"Account Credit Limit is Correct\"] = jsonData.type == env.get(\"account-type-ind\")"
								],
								"type": "text/javascript"
							}
						},
						{
							"listen": "prerequest",
							"script": {
								"id": "5fb7b423-5379-4357-9441-bbc9da5c71c0",
								"exec": [
									"var uuid = require('uuid'); ",
									"pm.environment.set(\"account-creditLimit1\", \"104.23\");",
									"pm.environment.set(\"account-type-ind\", \"IND\");"
								],
								"type": "text/javascript"
							}
						}
					],
					"request": {
						"method": "POST",
						"header": [
							{
								"key": "Content-Type",
								"name": "Content-Type",
								"type": "text",
								"value": "application/json"
							},
							{
								"key": "INSTITUTION-ID",
								"type": "text",
								"value": "{{institution-id}}"
							}
						],
						"body": {
							"mode": "raw",
							"raw": "{\n    \"accountTypeId\": \"{{accountTypeId1}}\",\n    \"creditLimitAmount\": \"{{account-creditLimit1}}\",\n    \"type\": \"{{account-type-ind}}\"\n}"
						},
						"url": {
							"raw": "{{ts-sv-api-institution-url}}/sv/accounts",
							"host": [
								"{{ts-sv-api-institution-url}}"
							],
							"path": [
								"sv",
								"accounts"
							]
						}
					},
					"response": []
				},
				{
					"name": "I3_3:POST new Individual Account 2",
					"event": [
						{
							"listen": "test",
							"script": {
								"id": "3cb5171c-ac50-4307-844a-c1699687db90",
								"exec": [
									"tests[\"Status code 201\"] = responseCode.code === 201;",
									"var env = pm.environment",
									"var jsonData = JSON.parse(responseBody);",
									"",
									"env.set(\"account-id-2\", jsonData.id);",
									"",
									"tests[\"Account ID is Generated\"] = jsonData.id !== null",
									"tests[\"Account Type ID is Correct\"] = jsonData.accountTypeId == env.get(\"accountTypeId1\")",
									"tests[\"Account Credit Limit is Correct\"] = jsonData.creditLimitAmount == env.get(\"account-creditLimit1\")",
									"tests[\"Account Credit Limit is Correct\"] = jsonData.type == env.get(\"account-type-ind\")"
								],
								"type": "text/javascript"
							}
						},
						{
							"listen": "prerequest",
							"script": {
								"id": "5fb7b423-5379-4357-9441-bbc9da5c71c0",
								"exec": [
									"var uuid = require('uuid'); ",
									"pm.environment.set(\"account-creditLimit1\", \"104.23\");",
									"pm.environment.set(\"account-type-ind\", \"IND\");"
								],
								"type": "text/javascript"
							}
						}
					],
					"request": {
						"method": "POST",
						"header": [
							{
								"key": "Content-Type",
								"name": "Content-Type",
								"type": "text",
								"value": "application/json"
							},
							{
								"key": "INSTITUTION-ID",
								"type": "text",
								"value": "{{institution-id}}"
							}
						],
						"body": {
							"mode": "raw",
							"raw": "{\n    \"accountTypeId\": \"{{accountTypeId1}}\",\n    \"creditLimitAmount\": \"{{account-creditLimit1}}\",\n    \"type\": \"{{account-type-ind}}\"\n}"
						},
						"url": {
							"raw": "{{ts-sv-api-institution-url}}/sv/accounts",
							"host": [
								"{{ts-sv-api-institution-url}}"
							],
							"path": [
								"sv",
								"accounts"
							]
						}
					},
					"response": []
				},
				{
					"name": "I3_3:POST new Group Account 3",
					"event": [
						{
							"listen": "test",
							"script": {
								"id": "3cb5171c-ac50-4307-844a-c1699687db90",
								"exec": [
									"tests[\"Status code 201\"] = responseCode.code === 201;",
									"var env = pm.environment",
									"var jsonData = JSON.parse(responseBody);",
									"",
									"env.set(\"account-id-3\", jsonData.id);",
									"",
									"tests[\"Account ID is Generated\"] = jsonData.id !== null",
									"tests[\"Account Type ID is Correct\"] = jsonData.accountTypeId == env.get(\"accountTypeId2\")",
									"tests[\"Account Credit Limit is Correct\"] = jsonData.creditLimitAmount == env.get(\"account-creditLimit1\")",
									"tests[\"Account Credit Limit is Correct\"] = jsonData.type == env.get(\"account-type-group\")"
								],
								"type": "text/javascript"
							}
						},
						{
							"listen": "prerequest",
							"script": {
								"id": "5fb7b423-5379-4357-9441-bbc9da5c71c0",
								"exec": [
									"var uuid = require('uuid'); ",
									"pm.environment.set(\"account-creditLimit1\", \"104.23\");",
									"pm.environment.set(\"account-type-group\", \"GRP\");"
								],
								"type": "text/javascript"
							}
						}
					],
					"request": {
						"method": "POST",
						"header": [
							{
								"key": "Content-Type",
								"name": "Content-Type",
								"type": "text",
								"value": "application/json"
							},
							{
								"key": "INSTITUTION-ID",
								"type": "text",
								"value": "{{institution-id}}"
							}
						],
						"body": {
							"mode": "raw",
							"raw": "{\n    \"accountTypeId\": \"{{accountTypeId2}}\",\n    \"creditLimitAmount\": \"{{account-creditLimit1}}\",\n    \"type\": \"{{account-type-group}}\"\n}"
						},
						"url": {
							"raw": "{{ts-sv-api-institution-url}}/sv/accounts",
							"host": [
								"{{ts-sv-api-institution-url}}"
							],
							"path": [
								"sv",
								"accounts"
							]
						}
					},
					"response": []
				},
				{
					"name": "I3_3:POST new Orphan Group Account 2",
					"event": [
						{
							"listen": "test",
							"script": {
								"id": "3cb5171c-ac50-4307-844a-c1699687db90",
								"exec": [
									"tests[\"Status code 201\"] = responseCode.code === 201;",
									"var env = pm.environment",
									"var jsonData = JSON.parse(responseBody);",
									"",
									"env.set(\"account-id-4\", jsonData.id);",
									"",
									"tests[\"Account ID is Generated\"] = jsonData.id !== null",
									"tests[\"Account Type ID is Correct\"] = jsonData.accountTypeId == env.get(\"accountTypeId3\")",
									"tests[\"Account Credit Limit is Correct\"] = jsonData.creditLimitAmount == env.get(\"account-creditLimit1\")",
									"tests[\"Account Credit Limit is Correct\"] = jsonData.type == env.get(\"account-type-group\")"
								],
								"type": "text/javascript"
							}
						},
						{
							"listen": "prerequest",
							"script": {
								"id": "5fb7b423-5379-4357-9441-bbc9da5c71c0",
								"exec": [
									"var uuid = require('uuid'); ",
									"pm.environment.set(\"account-creditLimit1\", \"104.23\");",
									"pm.environment.set(\"account-type-group\", \"GRP\");"
								],
								"type": "text/javascript"
							}
						}
					],
					"request": {
						"method": "POST",
						"header": [
							{
								"key": "Content-Type",
								"name": "Content-Type",
								"type": "text",
								"value": "application/json"
							},
							{
								"key": "INSTITUTION-ID",
								"type": "text",
								"value": "{{institution-id}}"
							}
						],
						"body": {
							"mode": "raw",
							"raw": "{\n    \"accountTypeId\": \"{{accountTypeId3}}\",\n    \"creditLimitAmount\": \"{{account-creditLimit1}}\",\n    \"type\": \"{{account-type-group}}\"\n}"
						},
						"url": {
							"raw": "{{ts-sv-api-institution-url}}/sv/accounts",
							"host": [
								"{{ts-sv-api-institution-url}}"
							],
							"path": [
								"sv",
								"accounts"
							]
						}
					},
					"response": []
				},
				{
					"name": "I3_4:POST new Account Map From AH1 to AC1",
					"event": [
						{
							"listen": "test",
							"script": {
								"id": "3cb5171c-ac50-4307-844a-c1699687db90",
								"exec": [
									"tests[\"Status code 201\"] = responseCode.code === 201;",
									"var env = pm.environment",
									"var jsonData = JSON.parse(responseBody);",
									"",
									"tests[\"Account ID is Generated\"] = jsonData.id !== null",
									"tests[\"Account Type ID is Correct\"] = jsonData.accountTypeId == env.get(\"accountTypeId1\")",
									"tests[\"Account Holders List is Correct\"] = jsonData.accountHoldersLinked.length === 1"
								],
								"type": "text/javascript"
							}
						},
						{
							"listen": "prerequest",
							"script": {
								"id": "5fb7b423-5379-4357-9441-bbc9da5c71c0",
								"exec": [
									"var objBody = { accountHolders: '' }",
									"var ah1 = pm.environment.get(\"accountholder-id\")",
									"objBody.accountHolders = [ ah1 ]",
									"",
									"pm.environment.set(\"body\", JSON.stringify(objBody))",
									""
								],
								"type": "text/javascript"
							}
						}
					],
					"request": {
						"method": "POST",
						"header": [
							{
								"key": "Content-Type",
								"name": "Content-Type",
								"type": "text",
								"value": "application/json"
							},
							{
								"key": "INSTITUTION-ID",
								"type": "text",
								"value": "{{institution-id}}"
							}
						],
						"body": {
							"mode": "raw",
							"raw": "{{body}}"
						},
						"url": {
							"raw": "{{ts-sv-api-institution-url}}/sv/accounts/{{account-id-1}}/accountholders",
							"host": [
								"{{ts-sv-api-institution-url}}"
							],
							"path": [
								"sv",
								"accounts",
								"{{account-id-1}}",
								"accountholders"
							]
						}
					},
					"response": []
				},
				{
					"name": "I3_4:POST new Account Map From AH2 to AC2",
					"event": [
						{
							"listen": "test",
							"script": {
								"id": "3cb5171c-ac50-4307-844a-c1699687db90",
								"exec": [
									"tests[\"Status code 201\"] = responseCode.code === 201;",
									"var env = pm.environment",
									"var jsonData = JSON.parse(responseBody);",
									"",
									"tests[\"Account ID is Generated\"] = jsonData.id !== null",
									"tests[\"Account Type ID is Correct\"] = jsonData.accountTypeId == env.get(\"accountTypeId1\")",
									"tests[\"Account Holders List is Correct\"] = jsonData.accountHoldersLinked.length === 1"
								],
								"type": "text/javascript"
							}
						},
						{
							"listen": "prerequest",
							"script": {
								"id": "5fb7b423-5379-4357-9441-bbc9da5c71c0",
								"exec": [
									"var objBody = { accountHolders: '' }",
									"var ah2 = pm.environment.get(\"accountholder-id2\")",
									"objBody.accountHolders = [ ah2 ]",
									"",
									"pm.environment.set(\"body\", JSON.stringify(objBody))",
									""
								],
								"type": "text/javascript"
							}
						}
					],
					"request": {
						"method": "POST",
						"header": [
							{
								"key": "Content-Type",
								"name": "Content-Type",
								"type": "text",
								"value": "application/json"
							},
							{
								"key": "INSTITUTION-ID",
								"type": "text",
								"value": "{{institution-id}}"
							}
						],
						"body": {
							"mode": "raw",
							"raw": "{{body}}"
						},
						"url": {
							"raw": "{{ts-sv-api-institution-url}}/sv/accounts/{{account-id-2}}/accountholders",
							"host": [
								"{{ts-sv-api-institution-url}}"
							],
							"path": [
								"sv",
								"accounts",
								"{{account-id-2}}",
								"accountholders"
							]
						}
					},
					"response": []
				},
				{
					"name": "I3_4:POST new Account Map To Group AC3",
					"event": [
						{
							"listen": "test",
							"script": {
								"id": "3cb5171c-ac50-4307-844a-c1699687db90",
								"exec": [
									"tests[\"Status code 201\"] = responseCode.code === 201;",
									"var env = pm.environment",
									"var jsonData = JSON.parse(responseBody);",
									"",
									"tests[\"Account ID is Generated\"] = jsonData.id !== null",
									"tests[\"Account Type ID is Correct\"] = jsonData.accountTypeId == env.get(\"accountTypeId2\")",
									"tests[\"Account Holders List is Correct\"] = jsonData.accountHoldersLinked.length === 2"
								],
								"type": "text/javascript"
							}
						},
						{
							"listen": "prerequest",
							"script": {
								"id": "5fb7b423-5379-4357-9441-bbc9da5c71c0",
								"exec": [
									"var objBody = { accountHolders: '' }",
									"var ah1 = pm.environment.get(\"accountholder-id\")",
									"var ah2 = pm.environment.get(\"accountholder-id2\")",
									"objBody.accountHolders = [ ah1, ah2 ]",
									"",
									"pm.environment.set(\"body\", JSON.stringify(objBody))",
									""
								],
								"type": "text/javascript"
							}
						}
					],
					"request": {
						"method": "POST",
						"header": [
							{
								"key": "Content-Type",
								"name": "Content-Type",
								"type": "text",
								"value": "application/json"
							},
							{
								"key": "INSTITUTION-ID",
								"type": "text",
								"value": "{{institution-id}}"
							}
						],
						"body": {
							"mode": "raw",
							"raw": "{{body}}"
						},
						"url": {
							"raw": "{{ts-sv-api-institution-url}}/sv/accounts/{{account-id-3}}/accountholders",
							"host": [
								"{{ts-sv-api-institution-url}}"
							],
							"path": [
								"sv",
								"accounts",
								"{{account-id-3}}",
								"accountholders"
							]
						}
					},
					"response": []
				},
				{
					"name": "I3_END1:DELETE Institution",
					"event": [
						{
							"listen": "test",
							"script": {
								"id": "e1dead1a-098d-4188-9b55-69f0e811478f",
								"exec": [
									"tests[\"Status code 200\"] = responseCode.code === 200;"
								],
								"type": "text/javascript"
							}
						}
					],
					"request": {
						"method": "DELETE",
						"header": [
							{
								"key": "Content-Type",
								"name": "Content-Type",
								"type": "text",
								"value": "application/json"
							}
						],
						"url": {
							"raw": "{{ts-sv-api-institution-url}}/sv/institutions/{{institution-id}}",
							"host": [
								"{{ts-sv-api-institution-url}}"
							],
							"path": [
								"sv",
								"institutions",
								"{{institution-id}}"
							]
						}
					},
					"response": []
				},
				{
					"name": "I3_END2:GET Verify Delete Cascaded to Account Types",
					"event": [
						{
							"listen": "test",
							"script": {
								"id": "144d395c-29f7-4ec9-882d-1c9a741c10b9",
								"exec": [
									"tests[\"Status code 200\"] = responseCode.code === 200;",
									"var env = pm.environment",
									"var jsonData = JSON.parse(responseBody);",
									"",
									"tests[\"Account types are empty\"] = jsonData.length ===  0;"
								],
								"type": "text/javascript"
							}
						}
					],
					"request": {
						"method": "GET",
						"header": [
							{
								"key": "INSTITUTION-ID",
								"type": "text",
								"value": "{{institution-id}}"
							}
						],
						"url": {
							"raw": "{{ts-sv-api-institution-url}}/sv/accounttypes",
							"host": [
								"{{ts-sv-api-institution-url}}"
							],
							"path": [
								"sv",
								"accounttypes"
							]
						}
					},
					"response": []
				},
				{
					"name": "I3_END2:GET Verify Delete Cascaded to Tender Rules",
					"event": [
						{
							"listen": "test",
							"script": {
								"id": "938fe757-1e53-4acb-b522-f06600de3eb6",
								"exec": [
									"tests[\"Status code 200\"] = responseCode.code === 200;",
									"var env = pm.environment",
									"var jsonData = JSON.parse(responseBody);",
									"",
									"tests[\"Tender Rules are Empty\"] = jsonData.length === 0;"
								],
								"type": "text/javascript"
							}
						}
					],
					"protocolProfileBehavior": {
						"disableBodyPruning": true
					},
					"request": {
						"method": "GET",
						"header": [
							{
								"key": "Content-Type",
								"name": "Content-Type",
								"type": "text",
								"value": "application/json"
							},
							{
								"key": "INSTITUTION-ID",
								"type": "text",
								"value": "{{institution-id}}"
							}
						],
						"body": {
							"mode": "raw",
							"raw": ""
						},
						"url": {
							"raw": "{{ts-sv-api-institution-url}}/sv/tenderrules",
							"host": [
								"{{ts-sv-api-institution-url}}"
							],
							"path": [
								"sv",
								"tenderrules"
							]
						}
					},
					"response": []
				},
				{
					"name": "I3_END2:GET Verify Delete Cascaded to AH1",
					"event": [
						{
							"listen": "test",
							"script": {
								"id": "e1dead1a-098d-4188-9b55-69f0e811478f",
								"exec": [
									"tests[\"Status code 404\"] = responseCode.code === 404;",
									""
								],
								"type": "text/javascript"
							}
						}
					],
					"request": {
						"method": "GET",
						"header": [
							{
								"key": "Content-Type",
								"name": "Content-Type",
								"type": "text",
								"value": "application/json"
							},
							{
								"key": "INSTITUTION-ID",
								"value": "{{institution-id}}",
								"type": "text"
							}
						],
						"url": {
							"raw": "{{ts-sv-api-institution-url}}/sv/accountholders/{{accountholder-id}}",
							"host": [
								"{{ts-sv-api-institution-url}}"
							],
							"path": [
								"sv",
								"accountholders",
								"{{accountholder-id}}"
							]
						}
					},
					"response": []
				},
				{
					"name": "I3_END2:GET Verify Delete Cascaded to AH2",
					"event": [
						{
							"listen": "test",
							"script": {
								"id": "e1dead1a-098d-4188-9b55-69f0e811478f",
								"exec": [
									"tests[\"Status code 404\"] = responseCode.code === 404;",
									""
								],
								"type": "text/javascript"
							}
						}
					],
					"request": {
						"method": "GET",
						"header": [
							{
								"key": "Content-Type",
								"name": "Content-Type",
								"type": "text",
								"value": "application/json"
							},
							{
								"key": "INSTITUTION-ID",
								"type": "text",
								"value": "{{institution-id}}"
							}
						],
						"url": {
							"raw": "{{ts-sv-api-institution-url}}/sv/accountholders/{{accountholder-id2}}",
							"host": [
								"{{ts-sv-api-institution-url}}"
							],
							"path": [
								"sv",
								"accountholders",
								"{{accountholder-id2}}"
							]
						}
					},
					"response": []
				},
				{
					"name": "I3_END2:GET Verify Delete Cascaded to AC1",
					"event": [
						{
							"listen": "test",
							"script": {
								"id": "e1dead1a-098d-4188-9b55-69f0e811478f",
								"exec": [
									"tests[\"Status code 404\"] = responseCode.code === 404;",
									""
								],
								"type": "text/javascript"
							}
						}
					],
					"request": {
						"method": "GET",
						"header": [
							{
								"key": "Content-Type",
								"name": "Content-Type",
								"type": "text",
								"value": "application/json"
							},
							{
								"key": "INSTITUTION-ID",
								"type": "text",
								"value": "{{institution-id}}"
							}
						],
						"url": {
							"raw": "{{ts-sv-api-institution-url}}/sv/accounts/{{account-id-1}}",
							"host": [
								"{{ts-sv-api-institution-url}}"
							],
							"path": [
								"sv",
								"accounts",
								"{{account-id-1}}"
							]
						}
					},
					"response": []
				},
				{
					"name": "I3_END2:GET Verify Delete Cascaded to AC2",
					"event": [
						{
							"listen": "test",
							"script": {
								"id": "e1dead1a-098d-4188-9b55-69f0e811478f",
								"exec": [
									"tests[\"Status code 404\"] = responseCode.code === 404;",
									""
								],
								"type": "text/javascript"
							}
						}
					],
					"request": {
						"method": "GET",
						"header": [
							{
								"key": "Content-Type",
								"name": "Content-Type",
								"type": "text",
								"value": "application/json"
							},
							{
								"key": "INSTITUTION-ID",
								"type": "text",
								"value": "{{institution-id}}"
							}
						],
						"url": {
							"raw": "{{ts-sv-api-institution-url}}/sv/accounts/{{account-id-2}}",
							"host": [
								"{{ts-sv-api-institution-url}}"
							],
							"path": [
								"sv",
								"accounts",
								"{{account-id-2}}"
							]
						}
					},
					"response": []
				},
				{
					"name": "I3_END2:GET Verify Delete Cascaded to AC3",
					"event": [
						{
							"listen": "test",
							"script": {
								"id": "e1dead1a-098d-4188-9b55-69f0e811478f",
								"exec": [
									"tests[\"Status code 404\"] = responseCode.code === 404;",
									""
								],
								"type": "text/javascript"
							}
						}
					],
					"request": {
						"method": "GET",
						"header": [
							{
								"key": "Content-Type",
								"name": "Content-Type",
								"type": "text",
								"value": "application/json"
							},
							{
								"key": "INSTITUTION-ID",
								"type": "text",
								"value": "{{institution-id}}"
							}
						],
						"url": {
							"raw": "{{ts-sv-api-institution-url}}/sv/accounts/{{account-id-3}}",
							"host": [
								"{{ts-sv-api-institution-url}}"
							],
							"path": [
								"sv",
								"accounts",
								"{{account-id-3}}"
							]
						}
					},
					"response": []
				},
				{
					"name": "I3_END2:GET Verify Delete Cascaded to AC4",
					"event": [
						{
							"listen": "test",
							"script": {
								"id": "e1dead1a-098d-4188-9b55-69f0e811478f",
								"exec": [
									"tests[\"Status code 404\"] = responseCode.code === 404;",
									""
								],
								"type": "text/javascript"
							}
						}
					],
					"request": {
						"method": "GET",
						"header": [
							{
								"key": "Content-Type",
								"name": "Content-Type",
								"type": "text",
								"value": "application/json"
							},
							{
								"key": "INSTITUTION-ID",
								"type": "text",
								"value": "{{institution-id}}"
							}
						],
						"url": {
							"raw": "{{ts-sv-api-institution-url}}/sv/accounts/{{account-id-4}}",
							"host": [
								"{{ts-sv-api-institution-url}}"
							],
							"path": [
								"sv",
								"accounts",
								"{{account-id-4}}"
							]
						}
					},
					"response": []
				}
			],
			"protocolProfileBehavior": {}
		}
	],
	"protocolProfileBehavior": {}
}